%!PS-Adobe EPSF-3.0
%%CreationDate: 2014-05-12
%%Title: QR-code
%%Pages: 1
%%DocumentData: Clean7Bit
%%LanguageLevel: 2
%%BoundingBox: 0 0 483 483
7 7 scale
2 2 translate
0 0 0 setrgbcolor
/r {rectfill} def
0 64 1 1 r
0 63 1 1 r
0 62 1 1 r
0 61 1 1 r
0 60 1 1 r
0 59 1 1 r
0 58 1 1 r
0 56 1 1 r
0 54 1 1 r
0 52 1 1 r
0 50 1 1 r
0 48 1 1 r
0 44 1 1 r
0 41 1 1 r
0 40 1 1 r
0 38 1 1 r
0 35 1 1 r
0 33 1 1 r
0 32 1 1 r
0 28 1 1 r
0 23 1 1 r
0 22 1 1 r
0 21 1 1 r
0 20 1 1 r
0 18 1 1 r
0 17 1 1 r
0 14 1 1 r
0 13 1 1 r
0 9 1 1 r
0 6 1 1 r
0 5 1 1 r
0 4 1 1 r
0 3 1 1 r
0 2 1 1 r
0 1 1 1 r
0 0 1 1 r
1 64 1 1 r
1 58 1 1 r
1 56 1 1 r
1 54 1 1 r
1 47 1 1 r
1 46 1 1 r
1 45 1 1 r
1 44 1 1 r
1 43 1 1 r
1 42 1 1 r
1 41 1 1 r
1 39 1 1 r
1 37 1 1 r
1 36 1 1 r
1 35 1 1 r
1 34 1 1 r
1 32 1 1 r
1 31 1 1 r
1 30 1 1 r
1 29 1 1 r
1 26 1 1 r
1 25 1 1 r
1 24 1 1 r
1 21 1 1 r
1 19 1 1 r
1 18 1 1 r
1 15 1 1 r
1 14 1 1 r
1 13 1 1 r
1 12 1 1 r
1 8 1 1 r
1 6 1 1 r
1 0 1 1 r
2 64 1 1 r
2 62 1 1 r
2 61 1 1 r
2 60 1 1 r
2 58 1 1 r
2 52 1 1 r
2 46 1 1 r
2 43 1 1 r
2 41 1 1 r
2 40 1 1 r
2 39 1 1 r
2 37 1 1 r
2 36 1 1 r
2 33 1 1 r
2 32 1 1 r
2 27 1 1 r
2 26 1 1 r
2 22 1 1 r
2 21 1 1 r
2 19 1 1 r
2 13 1 1 r
2 12 1 1 r
2 11 1 1 r
2 10 1 1 r
2 8 1 1 r
2 6 1 1 r
2 4 1 1 r
2 3 1 1 r
2 2 1 1 r
2 0 1 1 r
3 64 1 1 r
3 62 1 1 r
3 61 1 1 r
3 60 1 1 r
3 58 1 1 r
3 56 1 1 r
3 54 1 1 r
3 52 1 1 r
3 50 1 1 r
3 49 1 1 r
3 47 1 1 r
3 43 1 1 r
3 42 1 1 r
3 41 1 1 r
3 39 1 1 r
3 36 1 1 r
3 35 1 1 r
3 31 1 1 r
3 29 1 1 r
3 27 1 1 r
3 26 1 1 r
3 25 1 1 r
3 22 1 1 r
3 21 1 1 r
3 19 1 1 r
3 18 1 1 r
3 17 1 1 r
3 15 1 1 r
3 14 1 1 r
3 12 1 1 r
3 11 1 1 r
3 10 1 1 r
3 9 1 1 r
3 6 1 1 r
3 4 1 1 r
3 3 1 1 r
3 2 1 1 r
3 0 1 1 r
4 64 1 1 r
4 62 1 1 r
4 61 1 1 r
4 60 1 1 r
4 58 1 1 r
4 53 1 1 r
4 46 1 1 r
4 45 1 1 r
4 42 1 1 r
4 41 1 1 r
4 40 1 1 r
4 39 1 1 r
4 38 1 1 r
4 37 1 1 r
4 35 1 1 r
4 34 1 1 r
4 33 1 1 r
4 32 1 1 r
4 31 1 1 r
4 30 1 1 r
4 29 1 1 r
4 25 1 1 r
4 24 1 1 r
4 22 1 1 r
4 21 1 1 r
4 20 1 1 r
4 17 1 1 r
4 16 1 1 r
4 15 1 1 r
4 14 1 1 r
4 12 1 1 r
4 11 1 1 r
4 8 1 1 r
4 6 1 1 r
4 4 1 1 r
4 3 1 1 r
4 2 1 1 r
4 0 1 1 r
5 64 1 1 r
5 58 1 1 r
5 53 1 1 r
5 50 1 1 r
5 49 1 1 r
5 45 1 1 r
5 44 1 1 r
5 43 1 1 r
5 42 1 1 r
5 40 1 1 r
5 37 1 1 r
5 36 1 1 r
5 34 1 1 r
5 30 1 1 r
5 29 1 1 r
5 27 1 1 r
5 26 1 1 r
5 25 1 1 r
5 24 1 1 r
5 22 1 1 r
5 19 1 1 r
5 18 1 1 r
5 17 1 1 r
5 16 1 1 r
5 11 1 1 r
5 10 1 1 r
5 6 1 1 r
5 0 1 1 r
6 64 1 1 r
6 63 1 1 r
6 62 1 1 r
6 61 1 1 r
6 60 1 1 r
6 59 1 1 r
6 58 1 1 r
6 56 1 1 r
6 54 1 1 r
6 52 1 1 r
6 50 1 1 r
6 48 1 1 r
6 46 1 1 r
6 44 1 1 r
6 42 1 1 r
6 40 1 1 r
6 38 1 1 r
6 36 1 1 r
6 34 1 1 r
6 32 1 1 r
6 30 1 1 r
6 28 1 1 r
6 26 1 1 r
6 24 1 1 r
6 22 1 1 r
6 20 1 1 r
6 18 1 1 r
6 16 1 1 r
6 14 1 1 r
6 12 1 1 r
6 10 1 1 r
6 8 1 1 r
6 6 1 1 r
6 5 1 1 r
6 4 1 1 r
6 3 1 1 r
6 2 1 1 r
6 1 1 1 r
6 0 1 1 r
7 56 1 1 r
7 55 1 1 r
7 54 1 1 r
7 53 1 1 r
7 50 1 1 r
7 49 1 1 r
7 45 1 1 r
7 42 1 1 r
7 39 1 1 r
7 38 1 1 r
7 34 1 1 r
7 30 1 1 r
7 27 1 1 r
7 26 1 1 r
7 25 1 1 r
7 24 1 1 r
7 23 1 1 r
7 21 1 1 r
7 20 1 1 r
7 17 1 1 r
7 16 1 1 r
7 15 1 1 r
7 14 1 1 r
7 13 1 1 r
7 11 1 1 r
7 10 1 1 r
8 63 1 1 r
8 62 1 1 r
8 60 1 1 r
8 59 1 1 r
8 58 1 1 r
8 57 1 1 r
8 55 1 1 r
8 54 1 1 r
8 52 1 1 r
8 49 1 1 r
8 40 1 1 r
8 36 1 1 r
8 34 1 1 r
8 33 1 1 r
8 32 1 1 r
8 31 1 1 r
8 30 1 1 r
8 25 1 1 r
8 20 1 1 r
8 19 1 1 r
8 17 1 1 r
8 16 1 1 r
8 15 1 1 r
8 14 1 1 r
8 13 1 1 r
8 12 1 1 r
8 11 1 1 r
8 10 1 1 r
8 9 1 1 r
8 8 1 1 r
8 7 1 1 r
8 6 1 1 r
8 3 1 1 r
8 1 1 1 r
8 0 1 1 r
9 64 1 1 r
9 63 1 1 r
9 62 1 1 r
9 61 1 1 r
9 60 1 1 r
9 59 1 1 r
9 56 1 1 r
9 51 1 1 r
9 49 1 1 r
9 44 1 1 r
9 42 1 1 r
9 41 1 1 r
9 40 1 1 r
9 39 1 1 r
9 38 1 1 r
9 34 1 1 r
9 33 1 1 r
9 31 1 1 r
9 28 1 1 r
9 22 1 1 r
9 21 1 1 r
9 19 1 1 r
9 15 1 1 r
9 14 1 1 r
9 13 1 1 r
9 12 1 1 r
9 10 1 1 r
9 8 1 1 r
9 5 1 1 r
9 2 1 1 r
9 0 1 1 r
10 64 1 1 r
10 63 1 1 r
10 62 1 1 r
10 61 1 1 r
10 60 1 1 r
10 59 1 1 r
10 58 1 1 r
10 57 1 1 r
10 56 1 1 r
10 54 1 1 r
10 53 1 1 r
10 52 1 1 r
10 49 1 1 r
10 46 1 1 r
10 43 1 1 r
10 41 1 1 r
10 39 1 1 r
10 35 1 1 r
10 33 1 1 r
10 31 1 1 r
10 29 1 1 r
10 21 1 1 r
10 15 1 1 r
10 13 1 1 r
10 12 1 1 r
10 10 1 1 r
10 8 1 1 r
10 7 1 1 r
10 6 1 1 r
10 4 1 1 r
10 2 1 1 r
11 64 1 1 r
11 63 1 1 r
11 62 1 1 r
11 61 1 1 r
11 60 1 1 r
11 56 1 1 r
11 51 1 1 r
11 49 1 1 r
11 48 1 1 r
11 46 1 1 r
11 45 1 1 r
11 44 1 1 r
11 43 1 1 r
11 42 1 1 r
11 41 1 1 r
11 39 1 1 r
11 38 1 1 r
11 34 1 1 r
11 33 1 1 r
11 31 1 1 r
11 29 1 1 r
11 26 1 1 r
11 25 1 1 r
11 24 1 1 r
11 23 1 1 r
11 21 1 1 r
11 20 1 1 r
11 19 1 1 r
11 15 1 1 r
11 10 1 1 r
11 7 1 1 r
11 3 1 1 r
11 1 1 1 r
11 0 1 1 r
12 63 1 1 r
12 62 1 1 r
12 61 1 1 r
12 59 1 1 r
12 58 1 1 r
12 57 1 1 r
12 56 1 1 r
12 46 1 1 r
12 45 1 1 r
12 44 1 1 r
12 43 1 1 r
12 40 1 1 r
12 38 1 1 r
12 37 1 1 r
12 36 1 1 r
12 30 1 1 r
12 28 1 1 r
12 26 1 1 r
12 25 1 1 r
12 24 1 1 r
12 23 1 1 r
12 22 1 1 r
12 20 1 1 r
12 18 1 1 r
12 16 1 1 r
12 15 1 1 r
12 14 1 1 r
12 13 1 1 r
12 9 1 1 r
12 8 1 1 r
12 7 1 1 r
12 2 1 1 r
13 62 1 1 r
13 59 1 1 r
13 55 1 1 r
13 54 1 1 r
13 49 1 1 r
13 47 1 1 r
13 45 1 1 r
13 42 1 1 r
13 41 1 1 r
13 38 1 1 r
13 35 1 1 r
13 33 1 1 r
13 23 1 1 r
13 22 1 1 r
13 21 1 1 r
13 20 1 1 r
13 19 1 1 r
13 18 1 1 r
13 17 1 1 r
13 16 1 1 r
13 15 1 1 r
13 14 1 1 r
13 13 1 1 r
13 12 1 1 r
13 11 1 1 r
13 10 1 1 r
13 7 1 1 r
13 6 1 1 r
13 5 1 1 r
13 2 1 1 r
13 1 1 1 r
13 0 1 1 r
14 63 1 1 r
14 62 1 1 r
14 61 1 1 r
14 59 1 1 r
14 58 1 1 r
14 57 1 1 r
14 55 1 1 r
14 54 1 1 r
14 53 1 1 r
14 52 1 1 r
14 51 1 1 r
14 50 1 1 r
14 47 1 1 r
14 46 1 1 r
14 44 1 1 r
14 43 1 1 r
14 40 1 1 r
14 38 1 1 r
14 37 1 1 r
14 36 1 1 r
14 35 1 1 r
14 33 1 1 r
14 31 1 1 r
14 26 1 1 r
14 25 1 1 r
14 22 1 1 r
14 20 1 1 r
14 17 1 1 r
14 15 1 1 r
14 14 1 1 r
14 13 1 1 r
14 10 1 1 r
14 8 1 1 r
14 7 1 1 r
14 6 1 1 r
14 5 1 1 r
14 2 1 1 r
14 1 1 1 r
14 0 1 1 r
15 61 1 1 r
15 60 1 1 r
15 59 1 1 r
15 55 1 1 r
15 53 1 1 r
15 52 1 1 r
15 47 1 1 r
15 45 1 1 r
15 40 1 1 r
15 38 1 1 r
15 37 1 1 r
15 36 1 1 r
15 35 1 1 r
15 34 1 1 r
15 33 1 1 r
15 29 1 1 r
15 27 1 1 r
15 25 1 1 r
15 23 1 1 r
15 22 1 1 r
15 21 1 1 r
15 16 1 1 r
15 13 1 1 r
15 12 1 1 r
15 11 1 1 r
15 10 1 1 r
15 9 1 1 r
15 8 1 1 r
15 7 1 1 r
15 6 1 1 r
15 4 1 1 r
15 3 1 1 r
15 2 1 1 r
15 1 1 1 r
16 64 1 1 r
16 63 1 1 r
16 62 1 1 r
16 61 1 1 r
16 59 1 1 r
16 58 1 1 r
16 56 1 1 r
16 53 1 1 r
16 50 1 1 r
16 49 1 1 r
16 48 1 1 r
16 47 1 1 r
16 46 1 1 r
16 45 1 1 r
16 44 1 1 r
16 43 1 1 r
16 42 1 1 r
16 41 1 1 r
16 39 1 1 r
16 38 1 1 r
16 34 1 1 r
16 33 1 1 r
16 27 1 1 r
16 26 1 1 r
16 24 1 1 r
16 23 1 1 r
16 22 1 1 r
16 21 1 1 r
16 20 1 1 r
16 19 1 1 r
16 18 1 1 r
16 17 1 1 r
16 15 1 1 r
16 11 1 1 r
16 10 1 1 r
16 7 1 1 r
16 4 1 1 r
16 3 1 1 r
16 2 1 1 r
16 0 1 1 r
17 63 1 1 r
17 61 1 1 r
17 60 1 1 r
17 56 1 1 r
17 53 1 1 r
17 49 1 1 r
17 48 1 1 r
17 46 1 1 r
17 45 1 1 r
17 43 1 1 r
17 42 1 1 r
17 41 1 1 r
17 39 1 1 r
17 35 1 1 r
17 34 1 1 r
17 33 1 1 r
17 32 1 1 r
17 31 1 1 r
17 29 1 1 r
17 20 1 1 r
17 19 1 1 r
17 15 1 1 r
17 13 1 1 r
17 12 1 1 r
17 8 1 1 r
17 7 1 1 r
17 6 1 1 r
17 5 1 1 r
17 1 1 1 r
17 0 1 1 r
18 64 1 1 r
18 62 1 1 r
18 60 1 1 r
18 58 1 1 r
18 54 1 1 r
18 51 1 1 r
18 49 1 1 r
18 45 1 1 r
18 42 1 1 r
18 35 1 1 r
18 34 1 1 r
18 32 1 1 r
18 30 1 1 r
18 28 1 1 r
18 23 1 1 r
18 22 1 1 r
18 18 1 1 r
18 16 1 1 r
18 15 1 1 r
18 13 1 1 r
18 6 1 1 r
18 3 1 1 r
18 1 1 1 r
18 0 1 1 r
19 64 1 1 r
19 61 1 1 r
19 57 1 1 r
19 51 1 1 r
19 48 1 1 r
19 42 1 1 r
19 41 1 1 r
19 39 1 1 r
19 38 1 1 r
19 37 1 1 r
19 35 1 1 r
19 34 1 1 r
19 32 1 1 r
19 31 1 1 r
19 27 1 1 r
19 24 1 1 r
19 23 1 1 r
19 18 1 1 r
19 14 1 1 r
19 12 1 1 r
19 8 1 1 r
19 7 1 1 r
19 4 1 1 r
19 2 1 1 r
19 1 1 1 r
19 0 1 1 r
20 64 1 1 r
20 63 1 1 r
20 62 1 1 r
20 60 1 1 r
20 59 1 1 r
20 58 1 1 r
20 57 1 1 r
20 55 1 1 r
20 54 1 1 r
20 53 1 1 r
20 52 1 1 r
20 51 1 1 r
20 50 1 1 r
20 49 1 1 r
20 48 1 1 r
20 45 1 1 r
20 44 1 1 r
20 43 1 1 r
20 42 1 1 r
20 41 1 1 r
20 40 1 1 r
20 39 1 1 r
20 36 1 1 r
20 35 1 1 r
20 34 1 1 r
20 31 1 1 r
20 29 1 1 r
20 28 1 1 r
20 27 1 1 r
20 24 1 1 r
20 23 1 1 r
20 22 1 1 r
20 19 1 1 r
20 13 1 1 r
20 12 1 1 r
20 10 1 1 r
20 5 1 1 r
20 4 1 1 r
20 0 1 1 r
21 63 1 1 r
21 62 1 1 r
21 61 1 1 r
21 60 1 1 r
21 57 1 1 r
21 55 1 1 r
21 54 1 1 r
21 53 1 1 r
21 52 1 1 r
21 50 1 1 r
21 48 1 1 r
21 47 1 1 r
21 46 1 1 r
21 45 1 1 r
21 44 1 1 r
21 43 1 1 r
21 42 1 1 r
21 41 1 1 r
21 38 1 1 r
21 37 1 1 r
21 36 1 1 r
21 34 1 1 r
21 33 1 1 r
21 31 1 1 r
21 26 1 1 r
21 23 1 1 r
21 22 1 1 r
21 21 1 1 r
21 17 1 1 r
21 16 1 1 r
21 14 1 1 r
21 13 1 1 r
21 12 1 1 r
21 11 1 1 r
21 9 1 1 r
21 7 1 1 r
21 6 1 1 r
21 5 1 1 r
21 4 1 1 r
21 1 1 1 r
22 64 1 1 r
22 63 1 1 r
22 62 1 1 r
22 58 1 1 r
22 57 1 1 r
22 55 1 1 r
22 54 1 1 r
22 51 1 1 r
22 50 1 1 r
22 49 1 1 r
22 47 1 1 r
22 42 1 1 r
22 41 1 1 r
22 39 1 1 r
22 38 1 1 r
22 36 1 1 r
22 34 1 1 r
22 33 1 1 r
22 32 1 1 r
22 28 1 1 r
22 27 1 1 r
22 26 1 1 r
22 25 1 1 r
22 23 1 1 r
22 21 1 1 r
22 19 1 1 r
22 17 1 1 r
22 16 1 1 r
22 15 1 1 r
22 13 1 1 r
22 12 1 1 r
22 8 1 1 r
22 7 1 1 r
22 3 1 1 r
22 1 1 1 r
23 64 1 1 r
23 63 1 1 r
23 62 1 1 r
23 61 1 1 r
23 60 1 1 r
23 50 1 1 r
23 45 1 1 r
23 44 1 1 r
23 41 1 1 r
23 39 1 1 r
23 38 1 1 r
23 37 1 1 r
23 36 1 1 r
23 34 1 1 r
23 33 1 1 r
23 32 1 1 r
23 27 1 1 r
23 21 1 1 r
23 20 1 1 r
23 17 1 1 r
23 15 1 1 r
23 14 1 1 r
23 13 1 1 r
23 10 1 1 r
23 9 1 1 r
23 7 1 1 r
23 4 1 1 r
23 3 1 1 r
23 1 1 1 r
24 61 1 1 r
24 58 1 1 r
24 57 1 1 r
24 55 1 1 r
24 54 1 1 r
24 52 1 1 r
24 51 1 1 r
24 49 1 1 r
24 47 1 1 r
24 46 1 1 r
24 45 1 1 r
24 43 1 1 r
24 42 1 1 r
24 40 1 1 r
24 36 1 1 r
24 34 1 1 r
24 32 1 1 r
24 29 1 1 r
24 28 1 1 r
24 27 1 1 r
24 26 1 1 r
24 23 1 1 r
24 22 1 1 r
24 20 1 1 r
24 19 1 1 r
24 17 1 1 r
24 16 1 1 r
24 13 1 1 r
24 11 1 1 r
24 10 1 1 r
24 9 1 1 r
24 8 1 1 r
24 6 1 1 r
24 4 1 1 r
24 2 1 1 r
25 62 1 1 r
25 61 1 1 r
25 59 1 1 r
25 56 1 1 r
25 52 1 1 r
25 49 1 1 r
25 48 1 1 r
25 47 1 1 r
25 46 1 1 r
25 44 1 1 r
25 43 1 1 r
25 41 1 1 r
25 36 1 1 r
25 33 1 1 r
25 31 1 1 r
25 30 1 1 r
25 27 1 1 r
25 25 1 1 r
25 23 1 1 r
25 22 1 1 r
25 21 1 1 r
25 18 1 1 r
25 14 1 1 r
25 13 1 1 r
25 11 1 1 r
25 7 1 1 r
25 6 1 1 r
25 3 1 1 r
25 2 1 1 r
26 60 1 1 r
26 58 1 1 r
26 57 1 1 r
26 55 1 1 r
26 53 1 1 r
26 50 1 1 r
26 48 1 1 r
26 45 1 1 r
26 44 1 1 r
26 42 1 1 r
26 40 1 1 r
26 38 1 1 r
26 35 1 1 r
26 31 1 1 r
26 30 1 1 r
26 29 1 1 r
26 28 1 1 r
26 26 1 1 r
26 25 1 1 r
26 24 1 1 r
26 23 1 1 r
26 22 1 1 r
26 20 1 1 r
26 17 1 1 r
26 14 1 1 r
26 13 1 1 r
26 11 1 1 r
26 10 1 1 r
26 6 1 1 r
26 5 1 1 r
26 3 1 1 r
26 1 1 1 r
26 0 1 1 r
27 61 1 1 r
27 60 1 1 r
27 57 1 1 r
27 56 1 1 r
27 53 1 1 r
27 47 1 1 r
27 45 1 1 r
27 43 1 1 r
27 40 1 1 r
27 38 1 1 r
27 37 1 1 r
27 36 1 1 r
27 35 1 1 r
27 34 1 1 r
27 33 1 1 r
27 30 1 1 r
27 29 1 1 r
27 27 1 1 r
27 26 1 1 r
27 15 1 1 r
27 14 1 1 r
27 13 1 1 r
27 11 1 1 r
27 10 1 1 r
27 8 1 1 r
27 6 1 1 r
27 4 1 1 r
27 3 1 1 r
27 2 1 1 r
27 1 1 1 r
28 63 1 1 r
28 58 1 1 r
28 57 1 1 r
28 56 1 1 r
28 54 1 1 r
28 53 1 1 r
28 52 1 1 r
28 49 1 1 r
28 48 1 1 r
28 47 1 1 r
28 46 1 1 r
28 44 1 1 r
28 43 1 1 r
28 40 1 1 r
28 39 1 1 r
28 34 1 1 r
28 33 1 1 r
28 32 1 1 r
28 28 1 1 r
28 26 1 1 r
28 25 1 1 r
28 24 1 1 r
28 20 1 1 r
28 19 1 1 r
28 18 1 1 r
28 17 1 1 r
28 16 1 1 r
28 14 1 1 r
28 12 1 1 r
28 11 1 1 r
28 10 1 1 r
28 5 1 1 r
28 4 1 1 r
28 3 1 1 r
28 2 1 1 r
29 63 1 1 r
29 60 1 1 r
29 56 1 1 r
29 54 1 1 r
29 52 1 1 r
29 50 1 1 r
29 45 1 1 r
29 44 1 1 r
29 42 1 1 r
29 40 1 1 r
29 39 1 1 r
29 37 1 1 r
29 36 1 1 r
29 32 1 1 r
29 31 1 1 r
29 27 1 1 r
29 23 1 1 r
29 20 1 1 r
29 17 1 1 r
29 16 1 1 r
29 14 1 1 r
29 13 1 1 r
29 9 1 1 r
29 7 1 1 r
29 6 1 1 r
29 5 1 1 r
29 4 1 1 r
29 2 1 1 r
29 1 1 1 r
30 63 1 1 r
30 60 1 1 r
30 59 1 1 r
30 58 1 1 r
30 57 1 1 r
30 56 1 1 r
30 54 1 1 r
30 52 1 1 r
30 51 1 1 r
30 49 1 1 r
30 48 1 1 r
30 44 1 1 r
30 42 1 1 r
30 41 1 1 r
30 34 1 1 r
30 33 1 1 r
30 32 1 1 r
30 31 1 1 r
30 30 1 1 r
30 29 1 1 r
30 28 1 1 r
30 27 1 1 r
30 25 1 1 r
30 24 1 1 r
30 23 1 1 r
30 22 1 1 r
30 18 1 1 r
30 12 1 1 r
30 11 1 1 r
30 8 1 1 r
30 7 1 1 r
30 6 1 1 r
30 5 1 1 r
30 4 1 1 r
30 2 1 1 r
30 0 1 1 r
31 62 1 1 r
31 61 1 1 r
31 60 1 1 r
31 56 1 1 r
31 54 1 1 r
31 53 1 1 r
31 51 1 1 r
31 49 1 1 r
31 48 1 1 r
31 46 1 1 r
31 45 1 1 r
31 44 1 1 r
31 41 1 1 r
31 40 1 1 r
31 38 1 1 r
31 37 1 1 r
31 36 1 1 r
31 34 1 1 r
31 30 1 1 r
31 27 1 1 r
31 26 1 1 r
31 23 1 1 r
31 21 1 1 r
31 20 1 1 r
31 19 1 1 r
31 17 1 1 r
31 15 1 1 r
31 12 1 1 r
31 8 1 1 r
31 4 1 1 r
31 2 1 1 r
31 1 1 1 r
32 64 1 1 r
32 60 1 1 r
32 58 1 1 r
32 56 1 1 r
32 54 1 1 r
32 53 1 1 r
32 52 1 1 r
32 51 1 1 r
32 50 1 1 r
32 47 1 1 r
32 45 1 1 r
32 43 1 1 r
32 42 1 1 r
32 41 1 1 r
32 39 1 1 r
32 38 1 1 r
32 37 1 1 r
32 36 1 1 r
32 34 1 1 r
32 32 1 1 r
32 30 1 1 r
32 28 1 1 r
32 25 1 1 r
32 24 1 1 r
32 23 1 1 r
32 18 1 1 r
32 17 1 1 r
32 16 1 1 r
32 10 1 1 r
32 9 1 1 r
32 8 1 1 r
32 6 1 1 r
32 4 1 1 r
32 2 1 1 r
32 1 1 1 r
32 0 1 1 r
33 62 1 1 r
33 61 1 1 r
33 60 1 1 r
33 56 1 1 r
33 51 1 1 r
33 49 1 1 r
33 48 1 1 r
33 47 1 1 r
33 46 1 1 r
33 38 1 1 r
33 37 1 1 r
33 34 1 1 r
33 30 1 1 r
33 29 1 1 r
33 28 1 1 r
33 26 1 1 r
33 25 1 1 r
33 20 1 1 r
33 16 1 1 r
33 15 1 1 r
33 14 1 1 r
33 13 1 1 r
33 9 1 1 r
33 8 1 1 r
33 4 1 1 r
34 64 1 1 r
34 63 1 1 r
34 62 1 1 r
34 61 1 1 r
34 60 1 1 r
34 59 1 1 r
34 58 1 1 r
34 57 1 1 r
34 56 1 1 r
34 55 1 1 r
34 52 1 1 r
34 50 1 1 r
34 43 1 1 r
34 39 1 1 r
34 38 1 1 r
34 35 1 1 r
34 34 1 1 r
34 33 1 1 r
34 32 1 1 r
34 31 1 1 r
34 30 1 1 r
34 22 1 1 r
34 21 1 1 r
34 20 1 1 r
34 19 1 1 r
34 17 1 1 r
34 16 1 1 r
34 15 1 1 r
34 12 1 1 r
34 11 1 1 r
34 9 1 1 r
34 8 1 1 r
34 7 1 1 r
34 6 1 1 r
34 5 1 1 r
34 4 1 1 r
34 1 1 1 r
35 64 1 1 r
35 63 1 1 r
35 62 1 1 r
35 59 1 1 r
35 57 1 1 r
35 56 1 1 r
35 53 1 1 r
35 52 1 1 r
35 51 1 1 r
35 49 1 1 r
35 48 1 1 r
35 46 1 1 r
35 45 1 1 r
35 44 1 1 r
35 37 1 1 r
35 34 1 1 r
35 32 1 1 r
35 28 1 1 r
35 26 1 1 r
35 25 1 1 r
35 23 1 1 r
35 22 1 1 r
35 20 1 1 r
35 16 1 1 r
35 15 1 1 r
35 12 1 1 r
35 11 1 1 r
35 8 1 1 r
35 5 1 1 r
35 4 1 1 r
35 1 1 1 r
36 64 1 1 r
36 60 1 1 r
36 59 1 1 r
36 58 1 1 r
36 53 1 1 r
36 51 1 1 r
36 50 1 1 r
36 47 1 1 r
36 44 1 1 r
36 43 1 1 r
36 42 1 1 r
36 41 1 1 r
36 38 1 1 r
36 37 1 1 r
36 36 1 1 r
36 34 1 1 r
36 32 1 1 r
36 30 1 1 r
36 27 1 1 r
36 26 1 1 r
36 22 1 1 r
36 21 1 1 r
36 19 1 1 r
36 18 1 1 r
36 15 1 1 r
36 13 1 1 r
36 11 1 1 r
36 9 1 1 r
36 8 1 1 r
36 6 1 1 r
36 5 1 1 r
36 4 1 1 r
36 3 1 1 r
36 2 1 1 r
36 0 1 1 r
37 64 1 1 r
37 63 1 1 r
37 62 1 1 r
37 61 1 1 r
37 60 1 1 r
37 54 1 1 r
37 53 1 1 r
37 52 1 1 r
37 47 1 1 r
37 46 1 1 r
37 45 1 1 r
37 44 1 1 r
37 39 1 1 r
37 37 1 1 r
37 36 1 1 r
37 35 1 1 r
37 32 1 1 r
37 31 1 1 r
37 30 1 1 r
37 27 1 1 r
37 24 1 1 r
37 19 1 1 r
37 18 1 1 r
37 12 1 1 r
37 10 1 1 r
37 9 1 1 r
37 7 1 1 r
37 6 1 1 r
37 5 1 1 r
37 3 1 1 r
37 2 1 1 r
37 1 1 1 r
37 0 1 1 r
38 64 1 1 r
38 63 1 1 r
38 61 1 1 r
38 60 1 1 r
38 59 1 1 r
38 58 1 1 r
38 57 1 1 r
38 55 1 1 r
38 49 1 1 r
38 47 1 1 r
38 44 1 1 r
38 40 1 1 r
38 39 1 1 r
38 38 1 1 r
38 37 1 1 r
38 36 1 1 r
38 35 1 1 r
38 34 1 1 r
38 33 1 1 r
38 32 1 1 r
38 31 1 1 r
38 29 1 1 r
38 27 1 1 r
38 25 1 1 r
38 24 1 1 r
38 22 1 1 r
38 21 1 1 r
38 20 1 1 r
38 17 1 1 r
38 15 1 1 r
38 9 1 1 r
38 7 1 1 r
38 6 1 1 r
38 3 1 1 r
38 0 1 1 r
39 64 1 1 r
39 59 1 1 r
39 57 1 1 r
39 56 1 1 r
39 55 1 1 r
39 54 1 1 r
39 53 1 1 r
39 50 1 1 r
39 49 1 1 r
39 43 1 1 r
39 42 1 1 r
39 41 1 1 r
39 37 1 1 r
39 32 1 1 r
39 28 1 1 r
39 25 1 1 r
39 24 1 1 r
39 22 1 1 r
39 21 1 1 r
39 20 1 1 r
39 19 1 1 r
39 18 1 1 r
39 17 1 1 r
39 15 1 1 r
39 12 1 1 r
39 10 1 1 r
39 6 1 1 r
39 5 1 1 r
39 3 1 1 r
40 64 1 1 r
40 62 1 1 r
40 61 1 1 r
40 60 1 1 r
40 58 1 1 r
40 54 1 1 r
40 52 1 1 r
40 51 1 1 r
40 50 1 1 r
40 49 1 1 r
40 48 1 1 r
40 47 1 1 r
40 46 1 1 r
40 45 1 1 r
40 41 1 1 r
40 40 1 1 r
40 39 1 1 r
40 37 1 1 r
40 36 1 1 r
40 35 1 1 r
40 34 1 1 r
40 33 1 1 r
40 32 1 1 r
40 31 1 1 r
40 26 1 1 r
40 17 1 1 r
40 14 1 1 r
40 12 1 1 r
40 10 1 1 r
40 8 1 1 r
40 6 1 1 r
40 5 1 1 r
40 3 1 1 r
40 2 1 1 r
41 64 1 1 r
41 60 1 1 r
41 59 1 1 r
41 53 1 1 r
41 49 1 1 r
41 47 1 1 r
41 44 1 1 r
41 40 1 1 r
41 39 1 1 r
41 34 1 1 r
41 32 1 1 r
41 31 1 1 r
41 29 1 1 r
41 23 1 1 r
41 22 1 1 r
41 21 1 1 r
41 15 1 1 r
41 14 1 1 r
41 12 1 1 r
41 11 1 1 r
41 10 1 1 r
41 6 1 1 r
41 5 1 1 r
41 4 1 1 r
41 1 1 1 r
42 64 1 1 r
42 63 1 1 r
42 62 1 1 r
42 61 1 1 r
42 60 1 1 r
42 59 1 1 r
42 58 1 1 r
42 56 1 1 r
42 54 1 1 r
42 50 1 1 r
42 48 1 1 r
42 43 1 1 r
42 42 1 1 r
42 40 1 1 r
42 38 1 1 r
42 36 1 1 r
42 34 1 1 r
42 33 1 1 r
42 32 1 1 r
42 30 1 1 r
42 27 1 1 r
42 24 1 1 r
42 23 1 1 r
42 20 1 1 r
42 18 1 1 r
42 17 1 1 r
42 8 1 1 r
42 6 1 1 r
42 5 1 1 r
42 2 1 1 r
42 0 1 1 r
43 63 1 1 r
43 62 1 1 r
43 61 1 1 r
43 56 1 1 r
43 54 1 1 r
43 50 1 1 r
43 49 1 1 r
43 48 1 1 r
43 46 1 1 r
43 45 1 1 r
43 44 1 1 r
43 43 1 1 r
43 40 1 1 r
43 39 1 1 r
43 38 1 1 r
43 37 1 1 r
43 36 1 1 r
43 34 1 1 r
43 32 1 1 r
43 29 1 1 r
43 27 1 1 r
43 25 1 1 r
43 23 1 1 r
43 19 1 1 r
43 18 1 1 r
43 17 1 1 r
43 16 1 1 r
43 15 1 1 r
43 8 1 1 r
43 6 1 1 r
43 4 1 1 r
43 3 1 1 r
43 2 1 1 r
43 1 1 1 r
44 63 1 1 r
44 60 1 1 r
44 59 1 1 r
44 58 1 1 r
44 57 1 1 r
44 54 1 1 r
44 53 1 1 r
44 52 1 1 r
44 51 1 1 r
44 49 1 1 r
44 48 1 1 r
44 47 1 1 r
44 44 1 1 r
44 43 1 1 r
44 41 1 1 r
44 40 1 1 r
44 38 1 1 r
44 36 1 1 r
44 35 1 1 r
44 34 1 1 r
44 33 1 1 r
44 31 1 1 r
44 29 1 1 r
44 28 1 1 r
44 27 1 1 r
44 25 1 1 r
44 23 1 1 r
44 19 1 1 r
44 18 1 1 r
44 16 1 1 r
44 15 1 1 r
44 12 1 1 r
44 11 1 1 r
44 10 1 1 r
44 6 1 1 r
44 4 1 1 r
44 3 1 1 r
44 1 1 1 r
44 0 1 1 r
45 64 1 1 r
45 63 1 1 r
45 62 1 1 r
45 61 1 1 r
45 60 1 1 r
45 56 1 1 r
45 53 1 1 r
45 51 1 1 r
45 49 1 1 r
45 48 1 1 r
45 44 1 1 r
45 43 1 1 r
45 42 1 1 r
45 41 1 1 r
45 39 1 1 r
45 37 1 1 r
45 36 1 1 r
45 32 1 1 r
45 25 1 1 r
45 24 1 1 r
45 23 1 1 r
45 21 1 1 r
45 19 1 1 r
45 18 1 1 r
45 17 1 1 r
45 16 1 1 r
45 15 1 1 r
45 11 1 1 r
45 10 1 1 r
45 8 1 1 r
45 7 1 1 r
45 6 1 1 r
45 4 1 1 r
45 3 1 1 r
45 2 1 1 r
46 64 1 1 r
46 62 1 1 r
46 61 1 1 r
46 58 1 1 r
46 57 1 1 r
46 56 1 1 r
46 55 1 1 r
46 52 1 1 r
46 51 1 1 r
46 50 1 1 r
46 45 1 1 r
46 42 1 1 r
46 41 1 1 r
46 40 1 1 r
46 39 1 1 r
46 36 1 1 r
46 35 1 1 r
46 34 1 1 r
46 32 1 1 r
46 30 1 1 r
46 26 1 1 r
46 25 1 1 r
46 22 1 1 r
46 21 1 1 r
46 19 1 1 r
46 16 1 1 r
46 15 1 1 r
46 12 1 1 r
46 10 1 1 r
46 9 1 1 r
46 8 1 1 r
46 4 1 1 r
46 3 1 1 r
46 2 1 1 r
46 1 1 1 r
46 0 1 1 r
47 64 1 1 r
47 63 1 1 r
47 62 1 1 r
47 61 1 1 r
47 60 1 1 r
47 56 1 1 r
47 54 1 1 r
47 52 1 1 r
47 51 1 1 r
47 49 1 1 r
47 48 1 1 r
47 46 1 1 r
47 45 1 1 r
47 42 1 1 r
47 41 1 1 r
47 36 1 1 r
47 34 1 1 r
47 30 1 1 r
47 27 1 1 r
47 26 1 1 r
47 25 1 1 r
47 23 1 1 r
47 21 1 1 r
47 20 1 1 r
47 19 1 1 r
47 18 1 1 r
47 16 1 1 r
47 15 1 1 r
47 14 1 1 r
47 13 1 1 r
47 10 1 1 r
47 8 1 1 r
47 6 1 1 r
47 2 1 1 r
47 0 1 1 r
48 63 1 1 r
48 62 1 1 r
48 60 1 1 r
48 58 1 1 r
48 51 1 1 r
48 50 1 1 r
48 49 1 1 r
48 48 1 1 r
48 46 1 1 r
48 42 1 1 r
48 38 1 1 r
48 37 1 1 r
48 35 1 1 r
48 34 1 1 r
48 33 1 1 r
48 32 1 1 r
48 30 1 1 r
48 29 1 1 r
48 28 1 1 r
48 27 1 1 r
48 21 1 1 r
48 20 1 1 r
48 18 1 1 r
48 17 1 1 r
48 16 1 1 r
48 15 1 1 r
48 12 1 1 r
48 11 1 1 r
48 10 1 1 r
48 9 1 1 r
48 6 1 1 r
48 5 1 1 r
48 3 1 1 r
48 2 1 1 r
48 1 1 1 r
48 0 1 1 r
49 64 1 1 r
49 63 1 1 r
49 61 1 1 r
49 59 1 1 r
49 57 1 1 r
49 56 1 1 r
49 52 1 1 r
49 50 1 1 r
49 46 1 1 r
49 43 1 1 r
49 42 1 1 r
49 41 1 1 r
49 35 1 1 r
49 33 1 1 r
49 32 1 1 r
49 27 1 1 r
49 25 1 1 r
49 23 1 1 r
49 22 1 1 r
49 19 1 1 r
49 16 1 1 r
49 12 1 1 r
49 9 1 1 r
49 8 1 1 r
49 7 1 1 r
49 6 1 1 r
49 3 1 1 r
49 2 1 1 r
49 0 1 1 r
50 64 1 1 r
50 63 1 1 r
50 61 1 1 r
50 60 1 1 r
50 58 1 1 r
50 57 1 1 r
50 55 1 1 r
50 54 1 1 r
50 51 1 1 r
50 47 1 1 r
50 43 1 1 r
50 41 1 1 r
50 40 1 1 r
50 39 1 1 r
50 35 1 1 r
50 34 1 1 r
50 32 1 1 r
50 29 1 1 r
50 28 1 1 r
50 26 1 1 r
50 24 1 1 r
50 23 1 1 r
50 21 1 1 r
50 19 1 1 r
50 18 1 1 r
50 17 1 1 r
50 14 1 1 r
50 12 1 1 r
50 7 1 1 r
50 6 1 1 r
50 1 1 1 r
51 63 1 1 r
51 62 1 1 r
51 59 1 1 r
51 57 1 1 r
51 54 1 1 r
51 53 1 1 r
51 51 1 1 r
51 47 1 1 r
51 46 1 1 r
51 45 1 1 r
51 44 1 1 r
51 43 1 1 r
51 40 1 1 r
51 37 1 1 r
51 36 1 1 r
51 35 1 1 r
51 33 1 1 r
51 32 1 1 r
51 31 1 1 r
51 27 1 1 r
51 26 1 1 r
51 22 1 1 r
51 21 1 1 r
51 20 1 1 r
51 19 1 1 r
51 18 1 1 r
51 16 1 1 r
51 14 1 1 r
51 13 1 1 r
51 5 1 1 r
51 3 1 1 r
51 2 1 1 r
51 0 1 1 r
52 60 1 1 r
52 58 1 1 r
52 57 1 1 r
52 52 1 1 r
52 51 1 1 r
52 50 1 1 r
52 49 1 1 r
52 45 1 1 r
52 42 1 1 r
52 39 1 1 r
52 38 1 1 r
52 34 1 1 r
52 33 1 1 r
52 32 1 1 r
52 31 1 1 r
52 28 1 1 r
52 26 1 1 r
52 24 1 1 r
52 21 1 1 r
52 20 1 1 r
52 18 1 1 r
52 16 1 1 r
52 15 1 1 r
52 14 1 1 r
52 12 1 1 r
52 11 1 1 r
52 6 1 1 r
52 5 1 1 r
52 4 1 1 r
53 64 1 1 r
53 63 1 1 r
53 62 1 1 r
53 60 1 1 r
53 56 1 1 r
53 55 1 1 r
53 54 1 1 r
53 53 1 1 r
53 52 1 1 r
53 51 1 1 r
53 50 1 1 r
53 47 1 1 r
53 46 1 1 r
53 43 1 1 r
53 42 1 1 r
53 39 1 1 r
53 38 1 1 r
53 37 1 1 r
53 36 1 1 r
53 35 1 1 r
53 33 1 1 r
53 32 1 1 r
53 29 1 1 r
53 27 1 1 r
53 26 1 1 r
53 25 1 1 r
53 24 1 1 r
53 23 1 1 r
53 20 1 1 r
53 17 1 1 r
53 15 1 1 r
53 14 1 1 r
53 13 1 1 r
53 11 1 1 r
53 9 1 1 r
53 3 1 1 r
53 2 1 1 r
53 1 1 1 r
54 62 1 1 r
54 61 1 1 r
54 59 1 1 r
54 58 1 1 r
54 56 1 1 r
54 55 1 1 r
54 52 1 1 r
54 51 1 1 r
54 50 1 1 r
54 49 1 1 r
54 45 1 1 r
54 44 1 1 r
54 43 1 1 r
54 40 1 1 r
54 39 1 1 r
54 38 1 1 r
54 37 1 1 r
54 32 1 1 r
54 28 1 1 r
54 24 1 1 r
54 22 1 1 r
54 19 1 1 r
54 18 1 1 r
54 17 1 1 r
54 16 1 1 r
54 14 1 1 r
54 13 1 1 r
54 12 1 1 r
54 8 1 1 r
54 7 1 1 r
54 6 1 1 r
54 5 1 1 r
54 3 1 1 r
54 2 1 1 r
54 1 1 1 r
55 64 1 1 r
55 61 1 1 r
55 57 1 1 r
55 55 1 1 r
55 52 1 1 r
55 49 1 1 r
55 46 1 1 r
55 43 1 1 r
55 42 1 1 r
55 39 1 1 r
55 38 1 1 r
55 36 1 1 r
55 35 1 1 r
55 31 1 1 r
55 29 1 1 r
55 28 1 1 r
55 26 1 1 r
55 24 1 1 r
55 23 1 1 r
55 21 1 1 r
55 18 1 1 r
55 16 1 1 r
55 14 1 1 r
55 11 1 1 r
55 7 1 1 r
55 5 1 1 r
55 2 1 1 r
55 1 1 1 r
56 63 1 1 r
56 62 1 1 r
56 60 1 1 r
56 58 1 1 r
56 56 1 1 r
56 54 1 1 r
56 51 1 1 r
56 48 1 1 r
56 46 1 1 r
56 41 1 1 r
56 38 1 1 r
56 37 1 1 r
56 36 1 1 r
56 34 1 1 r
56 33 1 1 r
56 32 1 1 r
56 31 1 1 r
56 30 1 1 r
56 27 1 1 r
56 26 1 1 r
56 25 1 1 r
56 23 1 1 r
56 22 1 1 r
56 21 1 1 r
56 20 1 1 r
56 17 1 1 r
56 16 1 1 r
56 15 1 1 r
56 10 1 1 r
56 8 1 1 r
56 7 1 1 r
56 6 1 1 r
56 5 1 1 r
56 4 1 1 r
56 3 1 1 r
56 1 1 1 r
57 53 1 1 r
57 51 1 1 r
57 49 1 1 r
57 48 1 1 r
57 47 1 1 r
57 46 1 1 r
57 44 1 1 r
57 43 1 1 r
57 42 1 1 r
57 40 1 1 r
57 37 1 1 r
57 35 1 1 r
57 34 1 1 r
57 30 1 1 r
57 28 1 1 r
57 24 1 1 r
57 22 1 1 r
57 21 1 1 r
57 17 1 1 r
57 15 1 1 r
57 13 1 1 r
57 10 1 1 r
57 8 1 1 r
57 4 1 1 r
57 3 1 1 r
57 2 1 1 r
57 1 1 1 r
58 64 1 1 r
58 63 1 1 r
58 62 1 1 r
58 61 1 1 r
58 60 1 1 r
58 59 1 1 r
58 58 1 1 r
58 56 1 1 r
58 54 1 1 r
58 52 1 1 r
58 51 1 1 r
58 50 1 1 r
58 49 1 1 r
58 47 1 1 r
58 44 1 1 r
58 42 1 1 r
58 41 1 1 r
58 40 1 1 r
58 39 1 1 r
58 34 1 1 r
58 32 1 1 r
58 30 1 1 r
58 27 1 1 r
58 24 1 1 r
58 22 1 1 r
58 21 1 1 r
58 20 1 1 r
58 17 1 1 r
58 16 1 1 r
58 15 1 1 r
58 13 1 1 r
58 9 1 1 r
58 8 1 1 r
58 6 1 1 r
58 4 1 1 r
58 2 1 1 r
58 0 1 1 r
59 64 1 1 r
59 58 1 1 r
59 56 1 1 r
59 53 1 1 r
59 52 1 1 r
59 49 1 1 r
59 48 1 1 r
59 47 1 1 r
59 45 1 1 r
59 42 1 1 r
59 40 1 1 r
59 38 1 1 r
59 36 1 1 r
59 34 1 1 r
59 30 1 1 r
59 29 1 1 r
59 25 1 1 r
59 23 1 1 r
59 22 1 1 r
59 20 1 1 r
59 17 1 1 r
59 16 1 1 r
59 15 1 1 r
59 13 1 1 r
59 9 1 1 r
59 8 1 1 r
59 4 1 1 r
59 1 1 1 r
59 0 1 1 r
60 64 1 1 r
60 62 1 1 r
60 61 1 1 r
60 60 1 1 r
60 58 1 1 r
60 56 1 1 r
60 54 1 1 r
60 52 1 1 r
60 50 1 1 r
60 46 1 1 r
60 44 1 1 r
60 41 1 1 r
60 40 1 1 r
60 39 1 1 r
60 37 1 1 r
60 34 1 1 r
60 33 1 1 r
60 32 1 1 r
60 31 1 1 r
60 30 1 1 r
60 28 1 1 r
60 26 1 1 r
60 24 1 1 r
60 18 1 1 r
60 16 1 1 r
60 14 1 1 r
60 12 1 1 r
60 11 1 1 r
60 10 1 1 r
60 9 1 1 r
60 8 1 1 r
60 7 1 1 r
60 6 1 1 r
60 5 1 1 r
60 4 1 1 r
60 3 1 1 r
60 2 1 1 r
60 1 1 1 r
61 64 1 1 r
61 62 1 1 r
61 61 1 1 r
61 60 1 1 r
61 58 1 1 r
61 55 1 1 r
61 54 1 1 r
61 51 1 1 r
61 50 1 1 r
61 48 1 1 r
61 47 1 1 r
61 46 1 1 r
61 45 1 1 r
61 43 1 1 r
61 41 1 1 r
61 40 1 1 r
61 39 1 1 r
61 38 1 1 r
61 35 1 1 r
61 33 1 1 r
61 32 1 1 r
61 31 1 1 r
61 28 1 1 r
61 26 1 1 r
61 24 1 1 r
61 23 1 1 r
61 22 1 1 r
61 21 1 1 r
61 19 1 1 r
61 18 1 1 r
61 8 1 1 r
61 3 1 1 r
61 2 1 1 r
62 64 1 1 r
62 62 1 1 r
62 61 1 1 r
62 60 1 1 r
62 58 1 1 r
62 56 1 1 r
62 54 1 1 r
62 50 1 1 r
62 48 1 1 r
62 47 1 1 r
62 46 1 1 r
62 42 1 1 r
62 40 1 1 r
62 39 1 1 r
62 36 1 1 r
62 35 1 1 r
62 34 1 1 r
62 32 1 1 r
62 29 1 1 r
62 25 1 1 r
62 24 1 1 r
62 23 1 1 r
62 22 1 1 r
62 20 1 1 r
62 19 1 1 r
62 17 1 1 r
62 15 1 1 r
62 14 1 1 r
62 13 1 1 r
62 10 1 1 r
62 9 1 1 r
62 8 1 1 r
62 6 1 1 r
62 5 1 1 r
62 4 1 1 r
63 64 1 1 r
63 58 1 1 r
63 56 1 1 r
63 55 1 1 r
63 53 1 1 r
63 52 1 1 r
63 50 1 1 r
63 48 1 1 r
63 46 1 1 r
63 44 1 1 r
63 40 1 1 r
63 39 1 1 r
63 34 1 1 r
63 32 1 1 r
63 31 1 1 r
63 30 1 1 r
63 29 1 1 r
63 28 1 1 r
63 22 1 1 r
63 20 1 1 r
63 19 1 1 r
63 18 1 1 r
63 15 1 1 r
63 14 1 1 r
63 12 1 1 r
63 10 1 1 r
63 7 1 1 r
63 6 1 1 r
63 4 1 1 r
63 3 1 1 r
63 1 1 1 r
64 64 1 1 r
64 63 1 1 r
64 62 1 1 r
64 61 1 1 r
64 60 1 1 r
64 59 1 1 r
64 58 1 1 r
64 54 1 1 r
64 52 1 1 r
64 50 1 1 r
64 47 1 1 r
64 46 1 1 r
64 43 1 1 r
64 40 1 1 r
64 39 1 1 r
64 35 1 1 r
64 32 1 1 r
64 31 1 1 r
64 27 1 1 r
64 26 1 1 r
64 21 1 1 r
64 19 1 1 r
64 16 1 1 r
64 14 1 1 r
64 13 1 1 r
64 10 1 1 r
64 9 1 1 r
64 6 1 1 r
64 4 1 1 r
64 3 1 1 r
64 2 1 1 r
64 1 1 1 r
%%EOF