%!PS-Adobe EPSF-3.0
%%CreationDate: 2014-05-12
%%Title: QR-code
%%Pages: 1
%%DocumentData: Clean7Bit
%%LanguageLevel: 2
%%BoundingBox: 0 0 455 455
7 7 scale
2 2 translate
0 0 0 setrgbcolor
/r {rectfill} def
0 60 1 1 r
0 59 1 1 r
0 58 1 1 r
0 57 1 1 r
0 56 1 1 r
0 55 1 1 r
0 54 1 1 r
0 52 1 1 r
0 51 1 1 r
0 44 1 1 r
0 41 1 1 r
0 37 1 1 r
0 36 1 1 r
0 35 1 1 r
0 34 1 1 r
0 32 1 1 r
0 30 1 1 r
0 28 1 1 r
0 26 1 1 r
0 24 1 1 r
0 19 1 1 r
0 18 1 1 r
0 17 1 1 r
0 16 1 1 r
0 14 1 1 r
0 11 1 1 r
0 9 1 1 r
0 8 1 1 r
0 6 1 1 r
0 5 1 1 r
0 4 1 1 r
0 3 1 1 r
0 2 1 1 r
0 1 1 1 r
0 0 1 1 r
1 60 1 1 r
1 54 1 1 r
1 52 1 1 r
1 51 1 1 r
1 47 1 1 r
1 46 1 1 r
1 42 1 1 r
1 39 1 1 r
1 37 1 1 r
1 36 1 1 r
1 35 1 1 r
1 34 1 1 r
1 33 1 1 r
1 30 1 1 r
1 26 1 1 r
1 23 1 1 r
1 22 1 1 r
1 21 1 1 r
1 19 1 1 r
1 17 1 1 r
1 15 1 1 r
1 14 1 1 r
1 12 1 1 r
1 11 1 1 r
1 9 1 1 r
1 8 1 1 r
1 6 1 1 r
1 0 1 1 r
2 60 1 1 r
2 58 1 1 r
2 57 1 1 r
2 56 1 1 r
2 54 1 1 r
2 52 1 1 r
2 51 1 1 r
2 50 1 1 r
2 49 1 1 r
2 48 1 1 r
2 45 1 1 r
2 44 1 1 r
2 43 1 1 r
2 42 1 1 r
2 39 1 1 r
2 36 1 1 r
2 34 1 1 r
2 33 1 1 r
2 32 1 1 r
2 31 1 1 r
2 28 1 1 r
2 27 1 1 r
2 26 1 1 r
2 25 1 1 r
2 22 1 1 r
2 21 1 1 r
2 19 1 1 r
2 14 1 1 r
2 11 1 1 r
2 10 1 1 r
2 9 1 1 r
2 8 1 1 r
2 6 1 1 r
2 4 1 1 r
2 3 1 1 r
2 2 1 1 r
2 0 1 1 r
3 60 1 1 r
3 58 1 1 r
3 57 1 1 r
3 56 1 1 r
3 54 1 1 r
3 49 1 1 r
3 48 1 1 r
3 47 1 1 r
3 46 1 1 r
3 43 1 1 r
3 42 1 1 r
3 41 1 1 r
3 37 1 1 r
3 34 1 1 r
3 32 1 1 r
3 30 1 1 r
3 28 1 1 r
3 27 1 1 r
3 26 1 1 r
3 25 1 1 r
3 23 1 1 r
3 22 1 1 r
3 20 1 1 r
3 18 1 1 r
3 17 1 1 r
3 16 1 1 r
3 14 1 1 r
3 13 1 1 r
3 11 1 1 r
3 10 1 1 r
3 8 1 1 r
3 6 1 1 r
3 4 1 1 r
3 3 1 1 r
3 2 1 1 r
3 0 1 1 r
4 60 1 1 r
4 58 1 1 r
4 57 1 1 r
4 56 1 1 r
4 54 1 1 r
4 49 1 1 r
4 44 1 1 r
4 43 1 1 r
4 39 1 1 r
4 36 1 1 r
4 34 1 1 r
4 33 1 1 r
4 32 1 1 r
4 31 1 1 r
4 30 1 1 r
4 29 1 1 r
4 28 1 1 r
4 26 1 1 r
4 25 1 1 r
4 24 1 1 r
4 23 1 1 r
4 20 1 1 r
4 18 1 1 r
4 17 1 1 r
4 14 1 1 r
4 12 1 1 r
4 10 1 1 r
4 9 1 1 r
4 6 1 1 r
4 4 1 1 r
4 3 1 1 r
4 2 1 1 r
4 0 1 1 r
5 60 1 1 r
5 54 1 1 r
5 52 1 1 r
5 51 1 1 r
5 50 1 1 r
5 47 1 1 r
5 46 1 1 r
5 45 1 1 r
5 43 1 1 r
5 41 1 1 r
5 39 1 1 r
5 38 1 1 r
5 37 1 1 r
5 35 1 1 r
5 34 1 1 r
5 32 1 1 r
5 28 1 1 r
5 27 1 1 r
5 24 1 1 r
5 22 1 1 r
5 21 1 1 r
5 20 1 1 r
5 19 1 1 r
5 18 1 1 r
5 16 1 1 r
5 15 1 1 r
5 11 1 1 r
5 10 1 1 r
5 6 1 1 r
5 0 1 1 r
6 60 1 1 r
6 59 1 1 r
6 58 1 1 r
6 57 1 1 r
6 56 1 1 r
6 55 1 1 r
6 54 1 1 r
6 52 1 1 r
6 50 1 1 r
6 48 1 1 r
6 46 1 1 r
6 44 1 1 r
6 42 1 1 r
6 40 1 1 r
6 38 1 1 r
6 36 1 1 r
6 34 1 1 r
6 32 1 1 r
6 30 1 1 r
6 28 1 1 r
6 26 1 1 r
6 24 1 1 r
6 22 1 1 r
6 20 1 1 r
6 18 1 1 r
6 16 1 1 r
6 14 1 1 r
6 12 1 1 r
6 10 1 1 r
6 8 1 1 r
6 6 1 1 r
6 5 1 1 r
6 4 1 1 r
6 3 1 1 r
6 2 1 1 r
6 1 1 1 r
6 0 1 1 r
7 50 1 1 r
7 49 1 1 r
7 46 1 1 r
7 43 1 1 r
7 41 1 1 r
7 37 1 1 r
7 34 1 1 r
7 32 1 1 r
7 28 1 1 r
7 25 1 1 r
7 22 1 1 r
7 21 1 1 r
7 19 1 1 r
7 17 1 1 r
7 16 1 1 r
7 14 1 1 r
7 12 1 1 r
7 11 1 1 r
7 9 1 1 r
8 60 1 1 r
8 59 1 1 r
8 56 1 1 r
8 55 1 1 r
8 54 1 1 r
8 53 1 1 r
8 52 1 1 r
8 51 1 1 r
8 50 1 1 r
8 49 1 1 r
8 48 1 1 r
8 47 1 1 r
8 45 1 1 r
8 42 1 1 r
8 40 1 1 r
8 38 1 1 r
8 37 1 1 r
8 35 1 1 r
8 34 1 1 r
8 33 1 1 r
8 32 1 1 r
8 31 1 1 r
8 30 1 1 r
8 29 1 1 r
8 28 1 1 r
8 25 1 1 r
8 22 1 1 r
8 20 1 1 r
8 14 1 1 r
8 12 1 1 r
8 7 1 1 r
8 5 1 1 r
8 2 1 1 r
8 1 1 1 r
8 0 1 1 r
9 56 1 1 r
9 55 1 1 r
9 53 1 1 r
9 52 1 1 r
9 51 1 1 r
9 50 1 1 r
9 48 1 1 r
9 47 1 1 r
9 46 1 1 r
9 45 1 1 r
9 44 1 1 r
9 42 1 1 r
9 40 1 1 r
9 38 1 1 r
9 37 1 1 r
9 34 1 1 r
9 33 1 1 r
9 29 1 1 r
9 28 1 1 r
9 27 1 1 r
9 25 1 1 r
9 20 1 1 r
9 19 1 1 r
9 16 1 1 r
9 14 1 1 r
9 11 1 1 r
9 1 1 1 r
9 0 1 1 r
10 60 1 1 r
10 59 1 1 r
10 57 1 1 r
10 55 1 1 r
10 54 1 1 r
10 52 1 1 r
10 51 1 1 r
10 50 1 1 r
10 47 1 1 r
10 46 1 1 r
10 45 1 1 r
10 43 1 1 r
10 42 1 1 r
10 39 1 1 r
10 34 1 1 r
10 33 1 1 r
10 31 1 1 r
10 30 1 1 r
10 28 1 1 r
10 25 1 1 r
10 23 1 1 r
10 21 1 1 r
10 18 1 1 r
10 17 1 1 r
10 14 1 1 r
10 6 1 1 r
10 5 1 1 r
10 4 1 1 r
10 0 1 1 r
11 58 1 1 r
11 55 1 1 r
11 53 1 1 r
11 52 1 1 r
11 51 1 1 r
11 42 1 1 r
11 41 1 1 r
11 39 1 1 r
11 38 1 1 r
11 37 1 1 r
11 35 1 1 r
11 34 1 1 r
11 33 1 1 r
11 31 1 1 r
11 25 1 1 r
11 23 1 1 r
11 21 1 1 r
11 19 1 1 r
11 17 1 1 r
11 16 1 1 r
11 14 1 1 r
11 13 1 1 r
11 11 1 1 r
11 8 1 1 r
11 7 1 1 r
11 6 1 1 r
11 5 1 1 r
11 4 1 1 r
11 3 1 1 r
12 60 1 1 r
12 56 1 1 r
12 55 1 1 r
12 54 1 1 r
12 53 1 1 r
12 50 1 1 r
12 47 1 1 r
12 46 1 1 r
12 41 1 1 r
12 39 1 1 r
12 37 1 1 r
12 36 1 1 r
12 32 1 1 r
12 30 1 1 r
12 29 1 1 r
12 28 1 1 r
12 24 1 1 r
12 22 1 1 r
12 21 1 1 r
12 19 1 1 r
12 16 1 1 r
12 15 1 1 r
12 13 1 1 r
12 12 1 1 r
12 10 1 1 r
12 9 1 1 r
12 6 1 1 r
12 5 1 1 r
12 4 1 1 r
12 1 1 1 r
13 58 1 1 r
13 56 1 1 r
13 55 1 1 r
13 52 1 1 r
13 50 1 1 r
13 49 1 1 r
13 48 1 1 r
13 47 1 1 r
13 41 1 1 r
13 40 1 1 r
13 36 1 1 r
13 34 1 1 r
13 30 1 1 r
13 28 1 1 r
13 25 1 1 r
13 24 1 1 r
13 22 1 1 r
13 18 1 1 r
13 13 1 1 r
13 10 1 1 r
13 9 1 1 r
13 7 1 1 r
13 6 1 1 r
13 3 1 1 r
13 1 1 1 r
13 0 1 1 r
14 60 1 1 r
14 58 1 1 r
14 57 1 1 r
14 55 1 1 r
14 54 1 1 r
14 51 1 1 r
14 47 1 1 r
14 45 1 1 r
14 41 1 1 r
14 39 1 1 r
14 32 1 1 r
14 29 1 1 r
14 28 1 1 r
14 27 1 1 r
14 25 1 1 r
14 24 1 1 r
14 22 1 1 r
14 18 1 1 r
14 17 1 1 r
14 15 1 1 r
14 14 1 1 r
14 13 1 1 r
14 9 1 1 r
14 7 1 1 r
14 6 1 1 r
14 5 1 1 r
14 3 1 1 r
14 2 1 1 r
15 60 1 1 r
15 59 1 1 r
15 58 1 1 r
15 57 1 1 r
15 56 1 1 r
15 52 1 1 r
15 49 1 1 r
15 47 1 1 r
15 45 1 1 r
15 44 1 1 r
15 43 1 1 r
15 42 1 1 r
15 41 1 1 r
15 38 1 1 r
15 36 1 1 r
15 35 1 1 r
15 34 1 1 r
15 33 1 1 r
15 31 1 1 r
15 29 1 1 r
15 28 1 1 r
15 26 1 1 r
15 25 1 1 r
15 23 1 1 r
15 20 1 1 r
15 19 1 1 r
15 17 1 1 r
15 14 1 1 r
15 13 1 1 r
15 9 1 1 r
15 7 1 1 r
15 6 1 1 r
15 4 1 1 r
15 3 1 1 r
15 1 1 1 r
16 60 1 1 r
16 58 1 1 r
16 56 1 1 r
16 55 1 1 r
16 54 1 1 r
16 50 1 1 r
16 49 1 1 r
16 48 1 1 r
16 47 1 1 r
16 44 1 1 r
16 43 1 1 r
16 41 1 1 r
16 40 1 1 r
16 38 1 1 r
16 35 1 1 r
16 33 1 1 r
16 32 1 1 r
16 31 1 1 r
16 30 1 1 r
16 29 1 1 r
16 28 1 1 r
16 26 1 1 r
16 24 1 1 r
16 22 1 1 r
16 21 1 1 r
16 19 1 1 r
16 18 1 1 r
16 17 1 1 r
16 16 1 1 r
16 13 1 1 r
16 10 1 1 r
16 9 1 1 r
16 8 1 1 r
16 7 1 1 r
16 4 1 1 r
16 3 1 1 r
16 2 1 1 r
16 1 1 1 r
17 60 1 1 r
17 56 1 1 r
17 52 1 1 r
17 51 1 1 r
17 50 1 1 r
17 48 1 1 r
17 46 1 1 r
17 37 1 1 r
17 34 1 1 r
17 33 1 1 r
17 32 1 1 r
17 31 1 1 r
17 29 1 1 r
17 23 1 1 r
17 22 1 1 r
17 21 1 1 r
17 19 1 1 r
17 18 1 1 r
17 17 1 1 r
17 9 1 1 r
17 8 1 1 r
17 6 1 1 r
17 5 1 1 r
17 3 1 1 r
17 1 1 1 r
18 56 1 1 r
18 55 1 1 r
18 54 1 1 r
18 53 1 1 r
18 50 1 1 r
18 49 1 1 r
18 48 1 1 r
18 45 1 1 r
18 44 1 1 r
18 43 1 1 r
18 42 1 1 r
18 40 1 1 r
18 36 1 1 r
18 35 1 1 r
18 34 1 1 r
18 32 1 1 r
18 31 1 1 r
18 27 1 1 r
18 25 1 1 r
18 24 1 1 r
18 21 1 1 r
18 19 1 1 r
18 18 1 1 r
18 16 1 1 r
18 13 1 1 r
18 12 1 1 r
18 11 1 1 r
18 10 1 1 r
18 9 1 1 r
18 8 1 1 r
18 7 1 1 r
18 0 1 1 r
19 59 1 1 r
19 56 1 1 r
19 49 1 1 r
19 48 1 1 r
19 47 1 1 r
19 46 1 1 r
19 44 1 1 r
19 41 1 1 r
19 38 1 1 r
19 37 1 1 r
19 34 1 1 r
19 30 1 1 r
19 29 1 1 r
19 28 1 1 r
19 26 1 1 r
19 25 1 1 r
19 22 1 1 r
19 21 1 1 r
19 20 1 1 r
19 13 1 1 r
19 12 1 1 r
19 10 1 1 r
19 9 1 1 r
19 8 1 1 r
19 5 1 1 r
19 3 1 1 r
19 2 1 1 r
20 60 1 1 r
20 59 1 1 r
20 58 1 1 r
20 57 1 1 r
20 54 1 1 r
20 52 1 1 r
20 50 1 1 r
20 46 1 1 r
20 45 1 1 r
20 40 1 1 r
20 36 1 1 r
20 35 1 1 r
20 34 1 1 r
20 32 1 1 r
20 29 1 1 r
20 28 1 1 r
20 26 1 1 r
20 23 1 1 r
20 20 1 1 r
20 18 1 1 r
20 16 1 1 r
20 15 1 1 r
20 13 1 1 r
20 10 1 1 r
20 9 1 1 r
20 7 1 1 r
20 4 1 1 r
20 2 1 1 r
20 0 1 1 r
21 60 1 1 r
21 59 1 1 r
21 58 1 1 r
21 57 1 1 r
21 56 1 1 r
21 55 1 1 r
21 50 1 1 r
21 46 1 1 r
21 45 1 1 r
21 43 1 1 r
21 40 1 1 r
21 39 1 1 r
21 37 1 1 r
21 34 1 1 r
21 31 1 1 r
21 30 1 1 r
21 29 1 1 r
21 28 1 1 r
21 23 1 1 r
21 20 1 1 r
21 18 1 1 r
21 17 1 1 r
21 15 1 1 r
21 14 1 1 r
21 13 1 1 r
21 9 1 1 r
21 8 1 1 r
21 7 1 1 r
21 5 1 1 r
22 57 1 1 r
22 55 1 1 r
22 54 1 1 r
22 52 1 1 r
22 48 1 1 r
22 44 1 1 r
22 43 1 1 r
22 42 1 1 r
22 41 1 1 r
22 35 1 1 r
22 34 1 1 r
22 32 1 1 r
22 30 1 1 r
22 29 1 1 r
22 26 1 1 r
22 25 1 1 r
22 24 1 1 r
22 18 1 1 r
22 16 1 1 r
22 14 1 1 r
22 13 1 1 r
22 12 1 1 r
22 11 1 1 r
22 10 1 1 r
22 9 1 1 r
22 8 1 1 r
22 7 1 1 r
22 2 1 1 r
22 1 1 1 r
23 59 1 1 r
23 58 1 1 r
23 57 1 1 r
23 53 1 1 r
23 52 1 1 r
23 51 1 1 r
23 49 1 1 r
23 47 1 1 r
23 46 1 1 r
23 45 1 1 r
23 43 1 1 r
23 38 1 1 r
23 37 1 1 r
23 36 1 1 r
23 35 1 1 r
23 34 1 1 r
23 33 1 1 r
23 30 1 1 r
23 29 1 1 r
23 24 1 1 r
23 22 1 1 r
23 21 1 1 r
23 20 1 1 r
23 19 1 1 r
23 18 1 1 r
23 11 1 1 r
23 6 1 1 r
23 5 1 1 r
23 4 1 1 r
23 3 1 1 r
23 1 1 1 r
24 60 1 1 r
24 59 1 1 r
24 56 1 1 r
24 55 1 1 r
24 54 1 1 r
24 51 1 1 r
24 50 1 1 r
24 49 1 1 r
24 41 1 1 r
24 40 1 1 r
24 39 1 1 r
24 38 1 1 r
24 35 1 1 r
24 33 1 1 r
24 32 1 1 r
24 30 1 1 r
24 28 1 1 r
24 23 1 1 r
24 21 1 1 r
24 17 1 1 r
24 15 1 1 r
24 10 1 1 r
24 9 1 1 r
24 8 1 1 r
24 7 1 1 r
24 5 1 1 r
24 0 1 1 r
25 60 1 1 r
25 58 1 1 r
25 56 1 1 r
25 53 1 1 r
25 52 1 1 r
25 51 1 1 r
25 50 1 1 r
25 46 1 1 r
25 45 1 1 r
25 42 1 1 r
25 40 1 1 r
25 38 1 1 r
25 37 1 1 r
25 33 1 1 r
25 32 1 1 r
25 31 1 1 r
25 29 1 1 r
25 26 1 1 r
25 23 1 1 r
25 22 1 1 r
25 21 1 1 r
25 20 1 1 r
25 16 1 1 r
25 15 1 1 r
25 13 1 1 r
25 10 1 1 r
25 8 1 1 r
25 6 1 1 r
25 5 1 1 r
25 3 1 1 r
25 0 1 1 r
26 60 1 1 r
26 57 1 1 r
26 55 1 1 r
26 54 1 1 r
26 53 1 1 r
26 48 1 1 r
26 44 1 1 r
26 43 1 1 r
26 42 1 1 r
26 38 1 1 r
26 37 1 1 r
26 36 1 1 r
26 35 1 1 r
26 34 1 1 r
26 33 1 1 r
26 32 1 1 r
26 31 1 1 r
26 30 1 1 r
26 29 1 1 r
26 28 1 1 r
26 25 1 1 r
26 24 1 1 r
26 23 1 1 r
26 21 1 1 r
26 20 1 1 r
26 18 1 1 r
26 17 1 1 r
26 15 1 1 r
26 14 1 1 r
26 13 1 1 r
26 12 1 1 r
26 11 1 1 r
26 9 1 1 r
26 7 1 1 r
26 5 1 1 r
26 4 1 1 r
26 2 1 1 r
26 1 1 1 r
26 0 1 1 r
27 58 1 1 r
27 57 1 1 r
27 52 1 1 r
27 51 1 1 r
27 50 1 1 r
27 44 1 1 r
27 42 1 1 r
27 41 1 1 r
27 36 1 1 r
27 35 1 1 r
27 33 1 1 r
27 30 1 1 r
27 29 1 1 r
27 28 1 1 r
27 27 1 1 r
27 25 1 1 r
27 24 1 1 r
27 23 1 1 r
27 21 1 1 r
27 19 1 1 r
27 18 1 1 r
27 17 1 1 r
27 16 1 1 r
27 15 1 1 r
27 13 1 1 r
27 11 1 1 r
27 10 1 1 r
27 3 1 1 r
27 1 1 1 r
28 60 1 1 r
28 59 1 1 r
28 56 1 1 r
28 55 1 1 r
28 54 1 1 r
28 53 1 1 r
28 52 1 1 r
28 51 1 1 r
28 50 1 1 r
28 45 1 1 r
28 44 1 1 r
28 43 1 1 r
28 41 1 1 r
28 40 1 1 r
28 39 1 1 r
28 38 1 1 r
28 32 1 1 r
28 31 1 1 r
28 30 1 1 r
28 29 1 1 r
28 28 1 1 r
28 26 1 1 r
28 25 1 1 r
28 24 1 1 r
28 23 1 1 r
28 22 1 1 r
28 20 1 1 r
28 19 1 1 r
28 18 1 1 r
28 17 1 1 r
28 11 1 1 r
28 10 1 1 r
28 8 1 1 r
28 7 1 1 r
28 6 1 1 r
28 5 1 1 r
28 4 1 1 r
28 3 1 1 r
28 2 1 1 r
28 0 1 1 r
29 60 1 1 r
29 59 1 1 r
29 58 1 1 r
29 56 1 1 r
29 52 1 1 r
29 51 1 1 r
29 50 1 1 r
29 48 1 1 r
29 45 1 1 r
29 43 1 1 r
29 38 1 1 r
29 36 1 1 r
29 34 1 1 r
29 32 1 1 r
29 28 1 1 r
29 26 1 1 r
29 25 1 1 r
29 24 1 1 r
29 23 1 1 r
29 21 1 1 r
29 18 1 1 r
29 16 1 1 r
29 14 1 1 r
29 12 1 1 r
29 11 1 1 r
29 10 1 1 r
29 9 1 1 r
29 8 1 1 r
29 4 1 1 r
29 1 1 1 r
29 0 1 1 r
30 59 1 1 r
30 58 1 1 r
30 57 1 1 r
30 56 1 1 r
30 54 1 1 r
30 52 1 1 r
30 50 1 1 r
30 49 1 1 r
30 46 1 1 r
30 45 1 1 r
30 44 1 1 r
30 42 1 1 r
30 39 1 1 r
30 36 1 1 r
30 35 1 1 r
30 34 1 1 r
30 33 1 1 r
30 32 1 1 r
30 30 1 1 r
30 28 1 1 r
30 26 1 1 r
30 25 1 1 r
30 23 1 1 r
30 22 1 1 r
30 21 1 1 r
30 20 1 1 r
30 15 1 1 r
30 13 1 1 r
30 9 1 1 r
30 8 1 1 r
30 6 1 1 r
30 4 1 1 r
30 3 1 1 r
31 60 1 1 r
31 56 1 1 r
31 52 1 1 r
31 48 1 1 r
31 47 1 1 r
31 46 1 1 r
31 42 1 1 r
31 40 1 1 r
31 35 1 1 r
31 34 1 1 r
31 32 1 1 r
31 28 1 1 r
31 24 1 1 r
31 22 1 1 r
31 21 1 1 r
31 19 1 1 r
31 18 1 1 r
31 16 1 1 r
31 14 1 1 r
31 12 1 1 r
31 10 1 1 r
31 8 1 1 r
31 4 1 1 r
31 2 1 1 r
32 59 1 1 r
32 56 1 1 r
32 55 1 1 r
32 54 1 1 r
32 53 1 1 r
32 52 1 1 r
32 51 1 1 r
32 50 1 1 r
32 49 1 1 r
32 48 1 1 r
32 46 1 1 r
32 45 1 1 r
32 41 1 1 r
32 39 1 1 r
32 36 1 1 r
32 33 1 1 r
32 32 1 1 r
32 31 1 1 r
32 30 1 1 r
32 29 1 1 r
32 28 1 1 r
32 27 1 1 r
32 26 1 1 r
32 24 1 1 r
32 17 1 1 r
32 16 1 1 r
32 13 1 1 r
32 10 1 1 r
32 8 1 1 r
32 7 1 1 r
32 6 1 1 r
32 5 1 1 r
32 4 1 1 r
32 0 1 1 r
33 60 1 1 r
33 58 1 1 r
33 57 1 1 r
33 55 1 1 r
33 52 1 1 r
33 51 1 1 r
33 50 1 1 r
33 47 1 1 r
33 46 1 1 r
33 44 1 1 r
33 42 1 1 r
33 38 1 1 r
33 37 1 1 r
33 32 1 1 r
33 30 1 1 r
33 29 1 1 r
33 28 1 1 r
33 26 1 1 r
33 23 1 1 r
33 22 1 1 r
33 21 1 1 r
33 20 1 1 r
33 16 1 1 r
33 14 1 1 r
33 13 1 1 r
33 10 1 1 r
33 8 1 1 r
33 7 1 1 r
33 5 1 1 r
33 4 1 1 r
33 0 1 1 r
34 59 1 1 r
34 56 1 1 r
34 55 1 1 r
34 54 1 1 r
34 53 1 1 r
34 52 1 1 r
34 50 1 1 r
34 48 1 1 r
34 46 1 1 r
34 44 1 1 r
34 39 1 1 r
34 38 1 1 r
34 33 1 1 r
34 32 1 1 r
34 28 1 1 r
34 19 1 1 r
34 17 1 1 r
34 16 1 1 r
34 15 1 1 r
34 14 1 1 r
34 13 1 1 r
34 12 1 1 r
34 8 1 1 r
34 6 1 1 r
34 2 1 1 r
34 1 1 1 r
35 60 1 1 r
35 58 1 1 r
35 57 1 1 r
35 56 1 1 r
35 55 1 1 r
35 53 1 1 r
35 47 1 1 r
35 46 1 1 r
35 45 1 1 r
35 44 1 1 r
35 43 1 1 r
35 40 1 1 r
35 37 1 1 r
35 36 1 1 r
35 33 1 1 r
35 31 1 1 r
35 30 1 1 r
35 24 1 1 r
35 23 1 1 r
35 17 1 1 r
35 16 1 1 r
35 15 1 1 r
35 14 1 1 r
35 12 1 1 r
35 8 1 1 r
35 5 1 1 r
35 1 1 1 r
36 55 1 1 r
36 54 1 1 r
36 52 1 1 r
36 49 1 1 r
36 48 1 1 r
36 47 1 1 r
36 45 1 1 r
36 42 1 1 r
36 41 1 1 r
36 36 1 1 r
36 35 1 1 r
36 34 1 1 r
36 33 1 1 r
36 32 1 1 r
36 31 1 1 r
36 28 1 1 r
36 27 1 1 r
36 21 1 1 r
36 20 1 1 r
36 19 1 1 r
36 18 1 1 r
36 16 1 1 r
36 15 1 1 r
36 14 1 1 r
36 13 1 1 r
36 9 1 1 r
36 8 1 1 r
36 4 1 1 r
36 3 1 1 r
36 2 1 1 r
36 1 1 1 r
36 0 1 1 r
37 60 1 1 r
37 59 1 1 r
37 53 1 1 r
37 52 1 1 r
37 47 1 1 r
37 46 1 1 r
37 44 1 1 r
37 42 1 1 r
37 41 1 1 r
37 40 1 1 r
37 38 1 1 r
37 36 1 1 r
37 35 1 1 r
37 34 1 1 r
37 30 1 1 r
37 29 1 1 r
37 25 1 1 r
37 24 1 1 r
37 22 1 1 r
37 21 1 1 r
37 20 1 1 r
37 18 1 1 r
37 15 1 1 r
37 13 1 1 r
37 11 1 1 r
37 10 1 1 r
37 8 1 1 r
37 7 1 1 r
37 6 1 1 r
37 4 1 1 r
38 60 1 1 r
38 57 1 1 r
38 56 1 1 r
38 54 1 1 r
38 53 1 1 r
38 52 1 1 r
38 42 1 1 r
38 41 1 1 r
38 39 1 1 r
38 38 1 1 r
38 36 1 1 r
38 35 1 1 r
38 34 1 1 r
38 33 1 1 r
38 30 1 1 r
38 28 1 1 r
38 24 1 1 r
38 22 1 1 r
38 18 1 1 r
38 17 1 1 r
38 14 1 1 r
38 10 1 1 r
38 9 1 1 r
38 5 1 1 r
38 4 1 1 r
38 3 1 1 r
38 2 1 1 r
38 1 1 1 r
38 0 1 1 r
39 60 1 1 r
39 59 1 1 r
39 53 1 1 r
39 47 1 1 r
39 45 1 1 r
39 44 1 1 r
39 40 1 1 r
39 39 1 1 r
39 38 1 1 r
39 37 1 1 r
39 32 1 1 r
39 28 1 1 r
39 27 1 1 r
39 24 1 1 r
39 22 1 1 r
39 21 1 1 r
39 20 1 1 r
39 19 1 1 r
39 18 1 1 r
39 16 1 1 r
39 15 1 1 r
39 13 1 1 r
39 12 1 1 r
39 11 1 1 r
39 8 1 1 r
39 7 1 1 r
39 6 1 1 r
39 5 1 1 r
39 0 1 1 r
40 58 1 1 r
40 57 1 1 r
40 55 1 1 r
40 54 1 1 r
40 52 1 1 r
40 50 1 1 r
40 49 1 1 r
40 45 1 1 r
40 43 1 1 r
40 42 1 1 r
40 40 1 1 r
40 39 1 1 r
40 38 1 1 r
40 36 1 1 r
40 35 1 1 r
40 34 1 1 r
40 32 1 1 r
40 31 1 1 r
40 29 1 1 r
40 27 1 1 r
40 26 1 1 r
40 24 1 1 r
40 23 1 1 r
40 21 1 1 r
40 20 1 1 r
40 19 1 1 r
40 16 1 1 r
40 15 1 1 r
40 13 1 1 r
40 12 1 1 r
40 11 1 1 r
40 10 1 1 r
40 8 1 1 r
40 7 1 1 r
40 4 1 1 r
40 1 1 1 r
41 58 1 1 r
41 57 1 1 r
41 56 1 1 r
41 53 1 1 r
41 52 1 1 r
41 51 1 1 r
41 48 1 1 r
41 45 1 1 r
41 42 1 1 r
41 39 1 1 r
41 37 1 1 r
41 36 1 1 r
41 35 1 1 r
41 34 1 1 r
41 32 1 1 r
41 31 1 1 r
41 30 1 1 r
41 29 1 1 r
41 28 1 1 r
41 26 1 1 r
41 21 1 1 r
41 20 1 1 r
41 17 1 1 r
41 16 1 1 r
41 14 1 1 r
41 13 1 1 r
41 10 1 1 r
41 7 1 1 r
41 5 1 1 r
41 4 1 1 r
41 3 1 1 r
41 0 1 1 r
42 60 1 1 r
42 59 1 1 r
42 58 1 1 r
42 57 1 1 r
42 56 1 1 r
42 54 1 1 r
42 48 1 1 r
42 46 1 1 r
42 44 1 1 r
42 43 1 1 r
42 42 1 1 r
42 41 1 1 r
42 35 1 1 r
42 28 1 1 r
42 26 1 1 r
42 23 1 1 r
42 22 1 1 r
42 19 1 1 r
42 18 1 1 r
42 16 1 1 r
42 14 1 1 r
42 12 1 1 r
42 11 1 1 r
42 9 1 1 r
42 6 1 1 r
42 2 1 1 r
42 1 1 1 r
42 0 1 1 r
43 57 1 1 r
43 56 1 1 r
43 55 1 1 r
43 53 1 1 r
43 52 1 1 r
43 49 1 1 r
43 48 1 1 r
43 47 1 1 r
43 46 1 1 r
43 42 1 1 r
43 41 1 1 r
43 40 1 1 r
43 36 1 1 r
43 35 1 1 r
43 34 1 1 r
43 32 1 1 r
43 31 1 1 r
43 30 1 1 r
43 27 1 1 r
43 26 1 1 r
43 24 1 1 r
43 16 1 1 r
43 15 1 1 r
43 14 1 1 r
43 10 1 1 r
43 1 1 1 r
43 0 1 1 r
44 60 1 1 r
44 59 1 1 r
44 58 1 1 r
44 56 1 1 r
44 55 1 1 r
44 54 1 1 r
44 52 1 1 r
44 50 1 1 r
44 49 1 1 r
44 48 1 1 r
44 47 1 1 r
44 44 1 1 r
44 43 1 1 r
44 40 1 1 r
44 38 1 1 r
44 37 1 1 r
44 35 1 1 r
44 34 1 1 r
44 33 1 1 r
44 32 1 1 r
44 31 1 1 r
44 30 1 1 r
44 29 1 1 r
44 25 1 1 r
44 21 1 1 r
44 18 1 1 r
44 17 1 1 r
44 15 1 1 r
44 13 1 1 r
44 11 1 1 r
44 9 1 1 r
44 8 1 1 r
44 5 1 1 r
44 4 1 1 r
44 2 1 1 r
45 56 1 1 r
45 50 1 1 r
45 49 1 1 r
45 48 1 1 r
45 46 1 1 r
45 44 1 1 r
45 42 1 1 r
45 41 1 1 r
45 40 1 1 r
45 39 1 1 r
45 38 1 1 r
45 36 1 1 r
45 34 1 1 r
45 32 1 1 r
45 30 1 1 r
45 26 1 1 r
45 25 1 1 r
45 24 1 1 r
45 23 1 1 r
45 22 1 1 r
45 20 1 1 r
45 18 1 1 r
45 15 1 1 r
45 14 1 1 r
45 12 1 1 r
45 10 1 1 r
45 9 1 1 r
45 6 1 1 r
45 5 1 1 r
45 2 1 1 r
46 60 1 1 r
46 55 1 1 r
46 54 1 1 r
46 53 1 1 r
46 44 1 1 r
46 42 1 1 r
46 41 1 1 r
46 38 1 1 r
46 37 1 1 r
46 34 1 1 r
46 32 1 1 r
46 30 1 1 r
46 26 1 1 r
46 25 1 1 r
46 23 1 1 r
46 22 1 1 r
46 21 1 1 r
46 20 1 1 r
46 19 1 1 r
46 16 1 1 r
46 12 1 1 r
46 11 1 1 r
46 9 1 1 r
46 8 1 1 r
46 3 1 1 r
47 60 1 1 r
47 57 1 1 r
47 56 1 1 r
47 52 1 1 r
47 50 1 1 r
47 46 1 1 r
47 41 1 1 r
47 35 1 1 r
47 32 1 1 r
47 28 1 1 r
47 25 1 1 r
47 20 1 1 r
47 19 1 1 r
47 18 1 1 r
47 10 1 1 r
47 9 1 1 r
47 8 1 1 r
47 7 1 1 r
47 6 1 1 r
47 4 1 1 r
47 2 1 1 r
47 0 1 1 r
48 60 1 1 r
48 54 1 1 r
48 51 1 1 r
48 49 1 1 r
48 48 1 1 r
48 47 1 1 r
48 44 1 1 r
48 40 1 1 r
48 39 1 1 r
48 38 1 1 r
48 37 1 1 r
48 36 1 1 r
48 35 1 1 r
48 34 1 1 r
48 32 1 1 r
48 30 1 1 r
48 29 1 1 r
48 28 1 1 r
48 27 1 1 r
48 16 1 1 r
48 15 1 1 r
48 13 1 1 r
48 12 1 1 r
48 9 1 1 r
48 8 1 1 r
48 5 1 1 r
48 1 1 1 r
49 59 1 1 r
49 58 1 1 r
49 53 1 1 r
49 52 1 1 r
49 50 1 1 r
49 49 1 1 r
49 48 1 1 r
49 46 1 1 r
49 45 1 1 r
49 44 1 1 r
49 42 1 1 r
49 40 1 1 r
49 37 1 1 r
49 36 1 1 r
49 35 1 1 r
49 34 1 1 r
49 33 1 1 r
49 31 1 1 r
49 30 1 1 r
49 27 1 1 r
49 26 1 1 r
49 24 1 1 r
49 23 1 1 r
49 21 1 1 r
49 17 1 1 r
49 14 1 1 r
49 12 1 1 r
49 10 1 1 r
49 8 1 1 r
49 7 1 1 r
49 6 1 1 r
49 5 1 1 r
49 4 1 1 r
49 2 1 1 r
49 1 1 1 r
49 0 1 1 r
50 58 1 1 r
50 57 1 1 r
50 56 1 1 r
50 55 1 1 r
50 54 1 1 r
50 50 1 1 r
50 49 1 1 r
50 47 1 1 r
50 46 1 1 r
50 45 1 1 r
50 44 1 1 r
50 43 1 1 r
50 42 1 1 r
50 40 1 1 r
50 38 1 1 r
50 33 1 1 r
50 32 1 1 r
50 31 1 1 r
50 28 1 1 r
50 26 1 1 r
50 23 1 1 r
50 22 1 1 r
50 21 1 1 r
50 20 1 1 r
50 19 1 1 r
50 17 1 1 r
50 16 1 1 r
50 15 1 1 r
50 13 1 1 r
50 11 1 1 r
50 10 1 1 r
50 8 1 1 r
50 4 1 1 r
50 1 1 1 r
50 0 1 1 r
51 60 1 1 r
51 59 1 1 r
51 58 1 1 r
51 56 1 1 r
51 52 1 1 r
51 51 1 1 r
51 49 1 1 r
51 48 1 1 r
51 47 1 1 r
51 46 1 1 r
51 45 1 1 r
51 43 1 1 r
51 38 1 1 r
51 37 1 1 r
51 36 1 1 r
51 34 1 1 r
51 33 1 1 r
51 32 1 1 r
51 31 1 1 r
51 30 1 1 r
51 29 1 1 r
51 28 1 1 r
51 27 1 1 r
51 24 1 1 r
51 23 1 1 r
51 22 1 1 r
51 20 1 1 r
51 18 1 1 r
51 13 1 1 r
51 12 1 1 r
51 9 1 1 r
51 6 1 1 r
51 4 1 1 r
51 0 1 1 r
52 60 1 1 r
52 59 1 1 r
52 58 1 1 r
52 57 1 1 r
52 54 1 1 r
52 53 1 1 r
52 52 1 1 r
52 51 1 1 r
52 50 1 1 r
52 49 1 1 r
52 45 1 1 r
52 42 1 1 r
52 34 1 1 r
52 33 1 1 r
52 32 1 1 r
52 31 1 1 r
52 30 1 1 r
52 29 1 1 r
52 28 1 1 r
52 27 1 1 r
52 26 1 1 r
52 24 1 1 r
52 22 1 1 r
52 21 1 1 r
52 19 1 1 r
52 18 1 1 r
52 15 1 1 r
52 14 1 1 r
52 13 1 1 r
52 12 1 1 r
52 11 1 1 r
52 10 1 1 r
52 8 1 1 r
52 7 1 1 r
52 6 1 1 r
52 5 1 1 r
52 4 1 1 r
52 2 1 1 r
52 1 1 1 r
52 0 1 1 r
53 52 1 1 r
53 51 1 1 r
53 50 1 1 r
53 45 1 1 r
53 43 1 1 r
53 42 1 1 r
53 39 1 1 r
53 36 1 1 r
53 34 1 1 r
53 32 1 1 r
53 28 1 1 r
53 26 1 1 r
53 24 1 1 r
53 22 1 1 r
53 20 1 1 r
53 17 1 1 r
53 16 1 1 r
53 14 1 1 r
53 13 1 1 r
53 12 1 1 r
53 10 1 1 r
53 8 1 1 r
53 4 1 1 r
53 3 1 1 r
53 1 1 1 r
53 0 1 1 r
54 60 1 1 r
54 59 1 1 r
54 58 1 1 r
54 57 1 1 r
54 56 1 1 r
54 55 1 1 r
54 54 1 1 r
54 52 1 1 r
54 50 1 1 r
54 48 1 1 r
54 46 1 1 r
54 41 1 1 r
54 38 1 1 r
54 36 1 1 r
54 34 1 1 r
54 33 1 1 r
54 32 1 1 r
54 30 1 1 r
54 28 1 1 r
54 23 1 1 r
54 22 1 1 r
54 20 1 1 r
54 18 1 1 r
54 16 1 1 r
54 14 1 1 r
54 12 1 1 r
54 10 1 1 r
54 8 1 1 r
54 6 1 1 r
54 4 1 1 r
54 3 1 1 r
54 2 1 1 r
54 1 1 1 r
55 60 1 1 r
55 54 1 1 r
55 52 1 1 r
55 51 1 1 r
55 49 1 1 r
55 48 1 1 r
55 44 1 1 r
55 41 1 1 r
55 39 1 1 r
55 38 1 1 r
55 35 1 1 r
55 32 1 1 r
55 28 1 1 r
55 27 1 1 r
55 24 1 1 r
55 22 1 1 r
55 21 1 1 r
55 18 1 1 r
55 17 1 1 r
55 15 1 1 r
55 14 1 1 r
55 13 1 1 r
55 12 1 1 r
55 11 1 1 r
55 8 1 1 r
55 4 1 1 r
56 60 1 1 r
56 58 1 1 r
56 57 1 1 r
56 56 1 1 r
56 54 1 1 r
56 52 1 1 r
56 49 1 1 r
56 48 1 1 r
56 44 1 1 r
56 43 1 1 r
56 42 1 1 r
56 40 1 1 r
56 36 1 1 r
56 35 1 1 r
56 34 1 1 r
56 32 1 1 r
56 31 1 1 r
56 30 1 1 r
56 29 1 1 r
56 28 1 1 r
56 26 1 1 r
56 25 1 1 r
56 24 1 1 r
56 19 1 1 r
56 18 1 1 r
56 13 1 1 r
56 12 1 1 r
56 10 1 1 r
56 8 1 1 r
56 7 1 1 r
56 6 1 1 r
56 5 1 1 r
56 4 1 1 r
56 2 1 1 r
56 1 1 1 r
56 0 1 1 r
57 60 1 1 r
57 58 1 1 r
57 57 1 1 r
57 56 1 1 r
57 54 1 1 r
57 51 1 1 r
57 47 1 1 r
57 46 1 1 r
57 44 1 1 r
57 42 1 1 r
57 41 1 1 r
57 40 1 1 r
57 37 1 1 r
57 36 1 1 r
57 34 1 1 r
57 32 1 1 r
57 31 1 1 r
57 30 1 1 r
57 28 1 1 r
57 27 1 1 r
57 25 1 1 r
57 24 1 1 r
57 21 1 1 r
57 19 1 1 r
57 16 1 1 r
57 15 1 1 r
57 12 1 1 r
57 11 1 1 r
57 9 1 1 r
57 8 1 1 r
57 6 1 1 r
57 5 1 1 r
57 3 1 1 r
57 1 1 1 r
58 60 1 1 r
58 58 1 1 r
58 57 1 1 r
58 56 1 1 r
58 54 1 1 r
58 50 1 1 r
58 48 1 1 r
58 45 1 1 r
58 44 1 1 r
58 43 1 1 r
58 40 1 1 r
58 38 1 1 r
58 36 1 1 r
58 34 1 1 r
58 32 1 1 r
58 26 1 1 r
58 24 1 1 r
58 17 1 1 r
58 14 1 1 r
58 13 1 1 r
58 11 1 1 r
58 10 1 1 r
58 8 1 1 r
58 7 1 1 r
58 5 1 1 r
58 2 1 1 r
59 60 1 1 r
59 54 1 1 r
59 52 1 1 r
59 51 1 1 r
59 49 1 1 r
59 46 1 1 r
59 41 1 1 r
59 38 1 1 r
59 36 1 1 r
59 35 1 1 r
59 33 1 1 r
59 30 1 1 r
59 28 1 1 r
59 25 1 1 r
59 22 1 1 r
59 20 1 1 r
59 17 1 1 r
59 16 1 1 r
59 14 1 1 r
59 6 1 1 r
59 4 1 1 r
59 2 1 1 r
59 0 1 1 r
60 60 1 1 r
60 59 1 1 r
60 58 1 1 r
60 57 1 1 r
60 56 1 1 r
60 55 1 1 r
60 54 1 1 r
60 52 1 1 r
60 51 1 1 r
60 50 1 1 r
60 48 1 1 r
60 46 1 1 r
60 43 1 1 r
60 42 1 1 r
60 41 1 1 r
60 40 1 1 r
60 36 1 1 r
60 35 1 1 r
60 33 1 1 r
60 32 1 1 r
60 30 1 1 r
60 28 1 1 r
60 27 1 1 r
60 26 1 1 r
60 25 1 1 r
60 24 1 1 r
60 22 1 1 r
60 20 1 1 r
60 19 1 1 r
60 18 1 1 r
60 16 1 1 r
60 14 1 1 r
60 12 1 1 r
60 11 1 1 r
60 10 1 1 r
60 6 1 1 r
60 5 1 1 r
60 4 1 1 r
60 2 1 1 r
60 1 1 1 r
60 0 1 1 r
%%EOF