%!PS-Adobe EPSF-3.0
%%CreationDate: 2014-05-12
%%Title: QR-code
%%Pages: 1
%%DocumentData: Clean7Bit
%%LanguageLevel: 2
%%BoundingBox: 0 0 455 455
7 7 scale
2 2 translate
0 0 0 setrgbcolor
/r {rectfill} def
0 60 1 1 r
0 59 1 1 r
0 58 1 1 r
0 57 1 1 r
0 56 1 1 r
0 55 1 1 r
0 54 1 1 r
0 52 1 1 r
0 51 1 1 r
0 50 1 1 r
0 47 1 1 r
0 46 1 1 r
0 45 1 1 r
0 44 1 1 r
0 41 1 1 r
0 39 1 1 r
0 37 1 1 r
0 36 1 1 r
0 35 1 1 r
0 33 1 1 r
0 31 1 1 r
0 30 1 1 r
0 28 1 1 r
0 27 1 1 r
0 25 1 1 r
0 23 1 1 r
0 22 1 1 r
0 17 1 1 r
0 16 1 1 r
0 12 1 1 r
0 11 1 1 r
0 9 1 1 r
0 8 1 1 r
0 6 1 1 r
0 5 1 1 r
0 4 1 1 r
0 3 1 1 r
0 2 1 1 r
0 1 1 1 r
0 0 1 1 r
1 60 1 1 r
1 54 1 1 r
1 52 1 1 r
1 51 1 1 r
1 48 1 1 r
1 47 1 1 r
1 45 1 1 r
1 43 1 1 r
1 41 1 1 r
1 40 1 1 r
1 37 1 1 r
1 35 1 1 r
1 33 1 1 r
1 32 1 1 r
1 31 1 1 r
1 30 1 1 r
1 29 1 1 r
1 28 1 1 r
1 26 1 1 r
1 24 1 1 r
1 21 1 1 r
1 19 1 1 r
1 14 1 1 r
1 13 1 1 r
1 12 1 1 r
1 11 1 1 r
1 9 1 1 r
1 8 1 1 r
1 6 1 1 r
1 0 1 1 r
2 60 1 1 r
2 58 1 1 r
2 57 1 1 r
2 56 1 1 r
2 54 1 1 r
2 51 1 1 r
2 47 1 1 r
2 46 1 1 r
2 41 1 1 r
2 40 1 1 r
2 36 1 1 r
2 35 1 1 r
2 33 1 1 r
2 32 1 1 r
2 30 1 1 r
2 26 1 1 r
2 25 1 1 r
2 24 1 1 r
2 23 1 1 r
2 18 1 1 r
2 16 1 1 r
2 15 1 1 r
2 14 1 1 r
2 13 1 1 r
2 11 1 1 r
2 10 1 1 r
2 9 1 1 r
2 8 1 1 r
2 6 1 1 r
2 4 1 1 r
2 3 1 1 r
2 2 1 1 r
2 0 1 1 r
3 60 1 1 r
3 58 1 1 r
3 57 1 1 r
3 56 1 1 r
3 54 1 1 r
3 52 1 1 r
3 51 1 1 r
3 50 1 1 r
3 49 1 1 r
3 48 1 1 r
3 47 1 1 r
3 46 1 1 r
3 45 1 1 r
3 44 1 1 r
3 42 1 1 r
3 41 1 1 r
3 40 1 1 r
3 39 1 1 r
3 38 1 1 r
3 36 1 1 r
3 35 1 1 r
3 34 1 1 r
3 32 1 1 r
3 31 1 1 r
3 29 1 1 r
3 26 1 1 r
3 25 1 1 r
3 22 1 1 r
3 20 1 1 r
3 19 1 1 r
3 18 1 1 r
3 17 1 1 r
3 11 1 1 r
3 10 1 1 r
3 8 1 1 r
3 6 1 1 r
3 4 1 1 r
3 3 1 1 r
3 2 1 1 r
3 0 1 1 r
4 60 1 1 r
4 58 1 1 r
4 57 1 1 r
4 56 1 1 r
4 54 1 1 r
4 51 1 1 r
4 49 1 1 r
4 47 1 1 r
4 46 1 1 r
4 44 1 1 r
4 43 1 1 r
4 36 1 1 r
4 34 1 1 r
4 33 1 1 r
4 32 1 1 r
4 31 1 1 r
4 30 1 1 r
4 29 1 1 r
4 28 1 1 r
4 27 1 1 r
4 19 1 1 r
4 18 1 1 r
4 17 1 1 r
4 15 1 1 r
4 14 1 1 r
4 13 1 1 r
4 10 1 1 r
4 9 1 1 r
4 6 1 1 r
4 4 1 1 r
4 3 1 1 r
4 2 1 1 r
4 0 1 1 r
5 60 1 1 r
5 54 1 1 r
5 51 1 1 r
5 50 1 1 r
5 47 1 1 r
5 45 1 1 r
5 44 1 1 r
5 43 1 1 r
5 42 1 1 r
5 38 1 1 r
5 37 1 1 r
5 36 1 1 r
5 35 1 1 r
5 32 1 1 r
5 28 1 1 r
5 26 1 1 r
5 25 1 1 r
5 24 1 1 r
5 21 1 1 r
5 20 1 1 r
5 15 1 1 r
5 14 1 1 r
5 10 1 1 r
5 6 1 1 r
5 0 1 1 r
6 60 1 1 r
6 59 1 1 r
6 58 1 1 r
6 57 1 1 r
6 56 1 1 r
6 55 1 1 r
6 54 1 1 r
6 52 1 1 r
6 50 1 1 r
6 48 1 1 r
6 46 1 1 r
6 44 1 1 r
6 42 1 1 r
6 40 1 1 r
6 38 1 1 r
6 36 1 1 r
6 34 1 1 r
6 32 1 1 r
6 30 1 1 r
6 28 1 1 r
6 26 1 1 r
6 24 1 1 r
6 22 1 1 r
6 20 1 1 r
6 18 1 1 r
6 16 1 1 r
6 14 1 1 r
6 12 1 1 r
6 10 1 1 r
6 8 1 1 r
6 6 1 1 r
6 5 1 1 r
6 4 1 1 r
6 3 1 1 r
6 2 1 1 r
6 1 1 1 r
6 0 1 1 r
7 52 1 1 r
7 50 1 1 r
7 49 1 1 r
7 47 1 1 r
7 46 1 1 r
7 45 1 1 r
7 44 1 1 r
7 39 1 1 r
7 38 1 1 r
7 37 1 1 r
7 36 1 1 r
7 35 1 1 r
7 34 1 1 r
7 33 1 1 r
7 32 1 1 r
7 28 1 1 r
7 27 1 1 r
7 24 1 1 r
7 21 1 1 r
7 20 1 1 r
7 15 1 1 r
7 14 1 1 r
7 12 1 1 r
7 11 1 1 r
7 10 1 1 r
7 9 1 1 r
7 8 1 1 r
8 59 1 1 r
8 58 1 1 r
8 56 1 1 r
8 55 1 1 r
8 54 1 1 r
8 53 1 1 r
8 50 1 1 r
8 49 1 1 r
8 48 1 1 r
8 47 1 1 r
8 46 1 1 r
8 45 1 1 r
8 41 1 1 r
8 40 1 1 r
8 39 1 1 r
8 38 1 1 r
8 35 1 1 r
8 34 1 1 r
8 33 1 1 r
8 32 1 1 r
8 31 1 1 r
8 30 1 1 r
8 29 1 1 r
8 28 1 1 r
8 25 1 1 r
8 22 1 1 r
8 21 1 1 r
8 20 1 1 r
8 18 1 1 r
8 14 1 1 r
8 8 1 1 r
8 7 1 1 r
8 6 1 1 r
8 3 1 1 r
8 1 1 1 r
8 0 1 1 r
9 60 1 1 r
9 57 1 1 r
9 56 1 1 r
9 47 1 1 r
9 46 1 1 r
9 43 1 1 r
9 42 1 1 r
9 41 1 1 r
9 39 1 1 r
9 36 1 1 r
9 34 1 1 r
9 31 1 1 r
9 25 1 1 r
9 24 1 1 r
9 19 1 1 r
9 17 1 1 r
9 16 1 1 r
9 14 1 1 r
9 13 1 1 r
9 12 1 1 r
9 10 1 1 r
9 9 1 1 r
9 8 1 1 r
9 5 1 1 r
9 2 1 1 r
9 0 1 1 r
10 58 1 1 r
10 56 1 1 r
10 55 1 1 r
10 54 1 1 r
10 53 1 1 r
10 51 1 1 r
10 50 1 1 r
10 49 1 1 r
10 47 1 1 r
10 45 1 1 r
10 44 1 1 r
10 41 1 1 r
10 38 1 1 r
10 33 1 1 r
10 32 1 1 r
10 30 1 1 r
10 29 1 1 r
10 25 1 1 r
10 24 1 1 r
10 23 1 1 r
10 20 1 1 r
10 19 1 1 r
10 17 1 1 r
10 14 1 1 r
10 12 1 1 r
10 9 1 1 r
10 8 1 1 r
10 7 1 1 r
10 6 1 1 r
10 1 1 1 r
10 0 1 1 r
11 57 1 1 r
11 52 1 1 r
11 51 1 1 r
11 50 1 1 r
11 46 1 1 r
11 44 1 1 r
11 43 1 1 r
11 42 1 1 r
11 41 1 1 r
11 37 1 1 r
11 36 1 1 r
11 35 1 1 r
11 33 1 1 r
11 31 1 1 r
11 30 1 1 r
11 29 1 1 r
11 26 1 1 r
11 25 1 1 r
11 24 1 1 r
11 19 1 1 r
11 12 1 1 r
11 11 1 1 r
11 8 1 1 r
11 7 1 1 r
11 6 1 1 r
11 4 1 1 r
11 3 1 1 r
11 1 1 1 r
12 60 1 1 r
12 59 1 1 r
12 58 1 1 r
12 57 1 1 r
12 55 1 1 r
12 54 1 1 r
12 52 1 1 r
12 50 1 1 r
12 49 1 1 r
12 47 1 1 r
12 44 1 1 r
12 43 1 1 r
12 41 1 1 r
12 40 1 1 r
12 37 1 1 r
12 34 1 1 r
12 33 1 1 r
12 31 1 1 r
12 29 1 1 r
12 28 1 1 r
12 26 1 1 r
12 24 1 1 r
12 22 1 1 r
12 20 1 1 r
12 19 1 1 r
12 16 1 1 r
12 15 1 1 r
12 14 1 1 r
12 10 1 1 r
12 8 1 1 r
12 4 1 1 r
12 3 1 1 r
12 2 1 1 r
12 0 1 1 r
13 58 1 1 r
13 56 1 1 r
13 53 1 1 r
13 52 1 1 r
13 51 1 1 r
13 50 1 1 r
13 49 1 1 r
13 44 1 1 r
13 40 1 1 r
13 39 1 1 r
13 38 1 1 r
13 36 1 1 r
13 34 1 1 r
13 33 1 1 r
13 32 1 1 r
13 31 1 1 r
13 26 1 1 r
13 25 1 1 r
13 21 1 1 r
13 19 1 1 r
13 17 1 1 r
13 13 1 1 r
13 6 1 1 r
13 4 1 1 r
13 3 1 1 r
13 1 1 1 r
13 0 1 1 r
14 60 1 1 r
14 59 1 1 r
14 57 1 1 r
14 55 1 1 r
14 54 1 1 r
14 50 1 1 r
14 48 1 1 r
14 44 1 1 r
14 43 1 1 r
14 42 1 1 r
14 41 1 1 r
14 38 1 1 r
14 37 1 1 r
14 35 1 1 r
14 34 1 1 r
14 32 1 1 r
14 28 1 1 r
14 26 1 1 r
14 22 1 1 r
14 20 1 1 r
14 18 1 1 r
14 17 1 1 r
14 14 1 1 r
14 12 1 1 r
14 11 1 1 r
14 9 1 1 r
14 8 1 1 r
14 6 1 1 r
14 5 1 1 r
14 4 1 1 r
14 0 1 1 r
15 60 1 1 r
15 59 1 1 r
15 58 1 1 r
15 57 1 1 r
15 56 1 1 r
15 53 1 1 r
15 50 1 1 r
15 49 1 1 r
15 48 1 1 r
15 47 1 1 r
15 46 1 1 r
15 45 1 1 r
15 44 1 1 r
15 43 1 1 r
15 42 1 1 r
15 41 1 1 r
15 38 1 1 r
15 37 1 1 r
15 36 1 1 r
15 34 1 1 r
15 30 1 1 r
15 29 1 1 r
15 23 1 1 r
15 22 1 1 r
15 21 1 1 r
15 17 1 1 r
15 15 1 1 r
15 13 1 1 r
15 12 1 1 r
15 11 1 1 r
15 10 1 1 r
15 9 1 1 r
15 8 1 1 r
15 7 1 1 r
15 6 1 1 r
15 5 1 1 r
15 4 1 1 r
15 3 1 1 r
15 2 1 1 r
15 0 1 1 r
16 57 1 1 r
16 55 1 1 r
16 54 1 1 r
16 46 1 1 r
16 45 1 1 r
16 42 1 1 r
16 41 1 1 r
16 40 1 1 r
16 39 1 1 r
16 38 1 1 r
16 36 1 1 r
16 35 1 1 r
16 34 1 1 r
16 33 1 1 r
16 32 1 1 r
16 30 1 1 r
16 29 1 1 r
16 28 1 1 r
16 27 1 1 r
16 26 1 1 r
16 25 1 1 r
16 23 1 1 r
16 21 1 1 r
16 20 1 1 r
16 19 1 1 r
16 18 1 1 r
16 17 1 1 r
16 16 1 1 r
16 12 1 1 r
16 11 1 1 r
16 10 1 1 r
16 8 1 1 r
16 0 1 1 r
17 60 1 1 r
17 59 1 1 r
17 58 1 1 r
17 56 1 1 r
17 52 1 1 r
17 50 1 1 r
17 46 1 1 r
17 45 1 1 r
17 42 1 1 r
17 41 1 1 r
17 40 1 1 r
17 39 1 1 r
17 38 1 1 r
17 36 1 1 r
17 35 1 1 r
17 23 1 1 r
17 22 1 1 r
17 19 1 1 r
17 17 1 1 r
17 16 1 1 r
17 15 1 1 r
17 13 1 1 r
17 10 1 1 r
17 8 1 1 r
17 7 1 1 r
17 6 1 1 r
17 5 1 1 r
17 3 1 1 r
17 2 1 1 r
18 60 1 1 r
18 54 1 1 r
18 52 1 1 r
18 49 1 1 r
18 46 1 1 r
18 44 1 1 r
18 43 1 1 r
18 42 1 1 r
18 41 1 1 r
18 40 1 1 r
18 39 1 1 r
18 37 1 1 r
18 34 1 1 r
18 33 1 1 r
18 32 1 1 r
18 31 1 1 r
18 28 1 1 r
18 26 1 1 r
18 24 1 1 r
18 22 1 1 r
18 20 1 1 r
18 17 1 1 r
18 16 1 1 r
18 15 1 1 r
18 14 1 1 r
18 12 1 1 r
18 10 1 1 r
18 8 1 1 r
18 5 1 1 r
18 2 1 1 r
19 59 1 1 r
19 57 1 1 r
19 56 1 1 r
19 55 1 1 r
19 53 1 1 r
19 50 1 1 r
19 48 1 1 r
19 47 1 1 r
19 43 1 1 r
19 42 1 1 r
19 41 1 1 r
19 40 1 1 r
19 38 1 1 r
19 37 1 1 r
19 36 1 1 r
19 34 1 1 r
19 33 1 1 r
19 29 1 1 r
19 27 1 1 r
19 25 1 1 r
19 21 1 1 r
19 20 1 1 r
19 17 1 1 r
19 16 1 1 r
19 15 1 1 r
19 13 1 1 r
19 12 1 1 r
19 10 1 1 r
19 8 1 1 r
19 7 1 1 r
19 4 1 1 r
19 3 1 1 r
19 1 1 1 r
20 58 1 1 r
20 57 1 1 r
20 55 1 1 r
20 54 1 1 r
20 51 1 1 r
20 48 1 1 r
20 46 1 1 r
20 42 1 1 r
20 40 1 1 r
20 39 1 1 r
20 38 1 1 r
20 37 1 1 r
20 36 1 1 r
20 32 1 1 r
20 30 1 1 r
20 29 1 1 r
20 27 1 1 r
20 26 1 1 r
20 25 1 1 r
20 24 1 1 r
20 22 1 1 r
20 20 1 1 r
20 17 1 1 r
20 16 1 1 r
20 14 1 1 r
20 11 1 1 r
20 9 1 1 r
20 6 1 1 r
20 2 1 1 r
20 1 1 1 r
21 60 1 1 r
21 57 1 1 r
21 53 1 1 r
21 52 1 1 r
21 51 1 1 r
21 47 1 1 r
21 46 1 1 r
21 45 1 1 r
21 44 1 1 r
21 43 1 1 r
21 41 1 1 r
21 40 1 1 r
21 39 1 1 r
21 37 1 1 r
21 36 1 1 r
21 35 1 1 r
21 33 1 1 r
21 25 1 1 r
21 23 1 1 r
21 22 1 1 r
21 20 1 1 r
21 19 1 1 r
21 17 1 1 r
21 16 1 1 r
21 14 1 1 r
21 13 1 1 r
21 12 1 1 r
21 11 1 1 r
21 9 1 1 r
21 1 1 1 r
21 0 1 1 r
22 60 1 1 r
22 59 1 1 r
22 54 1 1 r
22 53 1 1 r
22 50 1 1 r
22 49 1 1 r
22 48 1 1 r
22 45 1 1 r
22 44 1 1 r
22 40 1 1 r
22 34 1 1 r
22 30 1 1 r
22 29 1 1 r
22 28 1 1 r
22 24 1 1 r
22 23 1 1 r
22 18 1 1 r
22 14 1 1 r
22 13 1 1 r
22 11 1 1 r
22 10 1 1 r
22 6 1 1 r
22 5 1 1 r
22 3 1 1 r
22 0 1 1 r
23 58 1 1 r
23 52 1 1 r
23 48 1 1 r
23 46 1 1 r
23 45 1 1 r
23 43 1 1 r
23 40 1 1 r
23 38 1 1 r
23 37 1 1 r
23 36 1 1 r
23 34 1 1 r
23 32 1 1 r
23 31 1 1 r
23 29 1 1 r
23 27 1 1 r
23 26 1 1 r
23 22 1 1 r
23 21 1 1 r
23 20 1 1 r
23 14 1 1 r
23 10 1 1 r
23 8 1 1 r
23 7 1 1 r
23 5 1 1 r
23 1 1 1 r
24 60 1 1 r
24 58 1 1 r
24 57 1 1 r
24 56 1 1 r
24 55 1 1 r
24 54 1 1 r
24 52 1 1 r
24 51 1 1 r
24 50 1 1 r
24 45 1 1 r
24 44 1 1 r
24 43 1 1 r
24 41 1 1 r
24 40 1 1 r
24 38 1 1 r
24 36 1 1 r
24 35 1 1 r
24 34 1 1 r
24 32 1 1 r
24 29 1 1 r
24 28 1 1 r
24 26 1 1 r
24 24 1 1 r
24 19 1 1 r
24 18 1 1 r
24 17 1 1 r
24 16 1 1 r
24 12 1 1 r
24 11 1 1 r
24 9 1 1 r
24 8 1 1 r
24 6 1 1 r
24 4 1 1 r
24 3 1 1 r
24 2 1 1 r
25 58 1 1 r
25 56 1 1 r
25 52 1 1 r
25 51 1 1 r
25 50 1 1 r
25 48 1 1 r
25 47 1 1 r
25 46 1 1 r
25 45 1 1 r
25 43 1 1 r
25 41 1 1 r
25 40 1 1 r
25 39 1 1 r
25 38 1 1 r
25 35 1 1 r
25 31 1 1 r
25 30 1 1 r
25 28 1 1 r
25 27 1 1 r
25 25 1 1 r
25 23 1 1 r
25 22 1 1 r
25 21 1 1 r
25 19 1 1 r
25 18 1 1 r
25 17 1 1 r
25 16 1 1 r
25 13 1 1 r
25 12 1 1 r
25 11 1 1 r
25 5 1 1 r
25 1 1 1 r
25 0 1 1 r
26 60 1 1 r
26 56 1 1 r
26 54 1 1 r
26 53 1 1 r
26 52 1 1 r
26 50 1 1 r
26 49 1 1 r
26 48 1 1 r
26 47 1 1 r
26 38 1 1 r
26 37 1 1 r
26 36 1 1 r
26 32 1 1 r
26 31 1 1 r
26 28 1 1 r
26 27 1 1 r
26 25 1 1 r
26 24 1 1 r
26 23 1 1 r
26 22 1 1 r
26 21 1 1 r
26 19 1 1 r
26 15 1 1 r
26 13 1 1 r
26 10 1 1 r
26 9 1 1 r
26 8 1 1 r
26 7 1 1 r
26 6 1 1 r
26 0 1 1 r
27 58 1 1 r
27 57 1 1 r
27 55 1 1 r
27 53 1 1 r
27 52 1 1 r
27 51 1 1 r
27 50 1 1 r
27 49 1 1 r
27 48 1 1 r
27 47 1 1 r
27 44 1 1 r
27 41 1 1 r
27 40 1 1 r
27 39 1 1 r
27 37 1 1 r
27 35 1 1 r
27 30 1 1 r
27 27 1 1 r
27 25 1 1 r
27 22 1 1 r
27 21 1 1 r
27 18 1 1 r
27 15 1 1 r
27 13 1 1 r
27 11 1 1 r
27 8 1 1 r
27 5 1 1 r
27 4 1 1 r
27 2 1 1 r
27 1 1 1 r
28 59 1 1 r
28 58 1 1 r
28 56 1 1 r
28 55 1 1 r
28 54 1 1 r
28 53 1 1 r
28 52 1 1 r
28 48 1 1 r
28 47 1 1 r
28 46 1 1 r
28 43 1 1 r
28 40 1 1 r
28 39 1 1 r
28 38 1 1 r
28 37 1 1 r
28 36 1 1 r
28 35 1 1 r
28 34 1 1 r
28 33 1 1 r
28 32 1 1 r
28 31 1 1 r
28 30 1 1 r
28 29 1 1 r
28 28 1 1 r
28 27 1 1 r
28 26 1 1 r
28 25 1 1 r
28 23 1 1 r
28 14 1 1 r
28 12 1 1 r
28 10 1 1 r
28 8 1 1 r
28 7 1 1 r
28 6 1 1 r
28 5 1 1 r
28 4 1 1 r
28 1 1 1 r
28 0 1 1 r
29 57 1 1 r
29 56 1 1 r
29 52 1 1 r
29 46 1 1 r
29 43 1 1 r
29 38 1 1 r
29 37 1 1 r
29 35 1 1 r
29 34 1 1 r
29 33 1 1 r
29 32 1 1 r
29 28 1 1 r
29 27 1 1 r
29 25 1 1 r
29 21 1 1 r
29 20 1 1 r
29 19 1 1 r
29 16 1 1 r
29 14 1 1 r
29 11 1 1 r
29 9 1 1 r
29 8 1 1 r
29 4 1 1 r
29 1 1 1 r
29 0 1 1 r
30 60 1 1 r
30 58 1 1 r
30 56 1 1 r
30 54 1 1 r
30 52 1 1 r
30 50 1 1 r
30 48 1 1 r
30 47 1 1 r
30 45 1 1 r
30 44 1 1 r
30 39 1 1 r
30 38 1 1 r
30 37 1 1 r
30 36 1 1 r
30 34 1 1 r
30 32 1 1 r
30 30 1 1 r
30 28 1 1 r
30 26 1 1 r
30 24 1 1 r
30 22 1 1 r
30 21 1 1 r
30 19 1 1 r
30 12 1 1 r
30 9 1 1 r
30 8 1 1 r
30 6 1 1 r
30 4 1 1 r
30 3 1 1 r
30 2 1 1 r
31 60 1 1 r
31 59 1 1 r
31 56 1 1 r
31 52 1 1 r
31 50 1 1 r
31 47 1 1 r
31 46 1 1 r
31 44 1 1 r
31 43 1 1 r
31 40 1 1 r
31 39 1 1 r
31 38 1 1 r
31 36 1 1 r
31 34 1 1 r
31 33 1 1 r
31 32 1 1 r
31 28 1 1 r
31 25 1 1 r
31 23 1 1 r
31 21 1 1 r
31 16 1 1 r
31 13 1 1 r
31 12 1 1 r
31 9 1 1 r
31 8 1 1 r
31 4 1 1 r
31 2 1 1 r
31 1 1 1 r
32 60 1 1 r
32 58 1 1 r
32 56 1 1 r
32 55 1 1 r
32 54 1 1 r
32 53 1 1 r
32 52 1 1 r
32 50 1 1 r
32 49 1 1 r
32 48 1 1 r
32 44 1 1 r
32 43 1 1 r
32 39 1 1 r
32 36 1 1 r
32 34 1 1 r
32 33 1 1 r
32 32 1 1 r
32 31 1 1 r
32 30 1 1 r
32 29 1 1 r
32 28 1 1 r
32 27 1 1 r
32 26 1 1 r
32 25 1 1 r
32 23 1 1 r
32 21 1 1 r
32 20 1 1 r
32 16 1 1 r
32 14 1 1 r
32 13 1 1 r
32 12 1 1 r
32 10 1 1 r
32 8 1 1 r
32 7 1 1 r
32 6 1 1 r
32 5 1 1 r
32 4 1 1 r
32 3 1 1 r
33 59 1 1 r
33 56 1 1 r
33 52 1 1 r
33 51 1 1 r
33 50 1 1 r
33 48 1 1 r
33 47 1 1 r
33 46 1 1 r
33 45 1 1 r
33 40 1 1 r
33 39 1 1 r
33 38 1 1 r
33 33 1 1 r
33 32 1 1 r
33 31 1 1 r
33 29 1 1 r
33 28 1 1 r
33 27 1 1 r
33 23 1 1 r
33 21 1 1 r
33 20 1 1 r
33 19 1 1 r
33 18 1 1 r
33 16 1 1 r
33 14 1 1 r
33 11 1 1 r
33 10 1 1 r
33 2 1 1 r
33 0 1 1 r
34 60 1 1 r
34 59 1 1 r
34 56 1 1 r
34 54 1 1 r
34 53 1 1 r
34 51 1 1 r
34 48 1 1 r
34 43 1 1 r
34 42 1 1 r
34 40 1 1 r
34 38 1 1 r
34 34 1 1 r
34 33 1 1 r
34 31 1 1 r
34 30 1 1 r
34 26 1 1 r
34 24 1 1 r
34 23 1 1 r
34 22 1 1 r
34 20 1 1 r
34 19 1 1 r
34 17 1 1 r
34 16 1 1 r
34 15 1 1 r
34 12 1 1 r
34 11 1 1 r
34 9 1 1 r
34 8 1 1 r
34 7 1 1 r
34 6 1 1 r
34 5 1 1 r
34 4 1 1 r
34 2 1 1 r
34 1 1 1 r
34 0 1 1 r
35 59 1 1 r
35 58 1 1 r
35 57 1 1 r
35 56 1 1 r
35 55 1 1 r
35 53 1 1 r
35 51 1 1 r
35 50 1 1 r
35 49 1 1 r
35 48 1 1 r
35 46 1 1 r
35 44 1 1 r
35 41 1 1 r
35 40 1 1 r
35 38 1 1 r
35 34 1 1 r
35 33 1 1 r
35 32 1 1 r
35 31 1 1 r
35 30 1 1 r
35 28 1 1 r
35 26 1 1 r
35 24 1 1 r
35 21 1 1 r
35 20 1 1 r
35 18 1 1 r
35 16 1 1 r
35 15 1 1 r
35 11 1 1 r
35 10 1 1 r
35 9 1 1 r
35 8 1 1 r
35 5 1 1 r
35 4 1 1 r
35 3 1 1 r
35 1 1 1 r
36 60 1 1 r
36 57 1 1 r
36 56 1 1 r
36 55 1 1 r
36 54 1 1 r
36 52 1 1 r
36 50 1 1 r
36 49 1 1 r
36 47 1 1 r
36 43 1 1 r
36 42 1 1 r
36 37 1 1 r
36 35 1 1 r
36 34 1 1 r
36 33 1 1 r
36 32 1 1 r
36 29 1 1 r
36 28 1 1 r
36 27 1 1 r
36 24 1 1 r
36 21 1 1 r
36 18 1 1 r
36 15 1 1 r
36 13 1 1 r
36 12 1 1 r
36 9 1 1 r
36 5 1 1 r
36 2 1 1 r
36 0 1 1 r
37 56 1 1 r
37 55 1 1 r
37 52 1 1 r
37 51 1 1 r
37 49 1 1 r
37 47 1 1 r
37 46 1 1 r
37 44 1 1 r
37 41 1 1 r
37 39 1 1 r
37 38 1 1 r
37 36 1 1 r
37 34 1 1 r
37 33 1 1 r
37 31 1 1 r
37 29 1 1 r
37 28 1 1 r
37 27 1 1 r
37 25 1 1 r
37 23 1 1 r
37 20 1 1 r
37 15 1 1 r
37 11 1 1 r
37 8 1 1 r
37 5 1 1 r
37 4 1 1 r
37 2 1 1 r
37 0 1 1 r
38 60 1 1 r
38 58 1 1 r
38 55 1 1 r
38 54 1 1 r
38 50 1 1 r
38 49 1 1 r
38 48 1 1 r
38 44 1 1 r
38 43 1 1 r
38 42 1 1 r
38 39 1 1 r
38 38 1 1 r
38 37 1 1 r
38 36 1 1 r
38 34 1 1 r
38 32 1 1 r
38 31 1 1 r
38 30 1 1 r
38 28 1 1 r
38 27 1 1 r
38 26 1 1 r
38 25 1 1 r
38 24 1 1 r
38 23 1 1 r
38 21 1 1 r
38 20 1 1 r
38 19 1 1 r
38 15 1 1 r
38 14 1 1 r
38 13 1 1 r
38 11 1 1 r
38 8 1 1 r
38 6 1 1 r
38 5 1 1 r
38 4 1 1 r
38 3 1 1 r
38 2 1 1 r
38 1 1 1 r
38 0 1 1 r
39 59 1 1 r
39 56 1 1 r
39 55 1 1 r
39 52 1 1 r
39 51 1 1 r
39 49 1 1 r
39 46 1 1 r
39 45 1 1 r
39 42 1 1 r
39 41 1 1 r
39 37 1 1 r
39 36 1 1 r
39 35 1 1 r
39 33 1 1 r
39 30 1 1 r
39 29 1 1 r
39 26 1 1 r
39 24 1 1 r
39 20 1 1 r
39 19 1 1 r
39 12 1 1 r
39 11 1 1 r
39 10 1 1 r
39 9 1 1 r
39 8 1 1 r
39 5 1 1 r
39 3 1 1 r
39 1 1 1 r
40 59 1 1 r
40 56 1 1 r
40 54 1 1 r
40 53 1 1 r
40 52 1 1 r
40 49 1 1 r
40 47 1 1 r
40 46 1 1 r
40 45 1 1 r
40 44 1 1 r
40 43 1 1 r
40 42 1 1 r
40 41 1 1 r
40 39 1 1 r
40 36 1 1 r
40 32 1 1 r
40 30 1 1 r
40 28 1 1 r
40 27 1 1 r
40 25 1 1 r
40 24 1 1 r
40 23 1 1 r
40 21 1 1 r
40 19 1 1 r
40 16 1 1 r
40 13 1 1 r
40 10 1 1 r
40 9 1 1 r
40 7 1 1 r
40 5 1 1 r
41 60 1 1 r
41 58 1 1 r
41 51 1 1 r
41 46 1 1 r
41 41 1 1 r
41 38 1 1 r
41 37 1 1 r
41 36 1 1 r
41 35 1 1 r
41 34 1 1 r
41 31 1 1 r
41 29 1 1 r
41 28 1 1 r
41 27 1 1 r
41 26 1 1 r
41 24 1 1 r
41 23 1 1 r
41 19 1 1 r
41 18 1 1 r
41 16 1 1 r
41 11 1 1 r
41 10 1 1 r
41 9 1 1 r
41 8 1 1 r
41 7 1 1 r
41 6 1 1 r
41 4 1 1 r
41 2 1 1 r
41 1 1 1 r
42 60 1 1 r
42 59 1 1 r
42 57 1 1 r
42 56 1 1 r
42 54 1 1 r
42 49 1 1 r
42 48 1 1 r
42 47 1 1 r
42 43 1 1 r
42 41 1 1 r
42 40 1 1 r
42 35 1 1 r
42 33 1 1 r
42 32 1 1 r
42 31 1 1 r
42 29 1 1 r
42 28 1 1 r
42 27 1 1 r
42 22 1 1 r
42 18 1 1 r
42 17 1 1 r
42 16 1 1 r
42 15 1 1 r
42 14 1 1 r
42 11 1 1 r
42 9 1 1 r
42 1 1 1 r
42 0 1 1 r
43 56 1 1 r
43 53 1 1 r
43 52 1 1 r
43 51 1 1 r
43 49 1 1 r
43 48 1 1 r
43 47 1 1 r
43 44 1 1 r
43 43 1 1 r
43 38 1 1 r
43 37 1 1 r
43 35 1 1 r
43 33 1 1 r
43 32 1 1 r
43 27 1 1 r
43 26 1 1 r
43 25 1 1 r
43 24 1 1 r
43 23 1 1 r
43 22 1 1 r
43 21 1 1 r
43 19 1 1 r
43 18 1 1 r
43 17 1 1 r
43 16 1 1 r
43 14 1 1 r
43 13 1 1 r
43 10 1 1 r
43 8 1 1 r
43 6 1 1 r
43 4 1 1 r
43 3 1 1 r
43 1 1 1 r
44 60 1 1 r
44 59 1 1 r
44 58 1 1 r
44 57 1 1 r
44 56 1 1 r
44 54 1 1 r
44 53 1 1 r
44 50 1 1 r
44 48 1 1 r
44 47 1 1 r
44 46 1 1 r
44 41 1 1 r
44 35 1 1 r
44 32 1 1 r
44 28 1 1 r
44 25 1 1 r
44 24 1 1 r
44 22 1 1 r
44 21 1 1 r
44 19 1 1 r
44 18 1 1 r
44 15 1 1 r
44 14 1 1 r
44 9 1 1 r
44 8 1 1 r
44 7 1 1 r
44 5 1 1 r
44 2 1 1 r
45 60 1 1 r
45 59 1 1 r
45 58 1 1 r
45 56 1 1 r
45 55 1 1 r
45 53 1 1 r
45 52 1 1 r
45 49 1 1 r
45 48 1 1 r
45 46 1 1 r
45 45 1 1 r
45 43 1 1 r
45 41 1 1 r
45 40 1 1 r
45 39 1 1 r
45 38 1 1 r
45 37 1 1 r
45 35 1 1 r
45 33 1 1 r
45 32 1 1 r
45 30 1 1 r
45 29 1 1 r
45 27 1 1 r
45 22 1 1 r
45 21 1 1 r
45 19 1 1 r
45 18 1 1 r
45 17 1 1 r
45 16 1 1 r
45 15 1 1 r
45 13 1 1 r
45 11 1 1 r
45 8 1 1 r
45 6 1 1 r
45 3 1 1 r
45 2 1 1 r
45 1 1 1 r
45 0 1 1 r
46 60 1 1 r
46 59 1 1 r
46 58 1 1 r
46 54 1 1 r
46 53 1 1 r
46 51 1 1 r
46 49 1 1 r
46 48 1 1 r
46 47 1 1 r
46 42 1 1 r
46 41 1 1 r
46 40 1 1 r
46 37 1 1 r
46 36 1 1 r
46 35 1 1 r
46 34 1 1 r
46 32 1 1 r
46 31 1 1 r
46 30 1 1 r
46 29 1 1 r
46 24 1 1 r
46 18 1 1 r
46 17 1 1 r
46 14 1 1 r
46 12 1 1 r
46 6 1 1 r
46 5 1 1 r
46 4 1 1 r
46 1 1 1 r
47 59 1 1 r
47 57 1 1 r
47 56 1 1 r
47 52 1 1 r
47 48 1 1 r
47 46 1 1 r
47 45 1 1 r
47 44 1 1 r
47 42 1 1 r
47 40 1 1 r
47 37 1 1 r
47 36 1 1 r
47 35 1 1 r
47 34 1 1 r
47 32 1 1 r
47 31 1 1 r
47 30 1 1 r
47 29 1 1 r
47 28 1 1 r
47 27 1 1 r
47 26 1 1 r
47 25 1 1 r
47 22 1 1 r
47 17 1 1 r
47 15 1 1 r
47 12 1 1 r
47 11 1 1 r
47 10 1 1 r
47 8 1 1 r
47 7 1 1 r
47 3 1 1 r
47 2 1 1 r
47 0 1 1 r
48 60 1 1 r
48 57 1 1 r
48 55 1 1 r
48 54 1 1 r
48 53 1 1 r
48 52 1 1 r
48 50 1 1 r
48 49 1 1 r
48 48 1 1 r
48 46 1 1 r
48 44 1 1 r
48 41 1 1 r
48 39 1 1 r
48 36 1 1 r
48 34 1 1 r
48 32 1 1 r
48 29 1 1 r
48 28 1 1 r
48 27 1 1 r
48 25 1 1 r
48 23 1 1 r
48 22 1 1 r
48 21 1 1 r
48 19 1 1 r
48 18 1 1 r
48 17 1 1 r
48 13 1 1 r
48 12 1 1 r
48 6 1 1 r
48 5 1 1 r
48 2 1 1 r
48 0 1 1 r
49 56 1 1 r
49 53 1 1 r
49 51 1 1 r
49 50 1 1 r
49 45 1 1 r
49 42 1 1 r
49 39 1 1 r
49 38 1 1 r
49 35 1 1 r
49 33 1 1 r
49 31 1 1 r
49 29 1 1 r
49 27 1 1 r
49 25 1 1 r
49 22 1 1 r
49 19 1 1 r
49 18 1 1 r
49 17 1 1 r
49 16 1 1 r
49 15 1 1 r
49 13 1 1 r
49 11 1 1 r
49 9 1 1 r
49 8 1 1 r
49 5 1 1 r
49 3 1 1 r
49 2 1 1 r
49 1 1 1 r
49 0 1 1 r
50 58 1 1 r
50 57 1 1 r
50 56 1 1 r
50 55 1 1 r
50 54 1 1 r
50 52 1 1 r
50 50 1 1 r
50 49 1 1 r
50 48 1 1 r
50 46 1 1 r
50 40 1 1 r
50 39 1 1 r
50 37 1 1 r
50 34 1 1 r
50 33 1 1 r
50 32 1 1 r
50 31 1 1 r
50 30 1 1 r
50 29 1 1 r
50 27 1 1 r
50 23 1 1 r
50 21 1 1 r
50 20 1 1 r
50 14 1 1 r
50 12 1 1 r
50 7 1 1 r
50 1 1 1 r
50 0 1 1 r
51 60 1 1 r
51 59 1 1 r
51 58 1 1 r
51 56 1 1 r
51 53 1 1 r
51 52 1 1 r
51 51 1 1 r
51 46 1 1 r
51 45 1 1 r
51 44 1 1 r
51 42 1 1 r
51 41 1 1 r
51 38 1 1 r
51 37 1 1 r
51 33 1 1 r
51 30 1 1 r
51 28 1 1 r
51 27 1 1 r
51 25 1 1 r
51 21 1 1 r
51 20 1 1 r
51 15 1 1 r
51 14 1 1 r
51 13 1 1 r
51 12 1 1 r
51 11 1 1 r
51 8 1 1 r
51 7 1 1 r
51 5 1 1 r
51 2 1 1 r
52 60 1 1 r
52 59 1 1 r
52 58 1 1 r
52 57 1 1 r
52 54 1 1 r
52 53 1 1 r
52 52 1 1 r
52 50 1 1 r
52 46 1 1 r
52 45 1 1 r
52 44 1 1 r
52 42 1 1 r
52 41 1 1 r
52 38 1 1 r
52 36 1 1 r
52 34 1 1 r
52 32 1 1 r
52 31 1 1 r
52 30 1 1 r
52 29 1 1 r
52 28 1 1 r
52 27 1 1 r
52 24 1 1 r
52 23 1 1 r
52 22 1 1 r
52 20 1 1 r
52 17 1 1 r
52 16 1 1 r
52 15 1 1 r
52 11 1 1 r
52 10 1 1 r
52 8 1 1 r
52 7 1 1 r
52 6 1 1 r
52 5 1 1 r
52 4 1 1 r
52 3 1 1 r
53 48 1 1 r
53 46 1 1 r
53 45 1 1 r
53 41 1 1 r
53 38 1 1 r
53 35 1 1 r
53 34 1 1 r
53 33 1 1 r
53 32 1 1 r
53 28 1 1 r
53 25 1 1 r
53 24 1 1 r
53 22 1 1 r
53 19 1 1 r
53 18 1 1 r
53 17 1 1 r
53 16 1 1 r
53 15 1 1 r
53 13 1 1 r
53 12 1 1 r
53 10 1 1 r
53 8 1 1 r
53 4 1 1 r
53 2 1 1 r
53 0 1 1 r
54 60 1 1 r
54 59 1 1 r
54 58 1 1 r
54 57 1 1 r
54 56 1 1 r
54 55 1 1 r
54 54 1 1 r
54 52 1 1 r
54 50 1 1 r
54 49 1 1 r
54 48 1 1 r
54 47 1 1 r
54 43 1 1 r
54 41 1 1 r
54 36 1 1 r
54 34 1 1 r
54 33 1 1 r
54 32 1 1 r
54 30 1 1 r
54 28 1 1 r
54 21 1 1 r
54 19 1 1 r
54 18 1 1 r
54 17 1 1 r
54 16 1 1 r
54 14 1 1 r
54 12 1 1 r
54 8 1 1 r
54 6 1 1 r
54 4 1 1 r
54 3 1 1 r
55 60 1 1 r
55 54 1 1 r
55 52 1 1 r
55 47 1 1 r
55 45 1 1 r
55 44 1 1 r
55 43 1 1 r
55 40 1 1 r
55 38 1 1 r
55 37 1 1 r
55 36 1 1 r
55 35 1 1 r
55 34 1 1 r
55 32 1 1 r
55 28 1 1 r
55 25 1 1 r
55 21 1 1 r
55 20 1 1 r
55 18 1 1 r
55 17 1 1 r
55 16 1 1 r
55 14 1 1 r
55 10 1 1 r
55 9 1 1 r
55 8 1 1 r
55 4 1 1 r
55 2 1 1 r
55 1 1 1 r
55 0 1 1 r
56 60 1 1 r
56 58 1 1 r
56 57 1 1 r
56 56 1 1 r
56 54 1 1 r
56 52 1 1 r
56 49 1 1 r
56 48 1 1 r
56 47 1 1 r
56 45 1 1 r
56 43 1 1 r
56 42 1 1 r
56 40 1 1 r
56 38 1 1 r
56 37 1 1 r
56 36 1 1 r
56 35 1 1 r
56 33 1 1 r
56 32 1 1 r
56 31 1 1 r
56 30 1 1 r
56 29 1 1 r
56 28 1 1 r
56 26 1 1 r
56 24 1 1 r
56 23 1 1 r
56 20 1 1 r
56 18 1 1 r
56 17 1 1 r
56 16 1 1 r
56 12 1 1 r
56 10 1 1 r
56 9 1 1 r
56 8 1 1 r
56 7 1 1 r
56 6 1 1 r
56 5 1 1 r
56 4 1 1 r
56 3 1 1 r
56 1 1 1 r
57 60 1 1 r
57 58 1 1 r
57 57 1 1 r
57 56 1 1 r
57 54 1 1 r
57 50 1 1 r
57 49 1 1 r
57 48 1 1 r
57 46 1 1 r
57 45 1 1 r
57 44 1 1 r
57 43 1 1 r
57 42 1 1 r
57 40 1 1 r
57 39 1 1 r
57 38 1 1 r
57 34 1 1 r
57 30 1 1 r
57 27 1 1 r
57 26 1 1 r
57 25 1 1 r
57 23 1 1 r
57 22 1 1 r
57 20 1 1 r
57 19 1 1 r
57 17 1 1 r
57 15 1 1 r
57 14 1 1 r
57 13 1 1 r
57 11 1 1 r
57 10 1 1 r
57 7 1 1 r
57 4 1 1 r
57 3 1 1 r
57 2 1 1 r
58 60 1 1 r
58 58 1 1 r
58 57 1 1 r
58 56 1 1 r
58 54 1 1 r
58 52 1 1 r
58 49 1 1 r
58 48 1 1 r
58 46 1 1 r
58 44 1 1 r
58 41 1 1 r
58 40 1 1 r
58 36 1 1 r
58 35 1 1 r
58 34 1 1 r
58 33 1 1 r
58 31 1 1 r
58 30 1 1 r
58 29 1 1 r
58 28 1 1 r
58 27 1 1 r
58 26 1 1 r
58 24 1 1 r
58 23 1 1 r
58 20 1 1 r
58 19 1 1 r
58 18 1 1 r
58 16 1 1 r
58 15 1 1 r
58 8 1 1 r
58 7 1 1 r
58 0 1 1 r
59 60 1 1 r
59 54 1 1 r
59 52 1 1 r
59 50 1 1 r
59 49 1 1 r
59 48 1 1 r
59 47 1 1 r
59 46 1 1 r
59 43 1 1 r
59 42 1 1 r
59 39 1 1 r
59 37 1 1 r
59 32 1 1 r
59 28 1 1 r
59 26 1 1 r
59 24 1 1 r
59 22 1 1 r
59 20 1 1 r
59 18 1 1 r
59 16 1 1 r
59 14 1 1 r
59 13 1 1 r
59 10 1 1 r
59 6 1 1 r
59 4 1 1 r
59 3 1 1 r
60 60 1 1 r
60 59 1 1 r
60 58 1 1 r
60 57 1 1 r
60 56 1 1 r
60 55 1 1 r
60 54 1 1 r
60 51 1 1 r
60 50 1 1 r
60 48 1 1 r
60 47 1 1 r
60 45 1 1 r
60 42 1 1 r
60 40 1 1 r
60 39 1 1 r
60 35 1 1 r
60 33 1 1 r
60 32 1 1 r
60 31 1 1 r
60 30 1 1 r
60 29 1 1 r
60 28 1 1 r
60 27 1 1 r
60 24 1 1 r
60 23 1 1 r
60 20 1 1 r
60 19 1 1 r
60 18 1 1 r
60 16 1 1 r
60 13 1 1 r
60 12 1 1 r
60 10 1 1 r
60 8 1 1 r
60 7 1 1 r
60 2 1 1 r
60 1 1 1 r
60 0 1 1 r
%%EOF