%!PS-Adobe EPSF-3.0
%%CreationDate: 2014-05-12
%%Title: QR-code
%%Pages: 1
%%DocumentData: Clean7Bit
%%LanguageLevel: 2
%%BoundingBox: 0 0 483 483
7 7 scale
2 2 translate
0 0 0 setrgbcolor
/r {rectfill} def
0 64 1 1 r
0 63 1 1 r
0 62 1 1 r
0 61 1 1 r
0 60 1 1 r
0 59 1 1 r
0 58 1 1 r
0 56 1 1 r
0 54 1 1 r
0 53 1 1 r
0 51 1 1 r
0 50 1 1 r
0 49 1 1 r
0 48 1 1 r
0 47 1 1 r
0 46 1 1 r
0 45 1 1 r
0 44 1 1 r
0 43 1 1 r
0 41 1 1 r
0 38 1 1 r
0 33 1 1 r
0 32 1 1 r
0 27 1 1 r
0 25 1 1 r
0 24 1 1 r
0 22 1 1 r
0 21 1 1 r
0 19 1 1 r
0 18 1 1 r
0 16 1 1 r
0 11 1 1 r
0 9 1 1 r
0 6 1 1 r
0 5 1 1 r
0 4 1 1 r
0 3 1 1 r
0 2 1 1 r
0 1 1 1 r
0 0 1 1 r
1 64 1 1 r
1 58 1 1 r
1 56 1 1 r
1 55 1 1 r
1 54 1 1 r
1 53 1 1 r
1 52 1 1 r
1 51 1 1 r
1 50 1 1 r
1 49 1 1 r
1 48 1 1 r
1 46 1 1 r
1 44 1 1 r
1 42 1 1 r
1 41 1 1 r
1 39 1 1 r
1 38 1 1 r
1 35 1 1 r
1 34 1 1 r
1 32 1 1 r
1 31 1 1 r
1 28 1 1 r
1 25 1 1 r
1 22 1 1 r
1 21 1 1 r
1 20 1 1 r
1 19 1 1 r
1 17 1 1 r
1 16 1 1 r
1 15 1 1 r
1 13 1 1 r
1 11 1 1 r
1 8 1 1 r
1 6 1 1 r
1 0 1 1 r
2 64 1 1 r
2 62 1 1 r
2 61 1 1 r
2 60 1 1 r
2 58 1 1 r
2 56 1 1 r
2 53 1 1 r
2 52 1 1 r
2 49 1 1 r
2 48 1 1 r
2 46 1 1 r
2 44 1 1 r
2 41 1 1 r
2 40 1 1 r
2 39 1 1 r
2 38 1 1 r
2 36 1 1 r
2 35 1 1 r
2 33 1 1 r
2 31 1 1 r
2 30 1 1 r
2 29 1 1 r
2 28 1 1 r
2 26 1 1 r
2 23 1 1 r
2 22 1 1 r
2 21 1 1 r
2 20 1 1 r
2 18 1 1 r
2 16 1 1 r
2 15 1 1 r
2 14 1 1 r
2 13 1 1 r
2 11 1 1 r
2 10 1 1 r
2 8 1 1 r
2 6 1 1 r
2 4 1 1 r
2 3 1 1 r
2 2 1 1 r
2 0 1 1 r
3 64 1 1 r
3 62 1 1 r
3 61 1 1 r
3 60 1 1 r
3 58 1 1 r
3 54 1 1 r
3 46 1 1 r
3 45 1 1 r
3 44 1 1 r
3 43 1 1 r
3 42 1 1 r
3 41 1 1 r
3 40 1 1 r
3 38 1 1 r
3 34 1 1 r
3 32 1 1 r
3 30 1 1 r
3 27 1 1 r
3 26 1 1 r
3 25 1 1 r
3 23 1 1 r
3 22 1 1 r
3 20 1 1 r
3 15 1 1 r
3 14 1 1 r
3 13 1 1 r
3 10 1 1 r
3 9 1 1 r
3 6 1 1 r
3 4 1 1 r
3 3 1 1 r
3 2 1 1 r
3 0 1 1 r
4 64 1 1 r
4 62 1 1 r
4 61 1 1 r
4 60 1 1 r
4 58 1 1 r
4 52 1 1 r
4 50 1 1 r
4 48 1 1 r
4 46 1 1 r
4 45 1 1 r
4 38 1 1 r
4 37 1 1 r
4 36 1 1 r
4 34 1 1 r
4 33 1 1 r
4 32 1 1 r
4 31 1 1 r
4 30 1 1 r
4 29 1 1 r
4 28 1 1 r
4 24 1 1 r
4 20 1 1 r
4 19 1 1 r
4 18 1 1 r
4 16 1 1 r
4 15 1 1 r
4 13 1 1 r
4 12 1 1 r
4 8 1 1 r
4 6 1 1 r
4 4 1 1 r
4 3 1 1 r
4 2 1 1 r
4 0 1 1 r
5 64 1 1 r
5 58 1 1 r
5 56 1 1 r
5 54 1 1 r
5 53 1 1 r
5 50 1 1 r
5 49 1 1 r
5 48 1 1 r
5 46 1 1 r
5 45 1 1 r
5 42 1 1 r
5 37 1 1 r
5 35 1 1 r
5 34 1 1 r
5 30 1 1 r
5 28 1 1 r
5 24 1 1 r
5 23 1 1 r
5 22 1 1 r
5 20 1 1 r
5 18 1 1 r
5 17 1 1 r
5 16 1 1 r
5 13 1 1 r
5 10 1 1 r
5 6 1 1 r
5 0 1 1 r
6 64 1 1 r
6 63 1 1 r
6 62 1 1 r
6 61 1 1 r
6 60 1 1 r
6 59 1 1 r
6 58 1 1 r
6 56 1 1 r
6 54 1 1 r
6 52 1 1 r
6 50 1 1 r
6 48 1 1 r
6 46 1 1 r
6 44 1 1 r
6 42 1 1 r
6 40 1 1 r
6 38 1 1 r
6 36 1 1 r
6 34 1 1 r
6 32 1 1 r
6 30 1 1 r
6 28 1 1 r
6 26 1 1 r
6 24 1 1 r
6 22 1 1 r
6 20 1 1 r
6 18 1 1 r
6 16 1 1 r
6 14 1 1 r
6 12 1 1 r
6 10 1 1 r
6 8 1 1 r
6 6 1 1 r
6 5 1 1 r
6 4 1 1 r
6 3 1 1 r
6 2 1 1 r
6 1 1 1 r
6 0 1 1 r
7 55 1 1 r
7 54 1 1 r
7 53 1 1 r
7 52 1 1 r
7 50 1 1 r
7 46 1 1 r
7 41 1 1 r
7 40 1 1 r
7 39 1 1 r
7 38 1 1 r
7 36 1 1 r
7 34 1 1 r
7 30 1 1 r
7 28 1 1 r
7 25 1 1 r
7 23 1 1 r
7 22 1 1 r
7 21 1 1 r
7 20 1 1 r
7 19 1 1 r
7 8 1 1 r
8 64 1 1 r
8 63 1 1 r
8 60 1 1 r
8 59 1 1 r
8 58 1 1 r
8 57 1 1 r
8 56 1 1 r
8 52 1 1 r
8 50 1 1 r
8 44 1 1 r
8 41 1 1 r
8 38 1 1 r
8 37 1 1 r
8 35 1 1 r
8 34 1 1 r
8 33 1 1 r
8 32 1 1 r
8 31 1 1 r
8 30 1 1 r
8 29 1 1 r
8 27 1 1 r
8 25 1 1 r
8 24 1 1 r
8 21 1 1 r
8 20 1 1 r
8 19 1 1 r
8 16 1 1 r
8 15 1 1 r
8 14 1 1 r
8 11 1 1 r
8 10 1 1 r
8 9 1 1 r
8 7 1 1 r
8 5 1 1 r
8 2 1 1 r
8 1 1 1 r
8 0 1 1 r
9 63 1 1 r
9 60 1 1 r
9 59 1 1 r
9 57 1 1 r
9 54 1 1 r
9 52 1 1 r
9 51 1 1 r
9 50 1 1 r
9 49 1 1 r
9 47 1 1 r
9 46 1 1 r
9 45 1 1 r
9 43 1 1 r
9 40 1 1 r
9 38 1 1 r
9 34 1 1 r
9 31 1 1 r
9 30 1 1 r
9 29 1 1 r
9 27 1 1 r
9 22 1 1 r
9 21 1 1 r
9 15 1 1 r
9 13 1 1 r
9 12 1 1 r
9 11 1 1 r
9 10 1 1 r
9 8 1 1 r
9 7 1 1 r
9 5 1 1 r
9 4 1 1 r
9 3 1 1 r
9 2 1 1 r
10 61 1 1 r
10 58 1 1 r
10 57 1 1 r
10 55 1 1 r
10 52 1 1 r
10 51 1 1 r
10 46 1 1 r
10 44 1 1 r
10 43 1 1 r
10 40 1 1 r
10 36 1 1 r
10 32 1 1 r
10 31 1 1 r
10 30 1 1 r
10 29 1 1 r
10 27 1 1 r
10 26 1 1 r
10 23 1 1 r
10 22 1 1 r
10 21 1 1 r
10 20 1 1 r
10 19 1 1 r
10 17 1 1 r
10 12 1 1 r
10 10 1 1 r
10 9 1 1 r
10 8 1 1 r
10 7 1 1 r
10 6 1 1 r
10 4 1 1 r
10 3 1 1 r
11 62 1 1 r
11 61 1 1 r
11 55 1 1 r
11 54 1 1 r
11 53 1 1 r
11 52 1 1 r
11 50 1 1 r
11 49 1 1 r
11 48 1 1 r
11 47 1 1 r
11 46 1 1 r
11 45 1 1 r
11 43 1 1 r
11 40 1 1 r
11 39 1 1 r
11 38 1 1 r
11 37 1 1 r
11 35 1 1 r
11 34 1 1 r
11 33 1 1 r
11 30 1 1 r
11 27 1 1 r
11 22 1 1 r
11 20 1 1 r
11 19 1 1 r
11 18 1 1 r
11 17 1 1 r
11 16 1 1 r
11 13 1 1 r
11 11 1 1 r
11 10 1 1 r
11 9 1 1 r
11 8 1 1 r
11 0 1 1 r
12 64 1 1 r
12 63 1 1 r
12 60 1 1 r
12 59 1 1 r
12 58 1 1 r
12 55 1 1 r
12 54 1 1 r
12 52 1 1 r
12 51 1 1 r
12 50 1 1 r
12 49 1 1 r
12 48 1 1 r
12 47 1 1 r
12 46 1 1 r
12 44 1 1 r
12 43 1 1 r
12 41 1 1 r
12 40 1 1 r
12 39 1 1 r
12 38 1 1 r
12 37 1 1 r
12 33 1 1 r
12 32 1 1 r
12 30 1 1 r
12 28 1 1 r
12 27 1 1 r
12 20 1 1 r
12 18 1 1 r
12 16 1 1 r
12 15 1 1 r
12 14 1 1 r
12 12 1 1 r
12 10 1 1 r
12 9 1 1 r
12 6 1 1 r
12 4 1 1 r
12 0 1 1 r
13 64 1 1 r
13 63 1 1 r
13 62 1 1 r
13 57 1 1 r
13 56 1 1 r
13 50 1 1 r
13 48 1 1 r
13 47 1 1 r
13 46 1 1 r
13 45 1 1 r
13 42 1 1 r
13 40 1 1 r
13 36 1 1 r
13 32 1 1 r
13 31 1 1 r
13 30 1 1 r
13 29 1 1 r
13 28 1 1 r
13 27 1 1 r
13 26 1 1 r
13 24 1 1 r
13 18 1 1 r
13 12 1 1 r
13 11 1 1 r
13 10 1 1 r
13 9 1 1 r
13 6 1 1 r
13 3 1 1 r
13 2 1 1 r
13 1 1 1 r
13 0 1 1 r
14 64 1 1 r
14 63 1 1 r
14 62 1 1 r
14 59 1 1 r
14 58 1 1 r
14 57 1 1 r
14 56 1 1 r
14 53 1 1 r
14 52 1 1 r
14 50 1 1 r
14 48 1 1 r
14 44 1 1 r
14 43 1 1 r
14 41 1 1 r
14 39 1 1 r
14 38 1 1 r
14 37 1 1 r
14 36 1 1 r
14 35 1 1 r
14 33 1 1 r
14 29 1 1 r
14 26 1 1 r
14 24 1 1 r
14 23 1 1 r
14 21 1 1 r
14 20 1 1 r
14 16 1 1 r
14 15 1 1 r
14 13 1 1 r
14 12 1 1 r
14 11 1 1 r
14 9 1 1 r
14 8 1 1 r
14 6 1 1 r
14 5 1 1 r
14 4 1 1 r
14 3 1 1 r
14 1 1 1 r
15 64 1 1 r
15 62 1 1 r
15 54 1 1 r
15 53 1 1 r
15 51 1 1 r
15 50 1 1 r
15 45 1 1 r
15 44 1 1 r
15 43 1 1 r
15 42 1 1 r
15 41 1 1 r
15 28 1 1 r
15 27 1 1 r
15 26 1 1 r
15 24 1 1 r
15 23 1 1 r
15 21 1 1 r
15 20 1 1 r
15 19 1 1 r
15 18 1 1 r
15 17 1 1 r
15 16 1 1 r
15 10 1 1 r
15 9 1 1 r
15 8 1 1 r
15 5 1 1 r
15 0 1 1 r
16 64 1 1 r
16 63 1 1 r
16 62 1 1 r
16 61 1 1 r
16 59 1 1 r
16 58 1 1 r
16 56 1 1 r
16 55 1 1 r
16 54 1 1 r
16 53 1 1 r
16 49 1 1 r
16 48 1 1 r
16 44 1 1 r
16 43 1 1 r
16 41 1 1 r
16 40 1 1 r
16 37 1 1 r
16 36 1 1 r
16 34 1 1 r
16 30 1 1 r
16 29 1 1 r
16 28 1 1 r
16 27 1 1 r
16 26 1 1 r
16 22 1 1 r
16 21 1 1 r
16 20 1 1 r
16 19 1 1 r
16 17 1 1 r
16 13 1 1 r
16 10 1 1 r
16 9 1 1 r
16 6 1 1 r
16 5 1 1 r
16 4 1 1 r
16 2 1 1 r
17 64 1 1 r
17 59 1 1 r
17 51 1 1 r
17 50 1 1 r
17 49 1 1 r
17 41 1 1 r
17 38 1 1 r
17 37 1 1 r
17 36 1 1 r
17 35 1 1 r
17 34 1 1 r
17 32 1 1 r
17 31 1 1 r
17 30 1 1 r
17 29 1 1 r
17 28 1 1 r
17 27 1 1 r
17 19 1 1 r
17 16 1 1 r
17 15 1 1 r
17 9 1 1 r
17 3 1 1 r
18 64 1 1 r
18 62 1 1 r
18 60 1 1 r
18 59 1 1 r
18 58 1 1 r
18 57 1 1 r
18 56 1 1 r
18 52 1 1 r
18 48 1 1 r
18 47 1 1 r
18 45 1 1 r
18 39 1 1 r
18 37 1 1 r
18 36 1 1 r
18 35 1 1 r
18 32 1 1 r
18 31 1 1 r
18 30 1 1 r
18 28 1 1 r
18 25 1 1 r
18 23 1 1 r
18 22 1 1 r
18 21 1 1 r
18 20 1 1 r
18 18 1 1 r
18 13 1 1 r
18 6 1 1 r
18 4 1 1 r
18 1 1 1 r
18 0 1 1 r
19 64 1 1 r
19 62 1 1 r
19 60 1 1 r
19 59 1 1 r
19 57 1 1 r
19 56 1 1 r
19 54 1 1 r
19 53 1 1 r
19 52 1 1 r
19 51 1 1 r
19 50 1 1 r
19 49 1 1 r
19 45 1 1 r
19 44 1 1 r
19 42 1 1 r
19 41 1 1 r
19 40 1 1 r
19 37 1 1 r
19 28 1 1 r
19 25 1 1 r
19 24 1 1 r
19 20 1 1 r
19 19 1 1 r
19 18 1 1 r
19 17 1 1 r
19 16 1 1 r
19 14 1 1 r
19 12 1 1 r
19 11 1 1 r
19 8 1 1 r
19 6 1 1 r
19 0 1 1 r
20 64 1 1 r
20 62 1 1 r
20 61 1 1 r
20 58 1 1 r
20 55 1 1 r
20 54 1 1 r
20 53 1 1 r
20 52 1 1 r
20 51 1 1 r
20 49 1 1 r
20 48 1 1 r
20 47 1 1 r
20 46 1 1 r
20 45 1 1 r
20 44 1 1 r
20 42 1 1 r
20 38 1 1 r
20 37 1 1 r
20 36 1 1 r
20 34 1 1 r
20 32 1 1 r
20 28 1 1 r
20 27 1 1 r
20 26 1 1 r
20 24 1 1 r
20 23 1 1 r
20 21 1 1 r
20 20 1 1 r
20 19 1 1 r
20 17 1 1 r
20 15 1 1 r
20 10 1 1 r
20 9 1 1 r
20 8 1 1 r
20 6 1 1 r
20 4 1 1 r
20 2 1 1 r
21 64 1 1 r
21 59 1 1 r
21 56 1 1 r
21 55 1 1 r
21 53 1 1 r
21 52 1 1 r
21 48 1 1 r
21 47 1 1 r
21 42 1 1 r
21 41 1 1 r
21 39 1 1 r
21 38 1 1 r
21 33 1 1 r
21 32 1 1 r
21 30 1 1 r
21 29 1 1 r
21 28 1 1 r
21 27 1 1 r
21 26 1 1 r
21 25 1 1 r
21 24 1 1 r
21 22 1 1 r
21 21 1 1 r
21 18 1 1 r
21 16 1 1 r
21 10 1 1 r
21 8 1 1 r
21 6 1 1 r
21 2 1 1 r
21 1 1 1 r
21 0 1 1 r
22 62 1 1 r
22 60 1 1 r
22 58 1 1 r
22 55 1 1 r
22 54 1 1 r
22 53 1 1 r
22 51 1 1 r
22 50 1 1 r
22 49 1 1 r
22 48 1 1 r
22 45 1 1 r
22 40 1 1 r
22 37 1 1 r
22 35 1 1 r
22 31 1 1 r
22 30 1 1 r
22 28 1 1 r
22 26 1 1 r
22 24 1 1 r
22 23 1 1 r
22 19 1 1 r
22 16 1 1 r
22 15 1 1 r
22 13 1 1 r
22 5 1 1 r
22 4 1 1 r
22 0 1 1 r
23 64 1 1 r
23 60 1 1 r
23 55 1 1 r
23 53 1 1 r
23 52 1 1 r
23 51 1 1 r
23 50 1 1 r
23 49 1 1 r
23 48 1 1 r
23 46 1 1 r
23 44 1 1 r
23 42 1 1 r
23 40 1 1 r
23 37 1 1 r
23 32 1 1 r
23 30 1 1 r
23 29 1 1 r
23 28 1 1 r
23 24 1 1 r
23 22 1 1 r
23 20 1 1 r
23 19 1 1 r
23 18 1 1 r
23 17 1 1 r
23 16 1 1 r
23 14 1 1 r
23 12 1 1 r
23 10 1 1 r
23 5 1 1 r
23 0 1 1 r
24 62 1 1 r
24 61 1 1 r
24 58 1 1 r
24 57 1 1 r
24 54 1 1 r
24 52 1 1 r
24 51 1 1 r
24 49 1 1 r
24 47 1 1 r
24 46 1 1 r
24 44 1 1 r
24 41 1 1 r
24 39 1 1 r
24 36 1 1 r
24 34 1 1 r
24 31 1 1 r
24 25 1 1 r
24 24 1 1 r
24 22 1 1 r
24 20 1 1 r
24 19 1 1 r
24 17 1 1 r
24 15 1 1 r
24 12 1 1 r
24 11 1 1 r
24 9 1 1 r
24 8 1 1 r
24 6 1 1 r
24 4 1 1 r
24 2 1 1 r
25 64 1 1 r
25 56 1 1 r
25 54 1 1 r
25 52 1 1 r
25 50 1 1 r
25 48 1 1 r
25 42 1 1 r
25 40 1 1 r
25 38 1 1 r
25 36 1 1 r
25 34 1 1 r
25 32 1 1 r
25 30 1 1 r
25 29 1 1 r
25 28 1 1 r
25 27 1 1 r
25 26 1 1 r
25 24 1 1 r
25 22 1 1 r
25 21 1 1 r
25 20 1 1 r
25 16 1 1 r
25 10 1 1 r
25 8 1 1 r
25 5 1 1 r
25 1 1 1 r
25 0 1 1 r
26 62 1 1 r
26 60 1 1 r
26 58 1 1 r
26 55 1 1 r
26 53 1 1 r
26 50 1 1 r
26 49 1 1 r
26 48 1 1 r
26 45 1 1 r
26 42 1 1 r
26 41 1 1 r
26 40 1 1 r
26 35 1 1 r
26 34 1 1 r
26 32 1 1 r
26 30 1 1 r
26 28 1 1 r
26 26 1 1 r
26 24 1 1 r
26 18 1 1 r
26 17 1 1 r
26 16 1 1 r
26 13 1 1 r
26 10 1 1 r
26 6 1 1 r
26 5 1 1 r
26 4 1 1 r
26 3 1 1 r
26 2 1 1 r
26 0 1 1 r
27 64 1 1 r
27 62 1 1 r
27 59 1 1 r
27 55 1 1 r
27 53 1 1 r
27 52 1 1 r
27 51 1 1 r
27 50 1 1 r
27 49 1 1 r
27 48 1 1 r
27 47 1 1 r
27 45 1 1 r
27 44 1 1 r
27 42 1 1 r
27 41 1 1 r
27 39 1 1 r
27 37 1 1 r
27 29 1 1 r
27 28 1 1 r
27 27 1 1 r
27 25 1 1 r
27 22 1 1 r
27 21 1 1 r
27 20 1 1 r
27 19 1 1 r
27 18 1 1 r
27 17 1 1 r
27 14 1 1 r
27 12 1 1 r
27 10 1 1 r
27 9 1 1 r
27 7 1 1 r
27 5 1 1 r
27 0 1 1 r
28 64 1 1 r
28 63 1 1 r
28 60 1 1 r
28 58 1 1 r
28 56 1 1 r
28 55 1 1 r
28 52 1 1 r
28 51 1 1 r
28 49 1 1 r
28 48 1 1 r
28 47 1 1 r
28 46 1 1 r
28 44 1 1 r
28 43 1 1 r
28 42 1 1 r
28 41 1 1 r
28 40 1 1 r
28 39 1 1 r
28 38 1 1 r
28 37 1 1 r
28 36 1 1 r
28 34 1 1 r
28 32 1 1 r
28 31 1 1 r
28 30 1 1 r
28 29 1 1 r
28 28 1 1 r
28 27 1 1 r
28 26 1 1 r
28 25 1 1 r
28 24 1 1 r
28 21 1 1 r
28 20 1 1 r
28 19 1 1 r
28 17 1 1 r
28 16 1 1 r
28 10 1 1 r
28 9 1 1 r
28 6 1 1 r
28 5 1 1 r
28 4 1 1 r
28 2 1 1 r
28 0 1 1 r
29 64 1 1 r
29 61 1 1 r
29 60 1 1 r
29 59 1 1 r
29 57 1 1 r
29 56 1 1 r
29 53 1 1 r
29 52 1 1 r
29 51 1 1 r
29 50 1 1 r
29 49 1 1 r
29 48 1 1 r
29 46 1 1 r
29 44 1 1 r
29 42 1 1 r
29 40 1 1 r
29 38 1 1 r
29 36 1 1 r
29 34 1 1 r
29 33 1 1 r
29 32 1 1 r
29 30 1 1 r
29 28 1 1 r
29 25 1 1 r
29 24 1 1 r
29 23 1 1 r
29 17 1 1 r
29 15 1 1 r
29 14 1 1 r
29 12 1 1 r
29 10 1 1 r
29 9 1 1 r
29 5 1 1 r
29 4 1 1 r
29 1 1 1 r
29 0 1 1 r
30 63 1 1 r
30 62 1 1 r
30 61 1 1 r
30 60 1 1 r
30 59 1 1 r
30 58 1 1 r
30 57 1 1 r
30 56 1 1 r
30 55 1 1 r
30 54 1 1 r
30 51 1 1 r
30 49 1 1 r
30 48 1 1 r
30 44 1 1 r
30 43 1 1 r
30 40 1 1 r
30 39 1 1 r
30 38 1 1 r
30 37 1 1 r
30 36 1 1 r
30 34 1 1 r
30 33 1 1 r
30 32 1 1 r
30 31 1 1 r
30 30 1 1 r
30 29 1 1 r
30 28 1 1 r
30 27 1 1 r
30 26 1 1 r
30 25 1 1 r
30 23 1 1 r
30 19 1 1 r
30 12 1 1 r
30 11 1 1 r
30 8 1 1 r
30 7 1 1 r
30 6 1 1 r
30 5 1 1 r
30 4 1 1 r
30 2 1 1 r
31 64 1 1 r
31 60 1 1 r
31 56 1 1 r
31 55 1 1 r
31 54 1 1 r
31 53 1 1 r
31 52 1 1 r
31 51 1 1 r
31 48 1 1 r
31 44 1 1 r
31 43 1 1 r
31 37 1 1 r
31 36 1 1 r
31 34 1 1 r
31 30 1 1 r
31 29 1 1 r
31 28 1 1 r
31 26 1 1 r
31 25 1 1 r
31 21 1 1 r
31 16 1 1 r
31 15 1 1 r
31 13 1 1 r
31 12 1 1 r
31 11 1 1 r
31 10 1 1 r
31 9 1 1 r
31 8 1 1 r
31 4 1 1 r
31 3 1 1 r
31 2 1 1 r
32 64 1 1 r
32 62 1 1 r
32 60 1 1 r
32 58 1 1 r
32 56 1 1 r
32 54 1 1 r
32 51 1 1 r
32 50 1 1 r
32 48 1 1 r
32 47 1 1 r
32 46 1 1 r
32 45 1 1 r
32 43 1 1 r
32 42 1 1 r
32 39 1 1 r
32 36 1 1 r
32 34 1 1 r
32 32 1 1 r
32 30 1 1 r
32 28 1 1 r
32 20 1 1 r
32 18 1 1 r
32 15 1 1 r
32 12 1 1 r
32 8 1 1 r
32 6 1 1 r
32 4 1 1 r
32 2 1 1 r
32 1 1 1 r
32 0 1 1 r
33 64 1 1 r
33 63 1 1 r
33 60 1 1 r
33 56 1 1 r
33 55 1 1 r
33 54 1 1 r
33 53 1 1 r
33 52 1 1 r
33 50 1 1 r
33 48 1 1 r
33 46 1 1 r
33 45 1 1 r
33 44 1 1 r
33 43 1 1 r
33 42 1 1 r
33 41 1 1 r
33 39 1 1 r
33 37 1 1 r
33 36 1 1 r
33 34 1 1 r
33 30 1 1 r
33 28 1 1 r
33 26 1 1 r
33 25 1 1 r
33 24 1 1 r
33 23 1 1 r
33 22 1 1 r
33 21 1 1 r
33 18 1 1 r
33 17 1 1 r
33 15 1 1 r
33 14 1 1 r
33 10 1 1 r
33 9 1 1 r
33 8 1 1 r
33 4 1 1 r
33 3 1 1 r
33 2 1 1 r
33 1 1 1 r
33 0 1 1 r
34 64 1 1 r
34 62 1 1 r
34 60 1 1 r
34 59 1 1 r
34 58 1 1 r
34 57 1 1 r
34 56 1 1 r
34 55 1 1 r
34 54 1 1 r
34 51 1 1 r
34 50 1 1 r
34 49 1 1 r
34 48 1 1 r
34 47 1 1 r
34 46 1 1 r
34 45 1 1 r
34 43 1 1 r
34 42 1 1 r
34 38 1 1 r
34 34 1 1 r
34 33 1 1 r
34 32 1 1 r
34 31 1 1 r
34 30 1 1 r
34 29 1 1 r
34 27 1 1 r
34 24 1 1 r
34 22 1 1 r
34 20 1 1 r
34 19 1 1 r
34 17 1 1 r
34 16 1 1 r
34 13 1 1 r
34 11 1 1 r
34 10 1 1 r
34 9 1 1 r
34 8 1 1 r
34 7 1 1 r
34 6 1 1 r
34 5 1 1 r
34 4 1 1 r
34 3 1 1 r
34 1 1 1 r
34 0 1 1 r
35 62 1 1 r
35 60 1 1 r
35 55 1 1 r
35 53 1 1 r
35 52 1 1 r
35 51 1 1 r
35 50 1 1 r
35 44 1 1 r
35 43 1 1 r
35 39 1 1 r
35 37 1 1 r
35 36 1 1 r
35 32 1 1 r
35 30 1 1 r
35 29 1 1 r
35 28 1 1 r
35 27 1 1 r
35 21 1 1 r
35 17 1 1 r
35 16 1 1 r
35 10 1 1 r
35 8 1 1 r
35 5 1 1 r
35 4 1 1 r
36 64 1 1 r
36 60 1 1 r
36 58 1 1 r
36 57 1 1 r
36 56 1 1 r
36 55 1 1 r
36 54 1 1 r
36 53 1 1 r
36 51 1 1 r
36 50 1 1 r
36 47 1 1 r
36 45 1 1 r
36 44 1 1 r
36 41 1 1 r
36 40 1 1 r
36 39 1 1 r
36 38 1 1 r
36 37 1 1 r
36 36 1 1 r
36 35 1 1 r
36 34 1 1 r
36 32 1 1 r
36 31 1 1 r
36 29 1 1 r
36 28 1 1 r
36 26 1 1 r
36 25 1 1 r
36 24 1 1 r
36 20 1 1 r
36 19 1 1 r
36 18 1 1 r
36 15 1 1 r
36 12 1 1 r
36 10 1 1 r
36 9 1 1 r
36 3 1 1 r
36 2 1 1 r
36 1 1 1 r
37 64 1 1 r
37 59 1 1 r
37 57 1 1 r
37 55 1 1 r
37 54 1 1 r
37 53 1 1 r
37 52 1 1 r
37 49 1 1 r
37 47 1 1 r
37 46 1 1 r
37 45 1 1 r
37 42 1 1 r
37 41 1 1 r
37 39 1 1 r
37 38 1 1 r
37 35 1 1 r
37 33 1 1 r
37 32 1 1 r
37 29 1 1 r
37 28 1 1 r
37 25 1 1 r
37 24 1 1 r
37 23 1 1 r
37 22 1 1 r
37 21 1 1 r
37 20 1 1 r
37 19 1 1 r
37 17 1 1 r
37 15 1 1 r
37 13 1 1 r
37 11 1 1 r
37 9 1 1 r
37 6 1 1 r
37 3 1 1 r
37 1 1 1 r
37 0 1 1 r
38 62 1 1 r
38 61 1 1 r
38 59 1 1 r
38 58 1 1 r
38 57 1 1 r
38 56 1 1 r
38 55 1 1 r
38 54 1 1 r
38 53 1 1 r
38 52 1 1 r
38 49 1 1 r
38 48 1 1 r
38 46 1 1 r
38 41 1 1 r
38 40 1 1 r
38 39 1 1 r
38 37 1 1 r
38 34 1 1 r
38 33 1 1 r
38 31 1 1 r
38 26 1 1 r
38 25 1 1 r
38 23 1 1 r
38 20 1 1 r
38 18 1 1 r
38 16 1 1 r
38 15 1 1 r
38 9 1 1 r
38 8 1 1 r
38 5 1 1 r
38 4 1 1 r
38 2 1 1 r
38 1 1 1 r
38 0 1 1 r
39 64 1 1 r
39 62 1 1 r
39 61 1 1 r
39 59 1 1 r
39 53 1 1 r
39 46 1 1 r
39 39 1 1 r
39 36 1 1 r
39 35 1 1 r
39 34 1 1 r
39 32 1 1 r
39 30 1 1 r
39 29 1 1 r
39 26 1 1 r
39 22 1 1 r
39 16 1 1 r
39 14 1 1 r
39 12 1 1 r
39 10 1 1 r
39 7 1 1 r
39 4 1 1 r
39 2 1 1 r
39 1 1 1 r
39 0 1 1 r
40 63 1 1 r
40 62 1 1 r
40 60 1 1 r
40 58 1 1 r
40 57 1 1 r
40 56 1 1 r
40 55 1 1 r
40 50 1 1 r
40 48 1 1 r
40 46 1 1 r
40 44 1 1 r
40 42 1 1 r
40 41 1 1 r
40 37 1 1 r
40 35 1 1 r
40 34 1 1 r
40 28 1 1 r
40 27 1 1 r
40 25 1 1 r
40 24 1 1 r
40 23 1 1 r
40 21 1 1 r
40 18 1 1 r
40 17 1 1 r
40 16 1 1 r
40 14 1 1 r
40 12 1 1 r
40 11 1 1 r
40 9 1 1 r
40 8 1 1 r
40 7 1 1 r
40 6 1 1 r
40 5 1 1 r
40 2 1 1 r
40 1 1 1 r
41 64 1 1 r
41 63 1 1 r
41 61 1 1 r
41 59 1 1 r
41 57 1 1 r
41 55 1 1 r
41 54 1 1 r
41 52 1 1 r
41 49 1 1 r
41 45 1 1 r
41 44 1 1 r
41 41 1 1 r
41 40 1 1 r
41 38 1 1 r
41 33 1 1 r
41 32 1 1 r
41 29 1 1 r
41 28 1 1 r
41 27 1 1 r
41 25 1 1 r
41 24 1 1 r
41 22 1 1 r
41 21 1 1 r
41 20 1 1 r
41 18 1 1 r
41 15 1 1 r
41 14 1 1 r
41 13 1 1 r
41 12 1 1 r
41 9 1 1 r
41 6 1 1 r
41 4 1 1 r
41 2 1 1 r
42 63 1 1 r
42 62 1 1 r
42 61 1 1 r
42 60 1 1 r
42 59 1 1 r
42 58 1 1 r
42 57 1 1 r
42 56 1 1 r
42 55 1 1 r
42 54 1 1 r
42 50 1 1 r
42 49 1 1 r
42 48 1 1 r
42 47 1 1 r
42 43 1 1 r
42 42 1 1 r
42 41 1 1 r
42 40 1 1 r
42 37 1 1 r
42 36 1 1 r
42 35 1 1 r
42 32 1 1 r
42 31 1 1 r
42 26 1 1 r
42 24 1 1 r
42 22 1 1 r
42 20 1 1 r
42 18 1 1 r
42 17 1 1 r
42 16 1 1 r
42 15 1 1 r
42 14 1 1 r
42 4 1 1 r
42 2 1 1 r
42 0 1 1 r
43 63 1 1 r
43 60 1 1 r
43 56 1 1 r
43 53 1 1 r
43 52 1 1 r
43 48 1 1 r
43 47 1 1 r
43 46 1 1 r
43 45 1 1 r
43 43 1 1 r
43 42 1 1 r
43 39 1 1 r
43 36 1 1 r
43 35 1 1 r
43 33 1 1 r
43 32 1 1 r
43 29 1 1 r
43 26 1 1 r
43 21 1 1 r
43 16 1 1 r
43 15 1 1 r
43 12 1 1 r
43 11 1 1 r
43 7 1 1 r
43 5 1 1 r
43 0 1 1 r
44 64 1 1 r
44 63 1 1 r
44 62 1 1 r
44 60 1 1 r
44 58 1 1 r
44 52 1 1 r
44 51 1 1 r
44 50 1 1 r
44 44 1 1 r
44 41 1 1 r
44 37 1 1 r
44 36 1 1 r
44 35 1 1 r
44 34 1 1 r
44 33 1 1 r
44 27 1 1 r
44 26 1 1 r
44 24 1 1 r
44 21 1 1 r
44 19 1 1 r
44 18 1 1 r
44 17 1 1 r
44 14 1 1 r
44 13 1 1 r
44 12 1 1 r
44 11 1 1 r
44 10 1 1 r
44 9 1 1 r
44 2 1 1 r
45 64 1 1 r
45 63 1 1 r
45 60 1 1 r
45 59 1 1 r
45 57 1 1 r
45 55 1 1 r
45 54 1 1 r
45 52 1 1 r
45 51 1 1 r
45 50 1 1 r
45 46 1 1 r
45 45 1 1 r
45 41 1 1 r
45 39 1 1 r
45 38 1 1 r
45 34 1 1 r
45 33 1 1 r
45 31 1 1 r
45 30 1 1 r
45 29 1 1 r
45 26 1 1 r
45 24 1 1 r
45 23 1 1 r
45 22 1 1 r
45 21 1 1 r
45 20 1 1 r
45 19 1 1 r
45 18 1 1 r
45 12 1 1 r
45 10 1 1 r
45 9 1 1 r
45 8 1 1 r
45 7 1 1 r
45 6 1 1 r
45 5 1 1 r
45 4 1 1 r
45 3 1 1 r
45 1 1 1 r
46 63 1 1 r
46 62 1 1 r
46 61 1 1 r
46 60 1 1 r
46 58 1 1 r
46 53 1 1 r
46 52 1 1 r
46 49 1 1 r
46 48 1 1 r
46 47 1 1 r
46 46 1 1 r
46 34 1 1 r
46 32 1 1 r
46 31 1 1 r
46 30 1 1 r
46 27 1 1 r
46 25 1 1 r
46 20 1 1 r
46 18 1 1 r
46 17 1 1 r
46 16 1 1 r
46 15 1 1 r
46 10 1 1 r
46 9 1 1 r
46 7 1 1 r
46 5 1 1 r
46 2 1 1 r
46 0 1 1 r
47 64 1 1 r
47 63 1 1 r
47 60 1 1 r
47 59 1 1 r
47 55 1 1 r
47 53 1 1 r
47 52 1 1 r
47 49 1 1 r
47 47 1 1 r
47 45 1 1 r
47 44 1 1 r
47 43 1 1 r
47 39 1 1 r
47 38 1 1 r
47 37 1 1 r
47 35 1 1 r
47 33 1 1 r
47 31 1 1 r
47 29 1 1 r
47 22 1 1 r
47 17 1 1 r
47 15 1 1 r
47 14 1 1 r
47 13 1 1 r
47 11 1 1 r
47 10 1 1 r
47 7 1 1 r
47 6 1 1 r
47 4 1 1 r
47 3 1 1 r
47 2 1 1 r
48 64 1 1 r
48 63 1 1 r
48 62 1 1 r
48 59 1 1 r
48 58 1 1 r
48 56 1 1 r
48 55 1 1 r
48 54 1 1 r
48 53 1 1 r
48 51 1 1 r
48 50 1 1 r
48 43 1 1 r
48 41 1 1 r
48 40 1 1 r
48 36 1 1 r
48 35 1 1 r
48 34 1 1 r
48 27 1 1 r
48 26 1 1 r
48 24 1 1 r
48 23 1 1 r
48 18 1 1 r
48 12 1 1 r
48 10 1 1 r
48 9 1 1 r
48 5 1 1 r
48 3 1 1 r
48 2 1 1 r
48 1 1 1 r
49 64 1 1 r
49 62 1 1 r
49 56 1 1 r
49 54 1 1 r
49 53 1 1 r
49 52 1 1 r
49 47 1 1 r
49 44 1 1 r
49 42 1 1 r
49 40 1 1 r
49 38 1 1 r
49 37 1 1 r
49 36 1 1 r
49 35 1 1 r
49 33 1 1 r
49 31 1 1 r
49 30 1 1 r
49 29 1 1 r
49 28 1 1 r
49 27 1 1 r
49 26 1 1 r
49 25 1 1 r
49 22 1 1 r
49 20 1 1 r
49 19 1 1 r
49 18 1 1 r
49 13 1 1 r
49 12 1 1 r
49 11 1 1 r
49 10 1 1 r
49 8 1 1 r
49 7 1 1 r
49 6 1 1 r
49 4 1 1 r
49 3 1 1 r
49 0 1 1 r
50 64 1 1 r
50 63 1 1 r
50 62 1 1 r
50 61 1 1 r
50 60 1 1 r
50 59 1 1 r
50 58 1 1 r
50 57 1 1 r
50 54 1 1 r
50 52 1 1 r
50 51 1 1 r
50 50 1 1 r
50 49 1 1 r
50 48 1 1 r
50 46 1 1 r
50 44 1 1 r
50 43 1 1 r
50 41 1 1 r
50 40 1 1 r
50 39 1 1 r
50 34 1 1 r
50 32 1 1 r
50 30 1 1 r
50 28 1 1 r
50 23 1 1 r
50 21 1 1 r
50 20 1 1 r
50 18 1 1 r
50 17 1 1 r
50 16 1 1 r
50 12 1 1 r
50 11 1 1 r
50 9 1 1 r
50 7 1 1 r
50 4 1 1 r
50 2 1 1 r
50 0 1 1 r
51 64 1 1 r
51 62 1 1 r
51 60 1 1 r
51 59 1 1 r
51 56 1 1 r
51 55 1 1 r
51 54 1 1 r
51 52 1 1 r
51 50 1 1 r
51 49 1 1 r
51 48 1 1 r
51 47 1 1 r
51 46 1 1 r
51 45 1 1 r
51 44 1 1 r
51 40 1 1 r
51 38 1 1 r
51 34 1 1 r
51 31 1 1 r
51 30 1 1 r
51 28 1 1 r
51 26 1 1 r
51 23 1 1 r
51 17 1 1 r
51 16 1 1 r
51 13 1 1 r
51 10 1 1 r
51 6 1 1 r
51 4 1 1 r
51 1 1 1 r
51 0 1 1 r
52 64 1 1 r
52 61 1 1 r
52 59 1 1 r
52 58 1 1 r
52 57 1 1 r
52 56 1 1 r
52 55 1 1 r
52 52 1 1 r
52 50 1 1 r
52 49 1 1 r
52 46 1 1 r
52 43 1 1 r
52 39 1 1 r
52 36 1 1 r
52 34 1 1 r
52 29 1 1 r
52 27 1 1 r
52 25 1 1 r
52 24 1 1 r
52 23 1 1 r
52 22 1 1 r
52 20 1 1 r
52 17 1 1 r
52 14 1 1 r
52 13 1 1 r
52 12 1 1 r
52 11 1 1 r
52 8 1 1 r
52 7 1 1 r
52 5 1 1 r
52 4 1 1 r
52 3 1 1 r
52 1 1 1 r
53 62 1 1 r
53 61 1 1 r
53 57 1 1 r
53 54 1 1 r
53 53 1 1 r
53 52 1 1 r
53 50 1 1 r
53 49 1 1 r
53 48 1 1 r
53 45 1 1 r
53 39 1 1 r
53 38 1 1 r
53 36 1 1 r
53 30 1 1 r
53 29 1 1 r
53 28 1 1 r
53 26 1 1 r
53 24 1 1 r
53 22 1 1 r
53 20 1 1 r
53 18 1 1 r
53 17 1 1 r
53 12 1 1 r
53 11 1 1 r
53 10 1 1 r
53 8 1 1 r
53 6 1 1 r
53 4 1 1 r
53 2 1 1 r
53 1 1 1 r
54 62 1 1 r
54 61 1 1 r
54 59 1 1 r
54 58 1 1 r
54 57 1 1 r
54 56 1 1 r
54 51 1 1 r
54 49 1 1 r
54 48 1 1 r
54 47 1 1 r
54 45 1 1 r
54 44 1 1 r
54 43 1 1 r
54 40 1 1 r
54 38 1 1 r
54 37 1 1 r
54 36 1 1 r
54 35 1 1 r
54 33 1 1 r
54 32 1 1 r
54 31 1 1 r
54 30 1 1 r
54 28 1 1 r
54 25 1 1 r
54 24 1 1 r
54 19 1 1 r
54 17 1 1 r
54 16 1 1 r
54 15 1 1 r
54 13 1 1 r
54 12 1 1 r
54 9 1 1 r
54 8 1 1 r
54 7 1 1 r
54 6 1 1 r
54 4 1 1 r
54 3 1 1 r
54 2 1 1 r
54 1 1 1 r
54 0 1 1 r
55 64 1 1 r
55 61 1 1 r
55 57 1 1 r
55 56 1 1 r
55 53 1 1 r
55 51 1 1 r
55 50 1 1 r
55 48 1 1 r
55 47 1 1 r
55 45 1 1 r
55 44 1 1 r
55 42 1 1 r
55 41 1 1 r
55 40 1 1 r
55 37 1 1 r
55 34 1 1 r
55 33 1 1 r
55 32 1 1 r
55 31 1 1 r
55 30 1 1 r
55 29 1 1 r
55 28 1 1 r
55 25 1 1 r
55 24 1 1 r
55 22 1 1 r
55 21 1 1 r
55 13 1 1 r
55 12 1 1 r
55 8 1 1 r
55 4 1 1 r
55 1 1 1 r
56 63 1 1 r
56 62 1 1 r
56 60 1 1 r
56 58 1 1 r
56 55 1 1 r
56 54 1 1 r
56 50 1 1 r
56 49 1 1 r
56 48 1 1 r
56 46 1 1 r
56 45 1 1 r
56 44 1 1 r
56 40 1 1 r
56 39 1 1 r
56 38 1 1 r
56 36 1 1 r
56 35 1 1 r
56 34 1 1 r
56 33 1 1 r
56 32 1 1 r
56 31 1 1 r
56 30 1 1 r
56 29 1 1 r
56 28 1 1 r
56 27 1 1 r
56 25 1 1 r
56 18 1 1 r
56 16 1 1 r
56 14 1 1 r
56 13 1 1 r
56 11 1 1 r
56 10 1 1 r
56 8 1 1 r
56 7 1 1 r
56 6 1 1 r
56 5 1 1 r
56 4 1 1 r
56 0 1 1 r
57 56 1 1 r
57 54 1 1 r
57 52 1 1 r
57 50 1 1 r
57 49 1 1 r
57 47 1 1 r
57 46 1 1 r
57 44 1 1 r
57 41 1 1 r
57 38 1 1 r
57 36 1 1 r
57 34 1 1 r
57 30 1 1 r
57 29 1 1 r
57 26 1 1 r
57 22 1 1 r
57 21 1 1 r
57 20 1 1 r
57 19 1 1 r
57 18 1 1 r
57 16 1 1 r
57 14 1 1 r
57 10 1 1 r
57 8 1 1 r
57 4 1 1 r
57 3 1 1 r
57 2 1 1 r
57 0 1 1 r
58 64 1 1 r
58 63 1 1 r
58 62 1 1 r
58 61 1 1 r
58 60 1 1 r
58 59 1 1 r
58 58 1 1 r
58 56 1 1 r
58 55 1 1 r
58 54 1 1 r
58 52 1 1 r
58 50 1 1 r
58 49 1 1 r
58 48 1 1 r
58 47 1 1 r
58 44 1 1 r
58 42 1 1 r
58 41 1 1 r
58 40 1 1 r
58 38 1 1 r
58 36 1 1 r
58 34 1 1 r
58 32 1 1 r
58 30 1 1 r
58 23 1 1 r
58 22 1 1 r
58 20 1 1 r
58 16 1 1 r
58 13 1 1 r
58 11 1 1 r
58 9 1 1 r
58 8 1 1 r
58 6 1 1 r
58 4 1 1 r
58 2 1 1 r
58 1 1 1 r
59 64 1 1 r
59 58 1 1 r
59 56 1 1 r
59 55 1 1 r
59 52 1 1 r
59 50 1 1 r
59 43 1 1 r
59 41 1 1 r
59 40 1 1 r
59 39 1 1 r
59 36 1 1 r
59 34 1 1 r
59 30 1 1 r
59 28 1 1 r
59 26 1 1 r
59 24 1 1 r
59 23 1 1 r
59 21 1 1 r
59 20 1 1 r
59 17 1 1 r
59 16 1 1 r
59 14 1 1 r
59 13 1 1 r
59 12 1 1 r
59 10 1 1 r
59 9 1 1 r
59 8 1 1 r
59 4 1 1 r
59 3 1 1 r
60 64 1 1 r
60 62 1 1 r
60 61 1 1 r
60 60 1 1 r
60 58 1 1 r
60 56 1 1 r
60 54 1 1 r
60 52 1 1 r
60 48 1 1 r
60 47 1 1 r
60 44 1 1 r
60 38 1 1 r
60 36 1 1 r
60 35 1 1 r
60 34 1 1 r
60 33 1 1 r
60 32 1 1 r
60 31 1 1 r
60 30 1 1 r
60 28 1 1 r
60 25 1 1 r
60 24 1 1 r
60 19 1 1 r
60 18 1 1 r
60 17 1 1 r
60 14 1 1 r
60 12 1 1 r
60 10 1 1 r
60 8 1 1 r
60 7 1 1 r
60 6 1 1 r
60 5 1 1 r
60 4 1 1 r
60 3 1 1 r
60 2 1 1 r
60 1 1 1 r
61 64 1 1 r
61 62 1 1 r
61 61 1 1 r
61 60 1 1 r
61 58 1 1 r
61 55 1 1 r
61 54 1 1 r
61 53 1 1 r
61 52 1 1 r
61 51 1 1 r
61 45 1 1 r
61 44 1 1 r
61 43 1 1 r
61 42 1 1 r
61 40 1 1 r
61 39 1 1 r
61 35 1 1 r
61 33 1 1 r
61 32 1 1 r
61 29 1 1 r
61 27 1 1 r
61 24 1 1 r
61 22 1 1 r
61 20 1 1 r
61 16 1 1 r
61 14 1 1 r
61 13 1 1 r
61 11 1 1 r
61 10 1 1 r
61 8 1 1 r
61 6 1 1 r
61 4 1 1 r
61 3 1 1 r
61 1 1 1 r
62 64 1 1 r
62 62 1 1 r
62 61 1 1 r
62 60 1 1 r
62 58 1 1 r
62 55 1 1 r
62 52 1 1 r
62 50 1 1 r
62 49 1 1 r
62 46 1 1 r
62 44 1 1 r
62 43 1 1 r
62 42 1 1 r
62 38 1 1 r
62 37 1 1 r
62 35 1 1 r
62 34 1 1 r
62 33 1 1 r
62 32 1 1 r
62 27 1 1 r
62 26 1 1 r
62 25 1 1 r
62 24 1 1 r
62 21 1 1 r
62 19 1 1 r
62 18 1 1 r
62 17 1 1 r
62 16 1 1 r
62 15 1 1 r
62 13 1 1 r
62 11 1 1 r
62 9 1 1 r
62 6 1 1 r
62 2 1 1 r
62 1 1 1 r
62 0 1 1 r
63 64 1 1 r
63 58 1 1 r
63 56 1 1 r
63 54 1 1 r
63 53 1 1 r
63 51 1 1 r
63 49 1 1 r
63 47 1 1 r
63 46 1 1 r
63 45 1 1 r
63 42 1 1 r
63 37 1 1 r
63 35 1 1 r
63 33 1 1 r
63 30 1 1 r
63 28 1 1 r
63 27 1 1 r
63 26 1 1 r
63 24 1 1 r
63 22 1 1 r
63 20 1 1 r
63 17 1 1 r
63 16 1 1 r
63 14 1 1 r
63 12 1 1 r
63 10 1 1 r
63 6 1 1 r
63 2 1 1 r
63 0 1 1 r
64 64 1 1 r
64 63 1 1 r
64 62 1 1 r
64 61 1 1 r
64 60 1 1 r
64 59 1 1 r
64 58 1 1 r
64 56 1 1 r
64 55 1 1 r
64 54 1 1 r
64 51 1 1 r
64 50 1 1 r
64 48 1 1 r
64 47 1 1 r
64 43 1 1 r
64 38 1 1 r
64 37 1 1 r
64 35 1 1 r
64 33 1 1 r
64 32 1 1 r
64 31 1 1 r
64 28 1 1 r
64 19 1 1 r
64 18 1 1 r
64 16 1 1 r
64 14 1 1 r
64 12 1 1 r
64 10 1 1 r
64 9 1 1 r
64 8 1 1 r
64 6 1 1 r
64 4 1 1 r
64 2 1 1 r
64 1 1 1 r
64 0 1 1 r
%%EOF