%!PS-Adobe EPSF-3.0
%%CreationDate: 2014-05-12
%%Title: QR-code
%%Pages: 1
%%DocumentData: Clean7Bit
%%LanguageLevel: 2
%%BoundingBox: 0 0 455 455
7 7 scale
2 2 translate
0 0 0 setrgbcolor
/r {rectfill} def
0 60 1 1 r
0 59 1 1 r
0 58 1 1 r
0 57 1 1 r
0 56 1 1 r
0 55 1 1 r
0 54 1 1 r
0 52 1 1 r
0 47 1 1 r
0 45 1 1 r
0 43 1 1 r
0 41 1 1 r
0 40 1 1 r
0 39 1 1 r
0 37 1 1 r
0 34 1 1 r
0 28 1 1 r
0 27 1 1 r
0 26 1 1 r
0 25 1 1 r
0 24 1 1 r
0 22 1 1 r
0 20 1 1 r
0 18 1 1 r
0 15 1 1 r
0 13 1 1 r
0 9 1 1 r
0 8 1 1 r
0 6 1 1 r
0 5 1 1 r
0 4 1 1 r
0 3 1 1 r
0 2 1 1 r
0 1 1 1 r
0 0 1 1 r
1 60 1 1 r
1 54 1 1 r
1 52 1 1 r
1 49 1 1 r
1 48 1 1 r
1 45 1 1 r
1 44 1 1 r
1 37 1 1 r
1 36 1 1 r
1 34 1 1 r
1 31 1 1 r
1 25 1 1 r
1 24 1 1 r
1 23 1 1 r
1 20 1 1 r
1 19 1 1 r
1 15 1 1 r
1 9 1 1 r
1 8 1 1 r
1 6 1 1 r
1 0 1 1 r
2 60 1 1 r
2 58 1 1 r
2 57 1 1 r
2 56 1 1 r
2 54 1 1 r
2 52 1 1 r
2 51 1 1 r
2 50 1 1 r
2 49 1 1 r
2 44 1 1 r
2 43 1 1 r
2 42 1 1 r
2 41 1 1 r
2 39 1 1 r
2 38 1 1 r
2 36 1 1 r
2 34 1 1 r
2 28 1 1 r
2 27 1 1 r
2 26 1 1 r
2 23 1 1 r
2 22 1 1 r
2 21 1 1 r
2 20 1 1 r
2 19 1 1 r
2 15 1 1 r
2 12 1 1 r
2 11 1 1 r
2 10 1 1 r
2 9 1 1 r
2 8 1 1 r
2 6 1 1 r
2 4 1 1 r
2 3 1 1 r
2 2 1 1 r
2 0 1 1 r
3 60 1 1 r
3 58 1 1 r
3 57 1 1 r
3 56 1 1 r
3 54 1 1 r
3 52 1 1 r
3 51 1 1 r
3 50 1 1 r
3 48 1 1 r
3 46 1 1 r
3 42 1 1 r
3 41 1 1 r
3 39 1 1 r
3 37 1 1 r
3 30 1 1 r
3 27 1 1 r
3 24 1 1 r
3 23 1 1 r
3 19 1 1 r
3 18 1 1 r
3 17 1 1 r
3 16 1 1 r
3 15 1 1 r
3 10 1 1 r
3 8 1 1 r
3 6 1 1 r
3 4 1 1 r
3 3 1 1 r
3 2 1 1 r
3 0 1 1 r
4 60 1 1 r
4 58 1 1 r
4 57 1 1 r
4 56 1 1 r
4 54 1 1 r
4 52 1 1 r
4 51 1 1 r
4 49 1 1 r
4 48 1 1 r
4 47 1 1 r
4 44 1 1 r
4 43 1 1 r
4 40 1 1 r
4 39 1 1 r
4 38 1 1 r
4 34 1 1 r
4 32 1 1 r
4 31 1 1 r
4 30 1 1 r
4 29 1 1 r
4 28 1 1 r
4 27 1 1 r
4 26 1 1 r
4 20 1 1 r
4 19 1 1 r
4 18 1 1 r
4 16 1 1 r
4 14 1 1 r
4 13 1 1 r
4 12 1 1 r
4 10 1 1 r
4 9 1 1 r
4 6 1 1 r
4 4 1 1 r
4 3 1 1 r
4 2 1 1 r
4 0 1 1 r
5 60 1 1 r
5 54 1 1 r
5 51 1 1 r
5 46 1 1 r
5 43 1 1 r
5 42 1 1 r
5 38 1 1 r
5 36 1 1 r
5 35 1 1 r
5 34 1 1 r
5 33 1 1 r
5 32 1 1 r
5 28 1 1 r
5 26 1 1 r
5 25 1 1 r
5 23 1 1 r
5 21 1 1 r
5 19 1 1 r
5 18 1 1 r
5 16 1 1 r
5 13 1 1 r
5 12 1 1 r
5 10 1 1 r
5 6 1 1 r
5 0 1 1 r
6 60 1 1 r
6 59 1 1 r
6 58 1 1 r
6 57 1 1 r
6 56 1 1 r
6 55 1 1 r
6 54 1 1 r
6 52 1 1 r
6 50 1 1 r
6 48 1 1 r
6 46 1 1 r
6 44 1 1 r
6 42 1 1 r
6 40 1 1 r
6 38 1 1 r
6 36 1 1 r
6 34 1 1 r
6 32 1 1 r
6 30 1 1 r
6 28 1 1 r
6 26 1 1 r
6 24 1 1 r
6 22 1 1 r
6 20 1 1 r
6 18 1 1 r
6 16 1 1 r
6 14 1 1 r
6 12 1 1 r
6 10 1 1 r
6 8 1 1 r
6 6 1 1 r
6 5 1 1 r
6 4 1 1 r
6 3 1 1 r
6 2 1 1 r
6 1 1 1 r
6 0 1 1 r
7 52 1 1 r
7 50 1 1 r
7 49 1 1 r
7 47 1 1 r
7 45 1 1 r
7 44 1 1 r
7 41 1 1 r
7 39 1 1 r
7 38 1 1 r
7 35 1 1 r
7 34 1 1 r
7 32 1 1 r
7 28 1 1 r
7 27 1 1 r
7 25 1 1 r
7 22 1 1 r
7 21 1 1 r
7 17 1 1 r
7 15 1 1 r
7 14 1 1 r
7 11 1 1 r
7 10 1 1 r
7 9 1 1 r
7 8 1 1 r
8 59 1 1 r
8 57 1 1 r
8 55 1 1 r
8 54 1 1 r
8 52 1 1 r
8 50 1 1 r
8 49 1 1 r
8 47 1 1 r
8 46 1 1 r
8 43 1 1 r
8 41 1 1 r
8 40 1 1 r
8 33 1 1 r
8 32 1 1 r
8 31 1 1 r
8 30 1 1 r
8 29 1 1 r
8 28 1 1 r
8 25 1 1 r
8 22 1 1 r
8 20 1 1 r
8 19 1 1 r
8 18 1 1 r
8 17 1 1 r
8 15 1 1 r
8 14 1 1 r
8 13 1 1 r
8 12 1 1 r
8 11 1 1 r
8 9 1 1 r
8 8 1 1 r
8 7 1 1 r
8 6 1 1 r
8 4 1 1 r
8 3 1 1 r
8 2 1 1 r
8 1 1 1 r
8 0 1 1 r
9 59 1 1 r
9 57 1 1 r
9 56 1 1 r
9 55 1 1 r
9 53 1 1 r
9 52 1 1 r
9 51 1 1 r
9 50 1 1 r
9 49 1 1 r
9 48 1 1 r
9 46 1 1 r
9 45 1 1 r
9 40 1 1 r
9 38 1 1 r
9 36 1 1 r
9 32 1 1 r
9 31 1 1 r
9 30 1 1 r
9 28 1 1 r
9 25 1 1 r
9 23 1 1 r
9 22 1 1 r
9 21 1 1 r
9 20 1 1 r
9 17 1 1 r
9 16 1 1 r
9 14 1 1 r
9 9 1 1 r
9 8 1 1 r
9 7 1 1 r
9 5 1 1 r
9 4 1 1 r
9 1 1 1 r
10 56 1 1 r
10 54 1 1 r
10 53 1 1 r
10 52 1 1 r
10 51 1 1 r
10 47 1 1 r
10 45 1 1 r
10 43 1 1 r
10 42 1 1 r
10 41 1 1 r
10 40 1 1 r
10 38 1 1 r
10 37 1 1 r
10 34 1 1 r
10 31 1 1 r
10 30 1 1 r
10 25 1 1 r
10 24 1 1 r
10 23 1 1 r
10 21 1 1 r
10 18 1 1 r
10 17 1 1 r
10 15 1 1 r
10 13 1 1 r
10 11 1 1 r
10 10 1 1 r
10 9 1 1 r
10 8 1 1 r
10 7 1 1 r
10 6 1 1 r
10 4 1 1 r
10 0 1 1 r
11 60 1 1 r
11 57 1 1 r
11 55 1 1 r
11 53 1 1 r
11 50 1 1 r
11 48 1 1 r
11 47 1 1 r
11 45 1 1 r
11 42 1 1 r
11 41 1 1 r
11 40 1 1 r
11 39 1 1 r
11 38 1 1 r
11 37 1 1 r
11 35 1 1 r
11 34 1 1 r
11 33 1 1 r
11 31 1 1 r
11 30 1 1 r
11 27 1 1 r
11 24 1 1 r
11 23 1 1 r
11 21 1 1 r
11 20 1 1 r
11 18 1 1 r
11 14 1 1 r
11 12 1 1 r
11 10 1 1 r
11 9 1 1 r
11 8 1 1 r
11 7 1 1 r
11 6 1 1 r
11 5 1 1 r
11 4 1 1 r
11 1 1 1 r
11 0 1 1 r
12 59 1 1 r
12 58 1 1 r
12 56 1 1 r
12 54 1 1 r
12 52 1 1 r
12 51 1 1 r
12 48 1 1 r
12 45 1 1 r
12 44 1 1 r
12 42 1 1 r
12 38 1 1 r
12 37 1 1 r
12 36 1 1 r
12 31 1 1 r
12 24 1 1 r
12 23 1 1 r
12 21 1 1 r
12 20 1 1 r
12 16 1 1 r
12 13 1 1 r
12 12 1 1 r
12 7 1 1 r
12 6 1 1 r
12 5 1 1 r
12 4 1 1 r
12 1 1 1 r
12 0 1 1 r
13 59 1 1 r
13 56 1 1 r
13 55 1 1 r
13 53 1 1 r
13 51 1 1 r
13 49 1 1 r
13 48 1 1 r
13 45 1 1 r
13 43 1 1 r
13 41 1 1 r
13 40 1 1 r
13 39 1 1 r
13 35 1 1 r
13 34 1 1 r
13 33 1 1 r
13 32 1 1 r
13 31 1 1 r
13 30 1 1 r
13 28 1 1 r
13 27 1 1 r
13 25 1 1 r
13 19 1 1 r
13 16 1 1 r
13 15 1 1 r
13 14 1 1 r
13 13 1 1 r
13 12 1 1 r
13 9 1 1 r
13 8 1 1 r
13 6 1 1 r
13 5 1 1 r
13 2 1 1 r
13 0 1 1 r
14 57 1 1 r
14 54 1 1 r
14 51 1 1 r
14 50 1 1 r
14 49 1 1 r
14 47 1 1 r
14 42 1 1 r
14 41 1 1 r
14 36 1 1 r
14 32 1 1 r
14 31 1 1 r
14 30 1 1 r
14 27 1 1 r
14 26 1 1 r
14 25 1 1 r
14 23 1 1 r
14 22 1 1 r
14 20 1 1 r
14 18 1 1 r
14 17 1 1 r
14 13 1 1 r
14 12 1 1 r
14 11 1 1 r
14 8 1 1 r
14 7 1 1 r
14 4 1 1 r
14 3 1 1 r
14 0 1 1 r
15 59 1 1 r
15 53 1 1 r
15 51 1 1 r
15 49 1 1 r
15 48 1 1 r
15 47 1 1 r
15 46 1 1 r
15 45 1 1 r
15 43 1 1 r
15 41 1 1 r
15 40 1 1 r
15 39 1 1 r
15 38 1 1 r
15 37 1 1 r
15 33 1 1 r
15 32 1 1 r
15 31 1 1 r
15 28 1 1 r
15 26 1 1 r
15 24 1 1 r
15 23 1 1 r
15 22 1 1 r
15 20 1 1 r
15 19 1 1 r
15 18 1 1 r
15 17 1 1 r
15 15 1 1 r
15 14 1 1 r
15 11 1 1 r
15 9 1 1 r
15 6 1 1 r
15 5 1 1 r
15 3 1 1 r
15 1 1 1 r
15 0 1 1 r
16 60 1 1 r
16 59 1 1 r
16 58 1 1 r
16 57 1 1 r
16 54 1 1 r
16 48 1 1 r
16 46 1 1 r
16 45 1 1 r
16 33 1 1 r
16 32 1 1 r
16 30 1 1 r
16 27 1 1 r
16 26 1 1 r
16 25 1 1 r
16 24 1 1 r
16 22 1 1 r
16 20 1 1 r
16 15 1 1 r
16 14 1 1 r
16 13 1 1 r
16 8 1 1 r
16 6 1 1 r
16 3 1 1 r
16 1 1 1 r
16 0 1 1 r
17 60 1 1 r
17 57 1 1 r
17 53 1 1 r
17 51 1 1 r
17 46 1 1 r
17 45 1 1 r
17 43 1 1 r
17 41 1 1 r
17 39 1 1 r
17 38 1 1 r
17 36 1 1 r
17 29 1 1 r
17 26 1 1 r
17 24 1 1 r
17 23 1 1 r
17 21 1 1 r
17 19 1 1 r
17 16 1 1 r
17 15 1 1 r
17 14 1 1 r
17 13 1 1 r
17 11 1 1 r
17 10 1 1 r
17 8 1 1 r
17 7 1 1 r
17 6 1 1 r
17 4 1 1 r
17 2 1 1 r
18 59 1 1 r
18 58 1 1 r
18 57 1 1 r
18 55 1 1 r
18 54 1 1 r
18 53 1 1 r
18 52 1 1 r
18 51 1 1 r
18 50 1 1 r
18 49 1 1 r
18 45 1 1 r
18 41 1 1 r
18 40 1 1 r
18 35 1 1 r
18 34 1 1 r
18 32 1 1 r
18 31 1 1 r
18 30 1 1 r
18 29 1 1 r
18 27 1 1 r
18 25 1 1 r
18 23 1 1 r
18 22 1 1 r
18 21 1 1 r
18 20 1 1 r
18 19 1 1 r
18 18 1 1 r
18 17 1 1 r
18 14 1 1 r
18 13 1 1 r
18 10 1 1 r
18 8 1 1 r
18 7 1 1 r
18 3 1 1 r
18 2 1 1 r
18 1 1 1 r
19 59 1 1 r
19 57 1 1 r
19 51 1 1 r
19 49 1 1 r
19 48 1 1 r
19 47 1 1 r
19 43 1 1 r
19 42 1 1 r
19 41 1 1 r
19 36 1 1 r
19 34 1 1 r
19 32 1 1 r
19 27 1 1 r
19 23 1 1 r
19 19 1 1 r
19 17 1 1 r
19 14 1 1 r
19 11 1 1 r
19 9 1 1 r
19 5 1 1 r
19 4 1 1 r
19 2 1 1 r
19 0 1 1 r
20 60 1 1 r
20 54 1 1 r
20 51 1 1 r
20 50 1 1 r
20 49 1 1 r
20 47 1 1 r
20 46 1 1 r
20 41 1 1 r
20 28 1 1 r
20 27 1 1 r
20 22 1 1 r
20 21 1 1 r
20 19 1 1 r
20 18 1 1 r
20 17 1 1 r
20 16 1 1 r
20 14 1 1 r
20 13 1 1 r
20 11 1 1 r
20 6 1 1 r
20 0 1 1 r
21 58 1 1 r
21 56 1 1 r
21 53 1 1 r
21 50 1 1 r
21 49 1 1 r
21 45 1 1 r
21 43 1 1 r
21 42 1 1 r
21 37 1 1 r
21 36 1 1 r
21 34 1 1 r
21 33 1 1 r
21 31 1 1 r
21 30 1 1 r
21 28 1 1 r
21 26 1 1 r
21 25 1 1 r
21 21 1 1 r
21 15 1 1 r
21 13 1 1 r
21 11 1 1 r
21 10 1 1 r
21 9 1 1 r
21 6 1 1 r
21 5 1 1 r
21 3 1 1 r
21 1 1 1 r
21 0 1 1 r
22 59 1 1 r
22 58 1 1 r
22 56 1 1 r
22 54 1 1 r
22 52 1 1 r
22 46 1 1 r
22 45 1 1 r
22 44 1 1 r
22 41 1 1 r
22 38 1 1 r
22 36 1 1 r
22 35 1 1 r
22 33 1 1 r
22 26 1 1 r
22 25 1 1 r
22 20 1 1 r
22 14 1 1 r
22 13 1 1 r
22 12 1 1 r
22 10 1 1 r
22 9 1 1 r
22 7 1 1 r
22 4 1 1 r
22 1 1 1 r
23 59 1 1 r
23 57 1 1 r
23 56 1 1 r
23 55 1 1 r
23 52 1 1 r
23 51 1 1 r
23 49 1 1 r
23 48 1 1 r
23 47 1 1 r
23 46 1 1 r
23 45 1 1 r
23 43 1 1 r
23 41 1 1 r
23 40 1 1 r
23 37 1 1 r
23 35 1 1 r
23 33 1 1 r
23 31 1 1 r
23 30 1 1 r
23 28 1 1 r
23 26 1 1 r
23 23 1 1 r
23 22 1 1 r
23 19 1 1 r
23 17 1 1 r
23 16 1 1 r
23 15 1 1 r
23 14 1 1 r
23 11 1 1 r
23 9 1 1 r
23 7 1 1 r
23 6 1 1 r
23 2 1 1 r
23 1 1 1 r
24 60 1 1 r
24 59 1 1 r
24 58 1 1 r
24 57 1 1 r
24 56 1 1 r
24 54 1 1 r
24 52 1 1 r
24 50 1 1 r
24 47 1 1 r
24 46 1 1 r
24 44 1 1 r
24 39 1 1 r
24 38 1 1 r
24 34 1 1 r
24 32 1 1 r
24 31 1 1 r
24 30 1 1 r
24 29 1 1 r
24 28 1 1 r
24 27 1 1 r
24 26 1 1 r
24 25 1 1 r
24 24 1 1 r
24 23 1 1 r
24 22 1 1 r
24 18 1 1 r
24 17 1 1 r
24 15 1 1 r
24 14 1 1 r
24 13 1 1 r
24 12 1 1 r
24 8 1 1 r
24 7 1 1 r
24 6 1 1 r
24 5 1 1 r
24 4 1 1 r
24 2 1 1 r
24 1 1 1 r
24 0 1 1 r
25 60 1 1 r
25 59 1 1 r
25 55 1 1 r
25 52 1 1 r
25 50 1 1 r
25 48 1 1 r
25 47 1 1 r
25 46 1 1 r
25 45 1 1 r
25 43 1 1 r
25 40 1 1 r
25 37 1 1 r
25 35 1 1 r
25 34 1 1 r
25 29 1 1 r
25 27 1 1 r
25 26 1 1 r
25 25 1 1 r
25 24 1 1 r
25 22 1 1 r
25 20 1 1 r
25 13 1 1 r
25 10 1 1 r
25 9 1 1 r
25 8 1 1 r
25 5 1 1 r
25 3 1 1 r
26 59 1 1 r
26 55 1 1 r
26 54 1 1 r
26 53 1 1 r
26 52 1 1 r
26 49 1 1 r
26 44 1 1 r
26 42 1 1 r
26 41 1 1 r
26 33 1 1 r
26 32 1 1 r
26 31 1 1 r
26 28 1 1 r
26 27 1 1 r
26 22 1 1 r
26 21 1 1 r
26 20 1 1 r
26 16 1 1 r
26 15 1 1 r
26 14 1 1 r
26 12 1 1 r
26 11 1 1 r
26 10 1 1 r
26 1 1 1 r
27 60 1 1 r
27 58 1 1 r
27 56 1 1 r
27 53 1 1 r
27 49 1 1 r
27 47 1 1 r
27 46 1 1 r
27 45 1 1 r
27 44 1 1 r
27 43 1 1 r
27 42 1 1 r
27 37 1 1 r
27 36 1 1 r
27 34 1 1 r
27 32 1 1 r
27 28 1 1 r
27 27 1 1 r
27 26 1 1 r
27 25 1 1 r
27 24 1 1 r
27 23 1 1 r
27 22 1 1 r
27 21 1 1 r
27 20 1 1 r
27 19 1 1 r
27 18 1 1 r
27 16 1 1 r
27 15 1 1 r
27 14 1 1 r
27 13 1 1 r
27 12 1 1 r
27 11 1 1 r
27 10 1 1 r
27 9 1 1 r
27 7 1 1 r
27 6 1 1 r
27 5 1 1 r
27 3 1 1 r
28 60 1 1 r
28 58 1 1 r
28 56 1 1 r
28 55 1 1 r
28 54 1 1 r
28 53 1 1 r
28 52 1 1 r
28 41 1 1 r
28 39 1 1 r
28 38 1 1 r
28 36 1 1 r
28 33 1 1 r
28 32 1 1 r
28 31 1 1 r
28 30 1 1 r
28 29 1 1 r
28 28 1 1 r
28 25 1 1 r
28 23 1 1 r
28 22 1 1 r
28 20 1 1 r
28 17 1 1 r
28 13 1 1 r
28 10 1 1 r
28 8 1 1 r
28 7 1 1 r
28 6 1 1 r
28 5 1 1 r
28 4 1 1 r
28 0 1 1 r
29 60 1 1 r
29 59 1 1 r
29 58 1 1 r
29 57 1 1 r
29 56 1 1 r
29 52 1 1 r
29 49 1 1 r
29 48 1 1 r
29 46 1 1 r
29 45 1 1 r
29 44 1 1 r
29 43 1 1 r
29 40 1 1 r
29 39 1 1 r
29 38 1 1 r
29 35 1 1 r
29 34 1 1 r
29 32 1 1 r
29 28 1 1 r
29 25 1 1 r
29 24 1 1 r
29 23 1 1 r
29 21 1 1 r
29 19 1 1 r
29 18 1 1 r
29 17 1 1 r
29 13 1 1 r
29 10 1 1 r
29 9 1 1 r
29 8 1 1 r
29 4 1 1 r
29 2 1 1 r
29 1 1 1 r
30 60 1 1 r
30 59 1 1 r
30 57 1 1 r
30 56 1 1 r
30 54 1 1 r
30 52 1 1 r
30 51 1 1 r
30 50 1 1 r
30 48 1 1 r
30 43 1 1 r
30 38 1 1 r
30 35 1 1 r
30 33 1 1 r
30 32 1 1 r
30 30 1 1 r
30 28 1 1 r
30 25 1 1 r
30 23 1 1 r
30 22 1 1 r
30 17 1 1 r
30 15 1 1 r
30 11 1 1 r
30 9 1 1 r
30 8 1 1 r
30 6 1 1 r
30 4 1 1 r
30 3 1 1 r
30 1 1 1 r
30 0 1 1 r
31 60 1 1 r
31 57 1 1 r
31 56 1 1 r
31 52 1 1 r
31 50 1 1 r
31 49 1 1 r
31 48 1 1 r
31 41 1 1 r
31 39 1 1 r
31 36 1 1 r
31 35 1 1 r
31 32 1 1 r
31 28 1 1 r
31 25 1 1 r
31 24 1 1 r
31 22 1 1 r
31 20 1 1 r
31 19 1 1 r
31 15 1 1 r
31 14 1 1 r
31 12 1 1 r
31 11 1 1 r
31 10 1 1 r
31 8 1 1 r
31 4 1 1 r
31 3 1 1 r
32 58 1 1 r
32 56 1 1 r
32 55 1 1 r
32 54 1 1 r
32 53 1 1 r
32 52 1 1 r
32 51 1 1 r
32 48 1 1 r
32 46 1 1 r
32 45 1 1 r
32 44 1 1 r
32 42 1 1 r
32 40 1 1 r
32 38 1 1 r
32 37 1 1 r
32 34 1 1 r
32 33 1 1 r
32 32 1 1 r
32 31 1 1 r
32 30 1 1 r
32 29 1 1 r
32 28 1 1 r
32 27 1 1 r
32 25 1 1 r
32 24 1 1 r
32 23 1 1 r
32 22 1 1 r
32 21 1 1 r
32 18 1 1 r
32 16 1 1 r
32 9 1 1 r
32 8 1 1 r
32 7 1 1 r
32 6 1 1 r
32 5 1 1 r
32 4 1 1 r
32 1 1 1 r
32 0 1 1 r
33 59 1 1 r
33 58 1 1 r
33 55 1 1 r
33 53 1 1 r
33 51 1 1 r
33 50 1 1 r
33 49 1 1 r
33 48 1 1 r
33 46 1 1 r
33 45 1 1 r
33 44 1 1 r
33 43 1 1 r
33 42 1 1 r
33 41 1 1 r
33 40 1 1 r
33 35 1 1 r
33 34 1 1 r
33 30 1 1 r
33 27 1 1 r
33 25 1 1 r
33 23 1 1 r
33 22 1 1 r
33 20 1 1 r
33 19 1 1 r
33 15 1 1 r
33 14 1 1 r
33 13 1 1 r
33 12 1 1 r
33 9 1 1 r
33 8 1 1 r
33 7 1 1 r
33 4 1 1 r
34 60 1 1 r
34 57 1 1 r
34 55 1 1 r
34 54 1 1 r
34 52 1 1 r
34 51 1 1 r
34 50 1 1 r
34 49 1 1 r
34 47 1 1 r
34 46 1 1 r
34 45 1 1 r
34 42 1 1 r
34 33 1 1 r
34 29 1 1 r
34 28 1 1 r
34 26 1 1 r
34 20 1 1 r
34 19 1 1 r
34 17 1 1 r
34 15 1 1 r
34 12 1 1 r
34 11 1 1 r
34 7 1 1 r
34 4 1 1 r
34 1 1 1 r
35 60 1 1 r
35 59 1 1 r
35 57 1 1 r
35 55 1 1 r
35 52 1 1 r
35 50 1 1 r
35 47 1 1 r
35 44 1 1 r
35 42 1 1 r
35 40 1 1 r
35 33 1 1 r
35 32 1 1 r
35 31 1 1 r
35 29 1 1 r
35 27 1 1 r
35 26 1 1 r
35 22 1 1 r
35 21 1 1 r
35 18 1 1 r
35 16 1 1 r
35 15 1 1 r
35 13 1 1 r
35 11 1 1 r
35 7 1 1 r
35 5 1 1 r
35 2 1 1 r
35 1 1 1 r
35 0 1 1 r
36 58 1 1 r
36 56 1 1 r
36 55 1 1 r
36 54 1 1 r
36 51 1 1 r
36 50 1 1 r
36 49 1 1 r
36 46 1 1 r
36 44 1 1 r
36 43 1 1 r
36 41 1 1 r
36 39 1 1 r
36 38 1 1 r
36 35 1 1 r
36 34 1 1 r
36 32 1 1 r
36 31 1 1 r
36 28 1 1 r
36 27 1 1 r
36 26 1 1 r
36 25 1 1 r
36 23 1 1 r
36 22 1 1 r
36 18 1 1 r
36 16 1 1 r
36 13 1 1 r
36 12 1 1 r
36 11 1 1 r
36 10 1 1 r
36 9 1 1 r
36 7 1 1 r
36 5 1 1 r
36 4 1 1 r
36 2 1 1 r
36 0 1 1 r
37 59 1 1 r
37 58 1 1 r
37 48 1 1 r
37 45 1 1 r
37 43 1 1 r
37 42 1 1 r
37 40 1 1 r
37 38 1 1 r
37 35 1 1 r
37 34 1 1 r
37 32 1 1 r
37 31 1 1 r
37 30 1 1 r
37 29 1 1 r
37 25 1 1 r
37 24 1 1 r
37 19 1 1 r
37 16 1 1 r
37 14 1 1 r
37 13 1 1 r
37 10 1 1 r
37 9 1 1 r
37 8 1 1 r
37 3 1 1 r
37 2 1 1 r
37 0 1 1 r
38 60 1 1 r
38 58 1 1 r
38 56 1 1 r
38 54 1 1 r
38 51 1 1 r
38 49 1 1 r
38 48 1 1 r
38 44 1 1 r
38 38 1 1 r
38 37 1 1 r
38 36 1 1 r
38 34 1 1 r
38 33 1 1 r
38 30 1 1 r
38 28 1 1 r
38 26 1 1 r
38 23 1 1 r
38 21 1 1 r
38 20 1 1 r
38 16 1 1 r
38 12 1 1 r
38 11 1 1 r
38 7 1 1 r
38 6 1 1 r
38 1 1 1 r
38 0 1 1 r
39 60 1 1 r
39 58 1 1 r
39 55 1 1 r
39 53 1 1 r
39 52 1 1 r
39 51 1 1 r
39 50 1 1 r
39 49 1 1 r
39 47 1 1 r
39 45 1 1 r
39 44 1 1 r
39 41 1 1 r
39 40 1 1 r
39 38 1 1 r
39 36 1 1 r
39 35 1 1 r
39 34 1 1 r
39 33 1 1 r
39 31 1 1 r
39 29 1 1 r
39 28 1 1 r
39 27 1 1 r
39 26 1 1 r
39 22 1 1 r
39 21 1 1 r
39 20 1 1 r
39 19 1 1 r
39 17 1 1 r
39 15 1 1 r
39 14 1 1 r
39 13 1 1 r
39 12 1 1 r
39 11 1 1 r
39 9 1 1 r
39 8 1 1 r
39 6 1 1 r
39 3 1 1 r
39 2 1 1 r
39 1 1 1 r
40 60 1 1 r
40 58 1 1 r
40 56 1 1 r
40 55 1 1 r
40 54 1 1 r
40 53 1 1 r
40 52 1 1 r
40 51 1 1 r
40 48 1 1 r
40 46 1 1 r
40 39 1 1 r
40 38 1 1 r
40 37 1 1 r
40 36 1 1 r
40 34 1 1 r
40 33 1 1 r
40 32 1 1 r
40 30 1 1 r
40 27 1 1 r
40 23 1 1 r
40 21 1 1 r
40 20 1 1 r
40 19 1 1 r
40 17 1 1 r
40 16 1 1 r
40 14 1 1 r
40 13 1 1 r
40 12 1 1 r
40 11 1 1 r
40 9 1 1 r
40 8 1 1 r
40 7 1 1 r
40 6 1 1 r
40 5 1 1 r
40 2 1 1 r
40 1 1 1 r
40 0 1 1 r
41 59 1 1 r
41 57 1 1 r
41 55 1 1 r
41 53 1 1 r
41 50 1 1 r
41 49 1 1 r
41 48 1 1 r
41 46 1 1 r
41 45 1 1 r
41 40 1 1 r
41 39 1 1 r
41 38 1 1 r
41 37 1 1 r
41 34 1 1 r
41 33 1 1 r
41 32 1 1 r
41 31 1 1 r
41 24 1 1 r
41 23 1 1 r
41 22 1 1 r
41 21 1 1 r
41 18 1 1 r
41 16 1 1 r
41 10 1 1 r
41 8 1 1 r
41 5 1 1 r
41 3 1 1 r
41 2 1 1 r
41 1 1 1 r
42 60 1 1 r
42 59 1 1 r
42 54 1 1 r
42 53 1 1 r
42 51 1 1 r
42 50 1 1 r
42 48 1 1 r
42 47 1 1 r
42 45 1 1 r
42 44 1 1 r
42 40 1 1 r
42 39 1 1 r
42 37 1 1 r
42 35 1 1 r
42 32 1 1 r
42 31 1 1 r
42 30 1 1 r
42 28 1 1 r
42 26 1 1 r
42 25 1 1 r
42 22 1 1 r
42 21 1 1 r
42 18 1 1 r
42 16 1 1 r
42 15 1 1 r
42 10 1 1 r
42 9 1 1 r
42 7 1 1 r
42 5 1 1 r
42 3 1 1 r
42 2 1 1 r
42 0 1 1 r
43 59 1 1 r
43 58 1 1 r
43 57 1 1 r
43 56 1 1 r
43 55 1 1 r
43 53 1 1 r
43 52 1 1 r
43 50 1 1 r
43 49 1 1 r
43 47 1 1 r
43 45 1 1 r
43 41 1 1 r
43 40 1 1 r
43 38 1 1 r
43 35 1 1 r
43 33 1 1 r
43 31 1 1 r
43 25 1 1 r
43 23 1 1 r
43 20 1 1 r
43 18 1 1 r
43 17 1 1 r
43 16 1 1 r
43 15 1 1 r
43 12 1 1 r
43 11 1 1 r
43 8 1 1 r
43 7 1 1 r
43 6 1 1 r
43 4 1 1 r
43 2 1 1 r
43 0 1 1 r
44 54 1 1 r
44 52 1 1 r
44 49 1 1 r
44 48 1 1 r
44 47 1 1 r
44 46 1 1 r
44 41 1 1 r
44 40 1 1 r
44 37 1 1 r
44 36 1 1 r
44 35 1 1 r
44 33 1 1 r
44 32 1 1 r
44 31 1 1 r
44 26 1 1 r
44 21 1 1 r
44 20 1 1 r
44 16 1 1 r
44 12 1 1 r
44 11 1 1 r
44 5 1 1 r
44 1 1 1 r
45 59 1 1 r
45 58 1 1 r
45 55 1 1 r
45 52 1 1 r
45 49 1 1 r
45 48 1 1 r
45 45 1 1 r
45 44 1 1 r
45 43 1 1 r
45 42 1 1 r
45 41 1 1 r
45 40 1 1 r
45 38 1 1 r
45 37 1 1 r
45 36 1 1 r
45 35 1 1 r
45 33 1 1 r
45 32 1 1 r
45 31 1 1 r
45 30 1 1 r
45 29 1 1 r
45 28 1 1 r
45 26 1 1 r
45 21 1 1 r
45 20 1 1 r
45 17 1 1 r
45 16 1 1 r
45 15 1 1 r
45 13 1 1 r
45 12 1 1 r
45 11 1 1 r
45 10 1 1 r
45 9 1 1 r
45 6 1 1 r
45 5 1 1 r
45 3 1 1 r
45 1 1 1 r
45 0 1 1 r
46 54 1 1 r
46 51 1 1 r
46 50 1 1 r
46 41 1 1 r
46 39 1 1 r
46 38 1 1 r
46 36 1 1 r
46 35 1 1 r
46 34 1 1 r
46 32 1 1 r
46 31 1 1 r
46 30 1 1 r
46 28 1 1 r
46 25 1 1 r
46 17 1 1 r
46 16 1 1 r
46 15 1 1 r
46 11 1 1 r
46 10 1 1 r
46 6 1 1 r
46 2 1 1 r
46 0 1 1 r
47 57 1 1 r
47 56 1 1 r
47 52 1 1 r
47 49 1 1 r
47 47 1 1 r
47 46 1 1 r
47 44 1 1 r
47 42 1 1 r
47 39 1 1 r
47 37 1 1 r
47 34 1 1 r
47 31 1 1 r
47 26 1 1 r
47 25 1 1 r
47 24 1 1 r
47 23 1 1 r
47 21 1 1 r
47 20 1 1 r
47 19 1 1 r
47 14 1 1 r
47 12 1 1 r
47 8 1 1 r
47 7 1 1 r
47 5 1 1 r
47 2 1 1 r
47 0 1 1 r
48 60 1 1 r
48 59 1 1 r
48 57 1 1 r
48 55 1 1 r
48 54 1 1 r
48 53 1 1 r
48 52 1 1 r
48 51 1 1 r
48 49 1 1 r
48 48 1 1 r
48 47 1 1 r
48 46 1 1 r
48 45 1 1 r
48 44 1 1 r
48 43 1 1 r
48 41 1 1 r
48 38 1 1 r
48 35 1 1 r
48 33 1 1 r
48 32 1 1 r
48 31 1 1 r
48 28 1 1 r
48 24 1 1 r
48 23 1 1 r
48 18 1 1 r
48 16 1 1 r
48 15 1 1 r
48 14 1 1 r
48 12 1 1 r
48 11 1 1 r
48 8 1 1 r
48 5 1 1 r
48 4 1 1 r
48 2 1 1 r
49 60 1 1 r
49 59 1 1 r
49 53 1 1 r
49 49 1 1 r
49 48 1 1 r
49 46 1 1 r
49 45 1 1 r
49 44 1 1 r
49 42 1 1 r
49 40 1 1 r
49 39 1 1 r
49 38 1 1 r
49 37 1 1 r
49 35 1 1 r
49 32 1 1 r
49 29 1 1 r
49 26 1 1 r
49 24 1 1 r
49 22 1 1 r
49 21 1 1 r
49 20 1 1 r
49 18 1 1 r
49 17 1 1 r
49 16 1 1 r
49 15 1 1 r
49 11 1 1 r
49 8 1 1 r
49 7 1 1 r
49 6 1 1 r
49 5 1 1 r
49 0 1 1 r
50 58 1 1 r
50 57 1 1 r
50 56 1 1 r
50 55 1 1 r
50 54 1 1 r
50 52 1 1 r
50 47 1 1 r
50 45 1 1 r
50 44 1 1 r
50 42 1 1 r
50 41 1 1 r
50 38 1 1 r
50 36 1 1 r
50 34 1 1 r
50 31 1 1 r
50 29 1 1 r
50 26 1 1 r
50 24 1 1 r
50 21 1 1 r
50 19 1 1 r
50 18 1 1 r
50 15 1 1 r
50 14 1 1 r
50 11 1 1 r
50 9 1 1 r
50 8 1 1 r
50 6 1 1 r
50 2 1 1 r
50 1 1 1 r
51 60 1 1 r
51 59 1 1 r
51 58 1 1 r
51 56 1 1 r
51 53 1 1 r
51 51 1 1 r
51 47 1 1 r
51 45 1 1 r
51 41 1 1 r
51 40 1 1 r
51 37 1 1 r
51 36 1 1 r
51 35 1 1 r
51 34 1 1 r
51 33 1 1 r
51 32 1 1 r
51 27 1 1 r
51 25 1 1 r
51 24 1 1 r
51 22 1 1 r
51 21 1 1 r
51 20 1 1 r
51 15 1 1 r
51 14 1 1 r
51 13 1 1 r
51 11 1 1 r
51 10 1 1 r
51 7 1 1 r
51 6 1 1 r
51 5 1 1 r
51 4 1 1 r
51 0 1 1 r
52 60 1 1 r
52 59 1 1 r
52 58 1 1 r
52 57 1 1 r
52 54 1 1 r
52 53 1 1 r
52 52 1 1 r
52 51 1 1 r
52 49 1 1 r
52 47 1 1 r
52 45 1 1 r
52 44 1 1 r
52 40 1 1 r
52 38 1 1 r
52 37 1 1 r
52 36 1 1 r
52 35 1 1 r
52 34 1 1 r
52 32 1 1 r
52 31 1 1 r
52 30 1 1 r
52 29 1 1 r
52 28 1 1 r
52 20 1 1 r
52 13 1 1 r
52 12 1 1 r
52 8 1 1 r
52 7 1 1 r
52 6 1 1 r
52 5 1 1 r
52 4 1 1 r
52 1 1 1 r
53 52 1 1 r
53 51 1 1 r
53 44 1 1 r
53 40 1 1 r
53 32 1 1 r
53 28 1 1 r
53 27 1 1 r
53 26 1 1 r
53 24 1 1 r
53 21 1 1 r
53 19 1 1 r
53 13 1 1 r
53 12 1 1 r
53 11 1 1 r
53 10 1 1 r
53 8 1 1 r
53 4 1 1 r
54 60 1 1 r
54 59 1 1 r
54 58 1 1 r
54 57 1 1 r
54 56 1 1 r
54 55 1 1 r
54 54 1 1 r
54 51 1 1 r
54 50 1 1 r
54 48 1 1 r
54 46 1 1 r
54 44 1 1 r
54 43 1 1 r
54 41 1 1 r
54 39 1 1 r
54 37 1 1 r
54 36 1 1 r
54 35 1 1 r
54 34 1 1 r
54 33 1 1 r
54 32 1 1 r
54 30 1 1 r
54 28 1 1 r
54 27 1 1 r
54 26 1 1 r
54 25 1 1 r
54 23 1 1 r
54 16 1 1 r
54 15 1 1 r
54 14 1 1 r
54 13 1 1 r
54 11 1 1 r
54 9 1 1 r
54 8 1 1 r
54 6 1 1 r
54 4 1 1 r
54 3 1 1 r
54 2 1 1 r
54 0 1 1 r
55 60 1 1 r
55 54 1 1 r
55 52 1 1 r
55 51 1 1 r
55 50 1 1 r
55 49 1 1 r
55 48 1 1 r
55 47 1 1 r
55 44 1 1 r
55 43 1 1 r
55 42 1 1 r
55 40 1 1 r
55 39 1 1 r
55 38 1 1 r
55 36 1 1 r
55 35 1 1 r
55 34 1 1 r
55 32 1 1 r
55 28 1 1 r
55 24 1 1 r
55 22 1 1 r
55 21 1 1 r
55 20 1 1 r
55 18 1 1 r
55 17 1 1 r
55 16 1 1 r
55 15 1 1 r
55 13 1 1 r
55 12 1 1 r
55 11 1 1 r
55 10 1 1 r
55 8 1 1 r
55 4 1 1 r
55 3 1 1 r
55 2 1 1 r
55 1 1 1 r
55 0 1 1 r
56 60 1 1 r
56 58 1 1 r
56 57 1 1 r
56 56 1 1 r
56 54 1 1 r
56 50 1 1 r
56 48 1 1 r
56 47 1 1 r
56 42 1 1 r
56 40 1 1 r
56 35 1 1 r
56 32 1 1 r
56 31 1 1 r
56 30 1 1 r
56 29 1 1 r
56 28 1 1 r
56 26 1 1 r
56 25 1 1 r
56 24 1 1 r
56 21 1 1 r
56 19 1 1 r
56 16 1 1 r
56 14 1 1 r
56 13 1 1 r
56 10 1 1 r
56 9 1 1 r
56 8 1 1 r
56 7 1 1 r
56 6 1 1 r
56 5 1 1 r
56 4 1 1 r
57 60 1 1 r
57 58 1 1 r
57 57 1 1 r
57 56 1 1 r
57 54 1 1 r
57 52 1 1 r
57 51 1 1 r
57 48 1 1 r
57 44 1 1 r
57 43 1 1 r
57 41 1 1 r
57 39 1 1 r
57 36 1 1 r
57 35 1 1 r
57 32 1 1 r
57 31 1 1 r
57 29 1 1 r
57 27 1 1 r
57 24 1 1 r
57 23 1 1 r
57 17 1 1 r
57 14 1 1 r
57 11 1 1 r
57 9 1 1 r
57 8 1 1 r
57 7 1 1 r
57 6 1 1 r
57 3 1 1 r
57 1 1 1 r
57 0 1 1 r
58 60 1 1 r
58 58 1 1 r
58 57 1 1 r
58 56 1 1 r
58 54 1 1 r
58 51 1 1 r
58 49 1 1 r
58 48 1 1 r
58 43 1 1 r
58 42 1 1 r
58 35 1 1 r
58 33 1 1 r
58 32 1 1 r
58 26 1 1 r
58 22 1 1 r
58 20 1 1 r
58 17 1 1 r
58 16 1 1 r
58 13 1 1 r
58 12 1 1 r
58 11 1 1 r
58 10 1 1 r
58 7 1 1 r
58 6 1 1 r
58 5 1 1 r
58 4 1 1 r
58 3 1 1 r
58 1 1 1 r
58 0 1 1 r
59 60 1 1 r
59 54 1 1 r
59 52 1 1 r
59 51 1 1 r
59 50 1 1 r
59 49 1 1 r
59 48 1 1 r
59 45 1 1 r
59 42 1 1 r
59 41 1 1 r
59 39 1 1 r
59 37 1 1 r
59 35 1 1 r
59 34 1 1 r
59 33 1 1 r
59 32 1 1 r
59 30 1 1 r
59 29 1 1 r
59 27 1 1 r
59 26 1 1 r
59 25 1 1 r
59 24 1 1 r
59 22 1 1 r
59 21 1 1 r
59 18 1 1 r
59 17 1 1 r
59 13 1 1 r
59 10 1 1 r
60 60 1 1 r
60 59 1 1 r
60 58 1 1 r
60 57 1 1 r
60 56 1 1 r
60 55 1 1 r
60 54 1 1 r
60 50 1 1 r
60 49 1 1 r
60 48 1 1 r
60 46 1 1 r
60 42 1 1 r
60 41 1 1 r
60 40 1 1 r
60 37 1 1 r
60 32 1 1 r
60 31 1 1 r
60 30 1 1 r
60 28 1 1 r
60 27 1 1 r
60 26 1 1 r
60 25 1 1 r
60 22 1 1 r
60 21 1 1 r
60 20 1 1 r
60 18 1 1 r
60 17 1 1 r
60 16 1 1 r
60 15 1 1 r
60 9 1 1 r
60 8 1 1 r
60 7 1 1 r
60 6 1 1 r
60 5 1 1 r
60 4 1 1 r
60 3 1 1 r
60 2 1 1 r
60 0 1 1 r
%%EOF