%!PS-Adobe EPSF-3.0
%%CreationDate: 2014-05-12
%%Title: QR-code
%%Pages: 1
%%DocumentData: Clean7Bit
%%LanguageLevel: 2
%%BoundingBox: 0 0 399 399
7 7 scale
2 2 translate
0 0 0 setrgbcolor
/r {rectfill} def
0 52 1 1 r
0 51 1 1 r
0 50 1 1 r
0 49 1 1 r
0 48 1 1 r
0 47 1 1 r
0 46 1 1 r
0 44 1 1 r
0 39 1 1 r
0 38 1 1 r
0 37 1 1 r
0 36 1 1 r
0 34 1 1 r
0 32 1 1 r
0 31 1 1 r
0 29 1 1 r
0 28 1 1 r
0 26 1 1 r
0 22 1 1 r
0 21 1 1 r
0 20 1 1 r
0 16 1 1 r
0 14 1 1 r
0 11 1 1 r
0 10 1 1 r
0 6 1 1 r
0 5 1 1 r
0 4 1 1 r
0 3 1 1 r
0 2 1 1 r
0 1 1 1 r
0 0 1 1 r
1 52 1 1 r
1 46 1 1 r
1 44 1 1 r
1 43 1 1 r
1 40 1 1 r
1 39 1 1 r
1 38 1 1 r
1 36 1 1 r
1 35 1 1 r
1 32 1 1 r
1 31 1 1 r
1 27 1 1 r
1 26 1 1 r
1 23 1 1 r
1 22 1 1 r
1 19 1 1 r
1 18 1 1 r
1 16 1 1 r
1 15 1 1 r
1 13 1 1 r
1 10 1 1 r
1 9 1 1 r
1 6 1 1 r
1 0 1 1 r
2 52 1 1 r
2 50 1 1 r
2 49 1 1 r
2 48 1 1 r
2 46 1 1 r
2 42 1 1 r
2 41 1 1 r
2 40 1 1 r
2 37 1 1 r
2 35 1 1 r
2 34 1 1 r
2 33 1 1 r
2 30 1 1 r
2 26 1 1 r
2 25 1 1 r
2 24 1 1 r
2 23 1 1 r
2 20 1 1 r
2 19 1 1 r
2 18 1 1 r
2 16 1 1 r
2 15 1 1 r
2 13 1 1 r
2 11 1 1 r
2 9 1 1 r
2 6 1 1 r
2 4 1 1 r
2 3 1 1 r
2 2 1 1 r
2 0 1 1 r
3 52 1 1 r
3 50 1 1 r
3 49 1 1 r
3 48 1 1 r
3 46 1 1 r
3 43 1 1 r
3 41 1 1 r
3 40 1 1 r
3 39 1 1 r
3 38 1 1 r
3 37 1 1 r
3 35 1 1 r
3 34 1 1 r
3 33 1 1 r
3 31 1 1 r
3 30 1 1 r
3 29 1 1 r
3 28 1 1 r
3 27 1 1 r
3 26 1 1 r
3 25 1 1 r
3 23 1 1 r
3 18 1 1 r
3 16 1 1 r
3 15 1 1 r
3 14 1 1 r
3 13 1 1 r
3 12 1 1 r
3 11 1 1 r
3 10 1 1 r
3 8 1 1 r
3 6 1 1 r
3 4 1 1 r
3 3 1 1 r
3 2 1 1 r
3 0 1 1 r
4 52 1 1 r
4 50 1 1 r
4 49 1 1 r
4 48 1 1 r
4 46 1 1 r
4 44 1 1 r
4 43 1 1 r
4 42 1 1 r
4 40 1 1 r
4 37 1 1 r
4 35 1 1 r
4 34 1 1 r
4 32 1 1 r
4 31 1 1 r
4 28 1 1 r
4 27 1 1 r
4 26 1 1 r
4 25 1 1 r
4 24 1 1 r
4 21 1 1 r
4 19 1 1 r
4 18 1 1 r
4 17 1 1 r
4 14 1 1 r
4 13 1 1 r
4 10 1 1 r
4 6 1 1 r
4 4 1 1 r
4 3 1 1 r
4 2 1 1 r
4 0 1 1 r
5 52 1 1 r
5 46 1 1 r
5 44 1 1 r
5 41 1 1 r
5 35 1 1 r
5 33 1 1 r
5 32 1 1 r
5 31 1 1 r
5 28 1 1 r
5 24 1 1 r
5 22 1 1 r
5 21 1 1 r
5 20 1 1 r
5 19 1 1 r
5 18 1 1 r
5 13 1 1 r
5 12 1 1 r
5 11 1 1 r
5 10 1 1 r
5 6 1 1 r
5 0 1 1 r
6 52 1 1 r
6 51 1 1 r
6 50 1 1 r
6 49 1 1 r
6 48 1 1 r
6 47 1 1 r
6 46 1 1 r
6 44 1 1 r
6 42 1 1 r
6 40 1 1 r
6 38 1 1 r
6 36 1 1 r
6 34 1 1 r
6 32 1 1 r
6 30 1 1 r
6 28 1 1 r
6 26 1 1 r
6 24 1 1 r
6 22 1 1 r
6 20 1 1 r
6 18 1 1 r
6 16 1 1 r
6 14 1 1 r
6 12 1 1 r
6 10 1 1 r
6 8 1 1 r
6 6 1 1 r
6 5 1 1 r
6 4 1 1 r
6 3 1 1 r
6 2 1 1 r
6 1 1 1 r
6 0 1 1 r
7 41 1 1 r
7 40 1 1 r
7 39 1 1 r
7 38 1 1 r
7 35 1 1 r
7 34 1 1 r
7 33 1 1 r
7 30 1 1 r
7 29 1 1 r
7 28 1 1 r
7 24 1 1 r
7 23 1 1 r
7 22 1 1 r
7 21 1 1 r
7 19 1 1 r
7 17 1 1 r
7 14 1 1 r
7 11 1 1 r
7 9 1 1 r
7 8 1 1 r
8 52 1 1 r
8 51 1 1 r
8 50 1 1 r
8 49 1 1 r
8 47 1 1 r
8 46 1 1 r
8 42 1 1 r
8 41 1 1 r
8 36 1 1 r
8 33 1 1 r
8 31 1 1 r
8 30 1 1 r
8 28 1 1 r
8 27 1 1 r
8 26 1 1 r
8 25 1 1 r
8 24 1 1 r
8 23 1 1 r
8 21 1 1 r
8 20 1 1 r
8 19 1 1 r
8 16 1 1 r
8 15 1 1 r
8 14 1 1 r
8 13 1 1 r
8 12 1 1 r
8 11 1 1 r
8 9 1 1 r
8 7 1 1 r
8 5 1 1 r
8 4 1 1 r
8 1 1 1 r
8 0 1 1 r
9 52 1 1 r
9 51 1 1 r
9 44 1 1 r
9 42 1 1 r
9 38 1 1 r
9 37 1 1 r
9 31 1 1 r
9 30 1 1 r
9 29 1 1 r
9 28 1 1 r
9 27 1 1 r
9 25 1 1 r
9 23 1 1 r
9 22 1 1 r
9 17 1 1 r
9 16 1 1 r
9 14 1 1 r
9 13 1 1 r
9 11 1 1 r
9 6 1 1 r
9 5 1 1 r
9 4 1 1 r
9 3 1 1 r
9 2 1 1 r
9 1 1 1 r
10 46 1 1 r
10 44 1 1 r
10 37 1 1 r
10 35 1 1 r
10 32 1 1 r
10 29 1 1 r
10 28 1 1 r
10 27 1 1 r
10 25 1 1 r
10 23 1 1 r
10 21 1 1 r
10 19 1 1 r
10 14 1 1 r
10 13 1 1 r
10 12 1 1 r
10 11 1 1 r
10 10 1 1 r
10 9 1 1 r
10 8 1 1 r
10 7 1 1 r
10 6 1 1 r
10 4 1 1 r
10 3 1 1 r
10 2 1 1 r
11 52 1 1 r
11 51 1 1 r
11 50 1 1 r
11 48 1 1 r
11 47 1 1 r
11 45 1 1 r
11 44 1 1 r
11 43 1 1 r
11 42 1 1 r
11 41 1 1 r
11 39 1 1 r
11 37 1 1 r
11 35 1 1 r
11 34 1 1 r
11 32 1 1 r
11 30 1 1 r
11 29 1 1 r
11 23 1 1 r
11 22 1 1 r
11 19 1 1 r
11 15 1 1 r
11 13 1 1 r
11 6 1 1 r
11 5 1 1 r
11 4 1 1 r
11 3 1 1 r
11 2 1 1 r
11 0 1 1 r
12 51 1 1 r
12 50 1 1 r
12 49 1 1 r
12 46 1 1 r
12 45 1 1 r
12 44 1 1 r
12 43 1 1 r
12 41 1 1 r
12 39 1 1 r
12 37 1 1 r
12 36 1 1 r
12 33 1 1 r
12 30 1 1 r
12 29 1 1 r
12 25 1 1 r
12 24 1 1 r
12 22 1 1 r
12 21 1 1 r
12 18 1 1 r
12 17 1 1 r
12 16 1 1 r
12 15 1 1 r
12 12 1 1 r
12 11 1 1 r
12 10 1 1 r
12 8 1 1 r
12 6 1 1 r
12 5 1 1 r
12 3 1 1 r
12 2 1 1 r
12 0 1 1 r
13 49 1 1 r
13 48 1 1 r
13 43 1 1 r
13 41 1 1 r
13 39 1 1 r
13 37 1 1 r
13 36 1 1 r
13 33 1 1 r
13 30 1 1 r
13 27 1 1 r
13 23 1 1 r
13 21 1 1 r
13 20 1 1 r
13 18 1 1 r
13 15 1 1 r
13 14 1 1 r
13 11 1 1 r
13 10 1 1 r
13 9 1 1 r
13 8 1 1 r
13 7 1 1 r
13 5 1 1 r
13 4 1 1 r
13 1 1 1 r
14 52 1 1 r
14 50 1 1 r
14 46 1 1 r
14 45 1 1 r
14 43 1 1 r
14 42 1 1 r
14 40 1 1 r
14 36 1 1 r
14 35 1 1 r
14 33 1 1 r
14 32 1 1 r
14 30 1 1 r
14 29 1 1 r
14 27 1 1 r
14 26 1 1 r
14 25 1 1 r
14 24 1 1 r
14 20 1 1 r
14 19 1 1 r
14 18 1 1 r
14 17 1 1 r
14 16 1 1 r
14 14 1 1 r
14 13 1 1 r
14 11 1 1 r
14 10 1 1 r
14 9 1 1 r
14 8 1 1 r
14 7 1 1 r
14 5 1 1 r
14 2 1 1 r
14 1 1 1 r
15 51 1 1 r
15 50 1 1 r
15 49 1 1 r
15 48 1 1 r
15 45 1 1 r
15 43 1 1 r
15 42 1 1 r
15 39 1 1 r
15 37 1 1 r
15 36 1 1 r
15 33 1 1 r
15 31 1 1 r
15 27 1 1 r
15 26 1 1 r
15 23 1 1 r
15 22 1 1 r
15 20 1 1 r
15 17 1 1 r
15 16 1 1 r
15 15 1 1 r
15 14 1 1 r
15 13 1 1 r
15 11 1 1 r
15 10 1 1 r
15 5 1 1 r
15 4 1 1 r
15 1 1 1 r
16 50 1 1 r
16 46 1 1 r
16 43 1 1 r
16 40 1 1 r
16 37 1 1 r
16 34 1 1 r
16 33 1 1 r
16 32 1 1 r
16 30 1 1 r
16 29 1 1 r
16 27 1 1 r
16 24 1 1 r
16 22 1 1 r
16 21 1 1 r
16 18 1 1 r
16 17 1 1 r
16 14 1 1 r
16 13 1 1 r
16 11 1 1 r
16 8 1 1 r
16 6 1 1 r
16 5 1 1 r
16 2 1 1 r
16 1 1 1 r
16 0 1 1 r
17 51 1 1 r
17 50 1 1 r
17 49 1 1 r
17 43 1 1 r
17 41 1 1 r
17 40 1 1 r
17 37 1 1 r
17 36 1 1 r
17 32 1 1 r
17 31 1 1 r
17 30 1 1 r
17 27 1 1 r
17 26 1 1 r
17 25 1 1 r
17 24 1 1 r
17 21 1 1 r
17 20 1 1 r
17 18 1 1 r
17 16 1 1 r
17 14 1 1 r
17 11 1 1 r
17 9 1 1 r
17 8 1 1 r
17 5 1 1 r
17 4 1 1 r
17 2 1 1 r
17 0 1 1 r
18 52 1 1 r
18 51 1 1 r
18 47 1 1 r
18 46 1 1 r
18 44 1 1 r
18 43 1 1 r
18 40 1 1 r
18 38 1 1 r
18 37 1 1 r
18 35 1 1 r
18 34 1 1 r
18 33 1 1 r
18 32 1 1 r
18 28 1 1 r
18 27 1 1 r
18 25 1 1 r
18 24 1 1 r
18 22 1 1 r
18 21 1 1 r
18 19 1 1 r
18 16 1 1 r
18 12 1 1 r
18 11 1 1 r
18 8 1 1 r
18 6 1 1 r
18 5 1 1 r
18 3 1 1 r
18 1 1 1 r
18 0 1 1 r
19 51 1 1 r
19 50 1 1 r
19 49 1 1 r
19 47 1 1 r
19 43 1 1 r
19 42 1 1 r
19 40 1 1 r
19 39 1 1 r
19 36 1 1 r
19 33 1 1 r
19 32 1 1 r
19 30 1 1 r
19 29 1 1 r
19 27 1 1 r
19 26 1 1 r
19 24 1 1 r
19 23 1 1 r
19 22 1 1 r
19 20 1 1 r
19 17 1 1 r
19 16 1 1 r
19 15 1 1 r
19 14 1 1 r
19 13 1 1 r
19 11 1 1 r
19 10 1 1 r
19 7 1 1 r
19 4 1 1 r
19 1 1 1 r
19 0 1 1 r
20 50 1 1 r
20 47 1 1 r
20 46 1 1 r
20 45 1 1 r
20 44 1 1 r
20 43 1 1 r
20 40 1 1 r
20 38 1 1 r
20 37 1 1 r
20 36 1 1 r
20 34 1 1 r
20 33 1 1 r
20 32 1 1 r
20 28 1 1 r
20 27 1 1 r
20 22 1 1 r
20 21 1 1 r
20 20 1 1 r
20 18 1 1 r
20 17 1 1 r
20 15 1 1 r
20 13 1 1 r
20 12 1 1 r
20 11 1 1 r
20 7 1 1 r
20 4 1 1 r
20 2 1 1 r
20 1 1 1 r
21 52 1 1 r
21 50 1 1 r
21 49 1 1 r
21 47 1 1 r
21 43 1 1 r
21 42 1 1 r
21 41 1 1 r
21 40 1 1 r
21 38 1 1 r
21 29 1 1 r
21 25 1 1 r
21 24 1 1 r
21 22 1 1 r
21 21 1 1 r
21 13 1 1 r
21 12 1 1 r
21 9 1 1 r
21 6 1 1 r
21 3 1 1 r
21 2 1 1 r
21 1 1 1 r
22 52 1 1 r
22 51 1 1 r
22 49 1 1 r
22 48 1 1 r
22 47 1 1 r
22 46 1 1 r
22 43 1 1 r
22 42 1 1 r
22 41 1 1 r
22 39 1 1 r
22 36 1 1 r
22 35 1 1 r
22 31 1 1 r
22 30 1 1 r
22 28 1 1 r
22 23 1 1 r
22 22 1 1 r
22 21 1 1 r
22 15 1 1 r
22 12 1 1 r
22 6 1 1 r
22 5 1 1 r
23 52 1 1 r
23 51 1 1 r
23 48 1 1 r
23 45 1 1 r
23 42 1 1 r
23 41 1 1 r
23 40 1 1 r
23 38 1 1 r
23 37 1 1 r
23 32 1 1 r
23 28 1 1 r
23 27 1 1 r
23 26 1 1 r
23 25 1 1 r
23 23 1 1 r
23 18 1 1 r
23 17 1 1 r
23 14 1 1 r
23 13 1 1 r
23 12 1 1 r
23 11 1 1 r
23 10 1 1 r
23 9 1 1 r
23 6 1 1 r
23 5 1 1 r
23 4 1 1 r
23 2 1 1 r
23 0 1 1 r
24 52 1 1 r
24 51 1 1 r
24 50 1 1 r
24 49 1 1 r
24 48 1 1 r
24 47 1 1 r
24 46 1 1 r
24 45 1 1 r
24 44 1 1 r
24 43 1 1 r
24 42 1 1 r
24 41 1 1 r
24 39 1 1 r
24 38 1 1 r
24 36 1 1 r
24 35 1 1 r
24 31 1 1 r
24 30 1 1 r
24 28 1 1 r
24 27 1 1 r
24 26 1 1 r
24 25 1 1 r
24 24 1 1 r
24 23 1 1 r
24 15 1 1 r
24 12 1 1 r
24 11 1 1 r
24 9 1 1 r
24 8 1 1 r
24 7 1 1 r
24 6 1 1 r
24 5 1 1 r
24 4 1 1 r
24 1 1 1 r
24 0 1 1 r
25 51 1 1 r
25 50 1 1 r
25 49 1 1 r
25 48 1 1 r
25 44 1 1 r
25 41 1 1 r
25 38 1 1 r
25 36 1 1 r
25 35 1 1 r
25 33 1 1 r
25 32 1 1 r
25 31 1 1 r
25 30 1 1 r
25 28 1 1 r
25 24 1 1 r
25 22 1 1 r
25 19 1 1 r
25 18 1 1 r
25 16 1 1 r
25 13 1 1 r
25 9 1 1 r
25 8 1 1 r
25 4 1 1 r
25 3 1 1 r
26 51 1 1 r
26 50 1 1 r
26 48 1 1 r
26 46 1 1 r
26 44 1 1 r
26 43 1 1 r
26 36 1 1 r
26 35 1 1 r
26 30 1 1 r
26 29 1 1 r
26 28 1 1 r
26 26 1 1 r
26 24 1 1 r
26 23 1 1 r
26 22 1 1 r
26 20 1 1 r
26 18 1 1 r
26 16 1 1 r
26 15 1 1 r
26 12 1 1 r
26 10 1 1 r
26 9 1 1 r
26 8 1 1 r
26 6 1 1 r
26 4 1 1 r
26 3 1 1 r
27 52 1 1 r
27 51 1 1 r
27 49 1 1 r
27 48 1 1 r
27 44 1 1 r
27 43 1 1 r
27 41 1 1 r
27 36 1 1 r
27 35 1 1 r
27 34 1 1 r
27 29 1 1 r
27 28 1 1 r
27 24 1 1 r
27 21 1 1 r
27 19 1 1 r
27 17 1 1 r
27 16 1 1 r
27 15 1 1 r
27 13 1 1 r
27 12 1 1 r
27 11 1 1 r
27 10 1 1 r
27 8 1 1 r
27 4 1 1 r
27 2 1 1 r
27 0 1 1 r
28 52 1 1 r
28 50 1 1 r
28 49 1 1 r
28 48 1 1 r
28 47 1 1 r
28 46 1 1 r
28 45 1 1 r
28 44 1 1 r
28 42 1 1 r
28 41 1 1 r
28 40 1 1 r
28 39 1 1 r
28 38 1 1 r
28 37 1 1 r
28 36 1 1 r
28 34 1 1 r
28 32 1 1 r
28 30 1 1 r
28 28 1 1 r
28 27 1 1 r
28 26 1 1 r
28 25 1 1 r
28 24 1 1 r
28 23 1 1 r
28 22 1 1 r
28 21 1 1 r
28 19 1 1 r
28 17 1 1 r
28 16 1 1 r
28 14 1 1 r
28 13 1 1 r
28 11 1 1 r
28 10 1 1 r
28 9 1 1 r
28 8 1 1 r
28 7 1 1 r
28 6 1 1 r
28 5 1 1 r
28 4 1 1 r
28 3 1 1 r
28 2 1 1 r
28 1 1 1 r
29 52 1 1 r
29 51 1 1 r
29 50 1 1 r
29 49 1 1 r
29 48 1 1 r
29 47 1 1 r
29 45 1 1 r
29 43 1 1 r
29 41 1 1 r
29 40 1 1 r
29 35 1 1 r
29 34 1 1 r
29 33 1 1 r
29 31 1 1 r
29 28 1 1 r
29 27 1 1 r
29 26 1 1 r
29 25 1 1 r
29 23 1 1 r
29 18 1 1 r
29 17 1 1 r
29 13 1 1 r
29 11 1 1 r
29 10 1 1 r
29 9 1 1 r
29 8 1 1 r
29 7 1 1 r
29 4 1 1 r
29 3 1 1 r
29 1 1 1 r
30 52 1 1 r
30 50 1 1 r
30 48 1 1 r
30 47 1 1 r
30 46 1 1 r
30 45 1 1 r
30 43 1 1 r
30 42 1 1 r
30 41 1 1 r
30 39 1 1 r
30 36 1 1 r
30 35 1 1 r
30 34 1 1 r
30 33 1 1 r
30 29 1 1 r
30 27 1 1 r
30 26 1 1 r
30 25 1 1 r
30 24 1 1 r
30 23 1 1 r
30 19 1 1 r
30 16 1 1 r
30 15 1 1 r
30 13 1 1 r
30 11 1 1 r
30 9 1 1 r
30 7 1 1 r
30 5 1 1 r
30 3 1 1 r
30 1 1 1 r
30 0 1 1 r
31 51 1 1 r
31 50 1 1 r
31 48 1 1 r
31 45 1 1 r
31 41 1 1 r
31 40 1 1 r
31 39 1 1 r
31 38 1 1 r
31 37 1 1 r
31 35 1 1 r
31 33 1 1 r
31 32 1 1 r
31 29 1 1 r
31 27 1 1 r
31 25 1 1 r
31 24 1 1 r
31 23 1 1 r
31 22 1 1 r
31 21 1 1 r
31 17 1 1 r
31 15 1 1 r
31 9 1 1 r
31 8 1 1 r
31 6 1 1 r
31 5 1 1 r
31 4 1 1 r
31 0 1 1 r
32 51 1 1 r
32 49 1 1 r
32 46 1 1 r
32 45 1 1 r
32 44 1 1 r
32 43 1 1 r
32 42 1 1 r
32 39 1 1 r
32 38 1 1 r
32 37 1 1 r
32 36 1 1 r
32 34 1 1 r
32 32 1 1 r
32 31 1 1 r
32 30 1 1 r
32 29 1 1 r
32 28 1 1 r
32 22 1 1 r
32 21 1 1 r
32 20 1 1 r
32 18 1 1 r
32 14 1 1 r
32 12 1 1 r
32 10 1 1 r
32 7 1 1 r
32 5 1 1 r
32 4 1 1 r
32 3 1 1 r
32 0 1 1 r
33 52 1 1 r
33 51 1 1 r
33 49 1 1 r
33 45 1 1 r
33 43 1 1 r
33 41 1 1 r
33 40 1 1 r
33 39 1 1 r
33 38 1 1 r
33 37 1 1 r
33 35 1 1 r
33 34 1 1 r
33 33 1 1 r
33 32 1 1 r
33 31 1 1 r
33 30 1 1 r
33 29 1 1 r
33 28 1 1 r
33 27 1 1 r
33 26 1 1 r
33 20 1 1 r
33 18 1 1 r
33 17 1 1 r
33 13 1 1 r
33 11 1 1 r
33 10 1 1 r
33 9 1 1 r
33 8 1 1 r
33 5 1 1 r
33 4 1 1 r
33 3 1 1 r
33 2 1 1 r
33 1 1 1 r
33 0 1 1 r
34 51 1 1 r
34 50 1 1 r
34 48 1 1 r
34 46 1 1 r
34 45 1 1 r
34 44 1 1 r
34 41 1 1 r
34 40 1 1 r
34 38 1 1 r
34 36 1 1 r
34 31 1 1 r
34 29 1 1 r
34 27 1 1 r
34 26 1 1 r
34 25 1 1 r
34 24 1 1 r
34 23 1 1 r
34 21 1 1 r
34 19 1 1 r
34 18 1 1 r
34 17 1 1 r
34 16 1 1 r
34 15 1 1 r
34 14 1 1 r
34 13 1 1 r
34 12 1 1 r
34 9 1 1 r
34 8 1 1 r
34 7 1 1 r
34 4 1 1 r
34 1 1 1 r
35 51 1 1 r
35 49 1 1 r
35 45 1 1 r
35 44 1 1 r
35 42 1 1 r
35 41 1 1 r
35 40 1 1 r
35 36 1 1 r
35 34 1 1 r
35 32 1 1 r
35 25 1 1 r
35 22 1 1 r
35 21 1 1 r
35 20 1 1 r
35 18 1 1 r
35 17 1 1 r
35 13 1 1 r
35 11 1 1 r
35 10 1 1 r
35 9 1 1 r
35 6 1 1 r
35 5 1 1 r
35 4 1 1 r
35 3 1 1 r
35 2 1 1 r
35 1 1 1 r
36 52 1 1 r
36 51 1 1 r
36 49 1 1 r
36 48 1 1 r
36 47 1 1 r
36 46 1 1 r
36 45 1 1 r
36 44 1 1 r
36 42 1 1 r
36 40 1 1 r
36 36 1 1 r
36 34 1 1 r
36 33 1 1 r
36 32 1 1 r
36 31 1 1 r
36 30 1 1 r
36 29 1 1 r
36 28 1 1 r
36 26 1 1 r
36 22 1 1 r
36 20 1 1 r
36 18 1 1 r
36 15 1 1 r
36 12 1 1 r
36 11 1 1 r
36 9 1 1 r
36 7 1 1 r
36 5 1 1 r
36 4 1 1 r
36 2 1 1 r
36 1 1 1 r
37 51 1 1 r
37 50 1 1 r
37 48 1 1 r
37 47 1 1 r
37 45 1 1 r
37 44 1 1 r
37 42 1 1 r
37 40 1 1 r
37 39 1 1 r
37 38 1 1 r
37 36 1 1 r
37 34 1 1 r
37 32 1 1 r
37 31 1 1 r
37 28 1 1 r
37 24 1 1 r
37 23 1 1 r
37 22 1 1 r
37 16 1 1 r
37 15 1 1 r
37 14 1 1 r
37 13 1 1 r
37 11 1 1 r
37 8 1 1 r
37 6 1 1 r
37 4 1 1 r
37 1 1 1 r
37 0 1 1 r
38 52 1 1 r
38 47 1 1 r
38 46 1 1 r
38 44 1 1 r
38 43 1 1 r
38 42 1 1 r
38 41 1 1 r
38 35 1 1 r
38 34 1 1 r
38 33 1 1 r
38 29 1 1 r
38 27 1 1 r
38 26 1 1 r
38 20 1 1 r
38 12 1 1 r
38 9 1 1 r
38 8 1 1 r
38 7 1 1 r
38 6 1 1 r
38 3 1 1 r
38 2 1 1 r
39 49 1 1 r
39 44 1 1 r
39 42 1 1 r
39 38 1 1 r
39 37 1 1 r
39 33 1 1 r
39 31 1 1 r
39 29 1 1 r
39 28 1 1 r
39 27 1 1 r
39 25 1 1 r
39 22 1 1 r
39 21 1 1 r
39 20 1 1 r
39 16 1 1 r
39 12 1 1 r
39 10 1 1 r
39 9 1 1 r
39 7 1 1 r
39 6 1 1 r
39 4 1 1 r
39 3 1 1 r
39 2 1 1 r
39 1 1 1 r
40 52 1 1 r
40 51 1 1 r
40 50 1 1 r
40 49 1 1 r
40 47 1 1 r
40 46 1 1 r
40 45 1 1 r
40 42 1 1 r
40 41 1 1 r
40 35 1 1 r
40 34 1 1 r
40 32 1 1 r
40 27 1 1 r
40 23 1 1 r
40 18 1 1 r
40 17 1 1 r
40 15 1 1 r
40 14 1 1 r
40 11 1 1 r
40 9 1 1 r
40 7 1 1 r
40 6 1 1 r
40 3 1 1 r
40 2 1 1 r
40 1 1 1 r
40 0 1 1 r
41 52 1 1 r
41 51 1 1 r
41 49 1 1 r
41 47 1 1 r
41 41 1 1 r
41 39 1 1 r
41 37 1 1 r
41 35 1 1 r
41 34 1 1 r
41 31 1 1 r
41 30 1 1 r
41 29 1 1 r
41 28 1 1 r
41 27 1 1 r
41 24 1 1 r
41 22 1 1 r
41 21 1 1 r
41 19 1 1 r
41 17 1 1 r
41 14 1 1 r
41 13 1 1 r
41 11 1 1 r
41 8 1 1 r
41 5 1 1 r
41 4 1 1 r
41 3 1 1 r
41 0 1 1 r
42 52 1 1 r
42 51 1 1 r
42 49 1 1 r
42 48 1 1 r
42 47 1 1 r
42 46 1 1 r
42 45 1 1 r
42 43 1 1 r
42 42 1 1 r
42 40 1 1 r
42 39 1 1 r
42 37 1 1 r
42 35 1 1 r
42 33 1 1 r
42 31 1 1 r
42 30 1 1 r
42 29 1 1 r
42 27 1 1 r
42 26 1 1 r
42 24 1 1 r
42 22 1 1 r
42 19 1 1 r
42 18 1 1 r
42 15 1 1 r
42 14 1 1 r
42 13 1 1 r
42 11 1 1 r
42 10 1 1 r
42 9 1 1 r
42 8 1 1 r
42 5 1 1 r
42 4 1 1 r
42 3 1 1 r
42 2 1 1 r
42 0 1 1 r
43 51 1 1 r
43 50 1 1 r
43 45 1 1 r
43 44 1 1 r
43 41 1 1 r
43 36 1 1 r
43 28 1 1 r
43 27 1 1 r
43 23 1 1 r
43 21 1 1 r
43 20 1 1 r
43 16 1 1 r
43 15 1 1 r
43 13 1 1 r
43 11 1 1 r
43 8 1 1 r
43 7 1 1 r
43 5 1 1 r
43 4 1 1 r
43 3 1 1 r
43 1 1 1 r
44 49 1 1 r
44 46 1 1 r
44 45 1 1 r
44 44 1 1 r
44 43 1 1 r
44 42 1 1 r
44 40 1 1 r
44 37 1 1 r
44 36 1 1 r
44 35 1 1 r
44 34 1 1 r
44 33 1 1 r
44 31 1 1 r
44 30 1 1 r
44 29 1 1 r
44 28 1 1 r
44 27 1 1 r
44 26 1 1 r
44 25 1 1 r
44 24 1 1 r
44 20 1 1 r
44 19 1 1 r
44 17 1 1 r
44 16 1 1 r
44 12 1 1 r
44 11 1 1 r
44 8 1 1 r
44 7 1 1 r
44 6 1 1 r
44 5 1 1 r
44 4 1 1 r
45 43 1 1 r
45 39 1 1 r
45 37 1 1 r
45 36 1 1 r
45 35 1 1 r
45 34 1 1 r
45 33 1 1 r
45 32 1 1 r
45 31 1 1 r
45 29 1 1 r
45 28 1 1 r
45 24 1 1 r
45 22 1 1 r
45 21 1 1 r
45 17 1 1 r
45 16 1 1 r
45 13 1 1 r
45 12 1 1 r
45 11 1 1 r
45 10 1 1 r
45 8 1 1 r
45 4 1 1 r
45 2 1 1 r
46 52 1 1 r
46 51 1 1 r
46 50 1 1 r
46 49 1 1 r
46 48 1 1 r
46 47 1 1 r
46 46 1 1 r
46 43 1 1 r
46 42 1 1 r
46 41 1 1 r
46 38 1 1 r
46 36 1 1 r
46 34 1 1 r
46 30 1 1 r
46 29 1 1 r
46 28 1 1 r
46 26 1 1 r
46 24 1 1 r
46 23 1 1 r
46 21 1 1 r
46 18 1 1 r
46 17 1 1 r
46 15 1 1 r
46 10 1 1 r
46 8 1 1 r
46 6 1 1 r
46 4 1 1 r
47 52 1 1 r
47 46 1 1 r
47 44 1 1 r
47 40 1 1 r
47 39 1 1 r
47 38 1 1 r
47 37 1 1 r
47 36 1 1 r
47 34 1 1 r
47 29 1 1 r
47 28 1 1 r
47 24 1 1 r
47 23 1 1 r
47 19 1 1 r
47 16 1 1 r
47 14 1 1 r
47 13 1 1 r
47 11 1 1 r
47 10 1 1 r
47 8 1 1 r
47 4 1 1 r
47 2 1 1 r
47 1 1 1 r
48 52 1 1 r
48 50 1 1 r
48 49 1 1 r
48 48 1 1 r
48 46 1 1 r
48 40 1 1 r
48 38 1 1 r
48 37 1 1 r
48 36 1 1 r
48 35 1 1 r
48 33 1 1 r
48 32 1 1 r
48 31 1 1 r
48 30 1 1 r
48 29 1 1 r
48 28 1 1 r
48 27 1 1 r
48 26 1 1 r
48 25 1 1 r
48 24 1 1 r
48 23 1 1 r
48 22 1 1 r
48 20 1 1 r
48 19 1 1 r
48 16 1 1 r
48 15 1 1 r
48 13 1 1 r
48 12 1 1 r
48 11 1 1 r
48 8 1 1 r
48 7 1 1 r
48 6 1 1 r
48 5 1 1 r
48 4 1 1 r
48 3 1 1 r
48 2 1 1 r
48 1 1 1 r
48 0 1 1 r
49 52 1 1 r
49 50 1 1 r
49 49 1 1 r
49 48 1 1 r
49 46 1 1 r
49 44 1 1 r
49 41 1 1 r
49 40 1 1 r
49 39 1 1 r
49 38 1 1 r
49 37 1 1 r
49 33 1 1 r
49 32 1 1 r
49 31 1 1 r
49 30 1 1 r
49 29 1 1 r
49 26 1 1 r
49 25 1 1 r
49 22 1 1 r
49 18 1 1 r
49 17 1 1 r
49 14 1 1 r
49 12 1 1 r
49 11 1 1 r
49 10 1 1 r
49 8 1 1 r
49 7 1 1 r
49 5 1 1 r
49 4 1 1 r
49 3 1 1 r
49 1 1 1 r
50 52 1 1 r
50 50 1 1 r
50 49 1 1 r
50 48 1 1 r
50 46 1 1 r
50 44 1 1 r
50 43 1 1 r
50 38 1 1 r
50 37 1 1 r
50 29 1 1 r
50 28 1 1 r
50 26 1 1 r
50 19 1 1 r
50 18 1 1 r
50 15 1 1 r
50 12 1 1 r
50 8 1 1 r
50 7 1 1 r
50 4 1 1 r
50 2 1 1 r
50 0 1 1 r
51 52 1 1 r
51 46 1 1 r
51 44 1 1 r
51 40 1 1 r
51 37 1 1 r
51 36 1 1 r
51 34 1 1 r
51 32 1 1 r
51 24 1 1 r
51 21 1 1 r
51 19 1 1 r
51 16 1 1 r
51 12 1 1 r
51 11 1 1 r
51 10 1 1 r
51 8 1 1 r
51 6 1 1 r
51 4 1 1 r
51 2 1 1 r
51 1 1 1 r
52 52 1 1 r
52 51 1 1 r
52 50 1 1 r
52 49 1 1 r
52 48 1 1 r
52 47 1 1 r
52 46 1 1 r
52 44 1 1 r
52 43 1 1 r
52 41 1 1 r
52 40 1 1 r
52 39 1 1 r
52 38 1 1 r
52 36 1 1 r
52 34 1 1 r
52 33 1 1 r
52 31 1 1 r
52 30 1 1 r
52 29 1 1 r
52 25 1 1 r
52 23 1 1 r
52 22 1 1 r
52 21 1 1 r
52 20 1 1 r
52 16 1 1 r
52 14 1 1 r
52 13 1 1 r
52 12 1 1 r
52 9 1 1 r
52 7 1 1 r
52 6 1 1 r
52 4 1 1 r
52 2 1 1 r
%%EOF